EESchema Schematic File Version 5
EELAYER 30 0
EELAYER END
$Descr A4 11693 8268
encoding utf-8
Sheet 1 1
Title ""
Date ""
Rev ""
Comp ""
Comment1 ""
Comment2 ""
Comment3 ""
Comment4 ""
Comment5 ""
Comment6 ""
Comment7 ""
Comment8 ""
Comment9 ""
$EndDescr
Wire Wire Line
	1150 1100 1500 1100
Wire Wire Line
	1150 1200 1500 1200
Wire Wire Line
	1150 1300 1500 1300
Wire Wire Line
	1150 1400 1500 1400
Wire Wire Line
	1150 1500 1500 1500
Wire Wire Line
	1150 1600 1500 1600
Wire Wire Line
	1150 1700 1500 1700
Wire Wire Line
	1150 1800 1500 1800
Wire Wire Line
	1150 1900 1500 1900
Wire Wire Line
	1150 2000 1500 2000
Wire Wire Line
	1150 2100 1500 2100
Wire Wire Line
	1150 2800 1500 2800
Wire Wire Line
	1150 3000 1500 3000
Wire Wire Line
	1150 3700 1500 3700
Wire Wire Line
	1150 3800 1500 3800
Wire Wire Line
	1150 3900 1500 3900
Wire Wire Line
	1150 4000 1500 4000
Wire Wire Line
	1150 4100 1500 4100
Wire Wire Line
	1150 4200 1200 4200
Wire Wire Line
	2450 3025 2800 3025
Wire Wire Line
	2450 3425 2800 3425
Wire Wire Line
	2450 1725 2800 1725
Wire Wire Line
	2450 3525 2800 3525
Wire Wire Line
	2450 4225 2525 4225
Wire Wire Line
	2450 1425 2800 1425
Wire Wire Line
	2450 1525 2800 1525
Wire Wire Line
	2450 3925 2800 3925
Wire Wire Line
	2450 4025 2800 4025
Wire Wire Line
	2450 3725 2800 3725
Wire Wire Line
	2450 3625 2800 3625
Wire Wire Line
	2450 4125 2800 4125
Wire Wire Line
	2450 1225 2800 1225
Wire Wire Line
	2450 3825 2800 3825
Wire Wire Line
	2450 1625 2800 1625
Wire Wire Line
	2450 1925 2800 1925
Wire Wire Line
	2450 2425 2800 2425
Wire Wire Line
	2450 1325 2800 1325
Wire Wire Line
	2450 2825 2800 2825
Wire Wire Line
	2450 3225 2800 3225
Wire Wire Line
	2450 1825 2800 1825
Wire Wire Line
	2450 3125 2800 3125
Wire Wire Line
	2450 2025 2800 2025
Wire Wire Line
	2450 2725 2800 2725
$Comp
L my_conn:CONN_DIN41612_32x3 P?
U 1 1 5EFA257C
P 950 2650
AR Path="/5EFDD352/5EFA257C" Ref="P?"  Part="1" 
AR Path="/5EFDE485/5EFA257C" Ref="P?"  Part="1" 
AR Path="/5EFA257C" Ref="P?"  Part="1" 
F 0 "P?" H 867 4415 50  0000 C CNN
F 1 "CONN_DIN41612_32x3" H 867 4324 50  0000 C CNN
F 2 "" H 950 2650 50  0000 C CNN
F 3 "" H 950 2650 50  0000 C CNN
	1    950  2650
	-1   0    0    -1  
$EndComp
Text Label 2800 1325 2    50   ~ 0
DB7
$Comp
L my_conn:CONN_DIN41612_32x3 P?
U 3 1 5EFA60F5
P 2250 2675
AR Path="/5EFDD352/5EFA60F5" Ref="P?"  Part="3" 
AR Path="/5EFDE485/5EFA60F5" Ref="P?"  Part="3" 
AR Path="/5EFA60F5" Ref="P?"  Part="3" 
F 0 "P?" H 2167 4440 50  0000 C CNN
F 1 "CONN_DIN41612_32x3" H 2167 4349 50  0000 C CNN
F 2 "" H 2250 2675 50  0000 C CNN
F 3 "" H 2250 2675 50  0000 C CNN
	3    2250 2675
	-1   0    0    -1  
$EndComp
Text Label 2800 1225 2    50   ~ 0
DB0
Text Label 2800 1425 2    50   ~ 0
DB2
Text Label 1500 1300 2    50   ~ 0
DB6
Text Label 2800 2425 2    50   ~ 0
DB1
Text Label 1500 1400 2    50   ~ 0
DB3
Text Label 1500 1500 2    50   ~ 0
DB4
Text Label 1500 1200 2    50   ~ 0
DB5
Wire Wire Line
	2450 1125 2800 1125
$Comp
L power:+5V #PWR?
U 1 1 5EFBB209
P 2800 925
AR Path="/5EFDD352/5EFBB209" Ref="#PWR?"  Part="1" 
AR Path="/5EFDE485/5EFBB209" Ref="#PWR?"  Part="1" 
AR Path="/5EFBB209" Ref="#PWR?"  Part="1" 
F 0 "#PWR?" H 2800 775 50  0001 C CNN
F 1 "+5V" H 2815 1098 50  0000 C CNN
F 2 "" H 2800 925 50  0001 C CNN
F 3 "" H 2800 925 50  0001 C CNN
	1    2800 925 
	1    0    0    -1  
$EndComp
Wire Wire Line
	2800 925  2800 1125
$Comp
L power:+5V #PWR?
U 1 1 5EFBC250
P 1500 900
AR Path="/5EFDD352/5EFBC250" Ref="#PWR?"  Part="1" 
AR Path="/5EFDE485/5EFBC250" Ref="#PWR?"  Part="1" 
AR Path="/5EFBC250" Ref="#PWR?"  Part="1" 
F 0 "#PWR?" H 1500 750 50  0001 C CNN
F 1 "+5V" H 1515 1073 50  0000 C CNN
F 2 "" H 1500 900 50  0001 C CNN
F 3 "" H 1500 900 50  0001 C CNN
	1    1500 900 
	1    0    0    -1  
$EndComp
Wire Wire Line
	1500 900  1500 1100
$Comp
L power:GND #PWR?
U 1 1 5EFBCA20
P 2525 4275
AR Path="/5EFDD352/5EFBCA20" Ref="#PWR?"  Part="1" 
AR Path="/5EFDE485/5EFBCA20" Ref="#PWR?"  Part="1" 
AR Path="/5EFBCA20" Ref="#PWR?"  Part="1" 
F 0 "#PWR?" H 2525 4025 50  0001 C CNN
F 1 "GND" H 2530 4102 50  0000 C CNN
F 2 "" H 2525 4275 50  0001 C CNN
F 3 "" H 2525 4275 50  0001 C CNN
	1    2525 4275
	1    0    0    -1  
$EndComp
Wire Wire Line
	2525 4275 2525 4225
Wire Wire Line
	1200 4250 1200 4200
$Comp
L power:GND #PWR?
U 1 1 5EFBD4EE
P 1200 4250
AR Path="/5EFDD352/5EFBD4EE" Ref="#PWR?"  Part="1" 
AR Path="/5EFDE485/5EFBD4EE" Ref="#PWR?"  Part="1" 
AR Path="/5EFBD4EE" Ref="#PWR?"  Part="1" 
F 0 "#PWR?" H 1200 4000 50  0001 C CNN
F 1 "GND" H 1205 4077 50  0000 C CNN
F 2 "" H 1200 4250 50  0001 C CNN
F 3 "" H 1200 4250 50  0001 C CNN
	1    1200 4250
	1    0    0    -1  
$EndComp
Text Label 1500 1800 2    50   ~ 0
AB5
Text Label 2800 1525 2    50   ~ 0
AB0
Text Label 1500 1600 2    50   ~ 0
AB2
Text Label 1500 1700 2    50   ~ 0
AB4
Text Label 2800 1925 2    50   ~ 0
AB7
Text Label 2800 1725 2    50   ~ 0
AB1
Text Label 1500 1900 2    50   ~ 0
AB6
Text Label 2800 1625 2    50   ~ 0
AB3
Text Label 2800 3825 2    50   ~ 0
AB12
Text Label 1500 2800 2    50   ~ 0
AB14
Text Label 2800 2725 2    50   ~ 0
AB11
Text Label 2800 2825 2    50   ~ 0
AB10
Text Label 2800 1825 2    50   ~ 0
AB8
Text Label 2800 3725 2    50   ~ 0
AB15
Text Label 1500 3900 2    50   ~ 0
AB13
Text Label 1500 4000 2    50   ~ 0
AB9
Text Label 1500 2000 2    50   ~ 0
~WAIT
Text Label 1500 2100 2    50   ~ 0
~BUSRQ
Text Label 2800 3225 2    50   ~ 0
~WRb
Text Label 2800 3425 2    50   ~ 0
~RDb
Text Label 1500 3000 2    50   ~ 0
~M1b
Text Label 1500 3800 2    50   ~ 0
~RFSHb
Text Label 2800 4025 2    50   ~ 0
~MREQb
Text Label 1500 3700 2    50   ~ 0
~IORQb
Text Label 1500 4100 2    50   ~ 0
~BUSACKb
Text Label 2800 3925 2    50   ~ 0
~PER_CLK
Text Label 2800 4125 2    50   ~ 0
~RESET
Text Label 2800 3625 2    50   ~ 0
~RESET
NoConn ~ 1150 3500
NoConn ~ 1150 3600
NoConn ~ 1150 3300
NoConn ~ 1150 3400
NoConn ~ 1150 2900
NoConn ~ 1150 3100
NoConn ~ 1150 2400
NoConn ~ 1150 2500
NoConn ~ 1150 2600
NoConn ~ 1150 2700
Wire Wire Line
	2450 2125 2800 2125
Text Notes 2800 2025 0    50   ~ 0
 not conn.
NoConn ~ 2450 2225
NoConn ~ 2450 2325
NoConn ~ 2450 2525
NoConn ~ 2450 2925
Text Label 2800 3025 2    50   ~ 0
~NMI
Text Label 2800 3125 2    50   ~ 0
~INT
NoConn ~ 2450 3325
Text Label 2800 3525 2    50   ~ 0
~HALT
Wire Notes Line
	525  525  3225 525 
Wire Notes Line
	3225 525  3225 4525
Wire Notes Line
	3225 4525 525  4525
Wire Notes Line
	525  4525 525  525 
Text Notes 575  675  0    50   ~ 0
ECB - Bus
Wire Wire Line
	1150 2200 1500 2200
Text Label 1500 2200 2    50   ~ 0
12A
$Comp
L 74xx:74LS245 U6
U 1 1 5F41FA27
P 7075 1475
F 0 "U6" H 6800 2225 50  0000 C CNN
F 1 "74LS245" H 6850 2150 50  0000 C CNN
F 2 "" H 7075 1475 50  0001 C CNN
F 3 "http://www.ti.com/lit/gpn/sn74LS245" H 7075 1475 50  0001 C CNN
	1    7075 1475
	1    0    0    -1  
$EndComp
$Comp
L power:+5V #PWR?
U 1 1 5F422B56
P 7075 675
AR Path="/5EFDD352/5F422B56" Ref="#PWR?"  Part="1" 
AR Path="/5EFDE485/5F422B56" Ref="#PWR?"  Part="1" 
AR Path="/5F422B56" Ref="#PWR?"  Part="1" 
F 0 "#PWR?" H 7075 525 50  0001 C CNN
F 1 "+5V" H 7075 825 50  0000 C CNN
F 2 "" H 7075 675 50  0001 C CNN
F 3 "" H 7075 675 50  0001 C CNN
	1    7075 675 
	1    0    0    -1  
$EndComp
$Comp
L power:GND #PWR?
U 1 1 5F422F5B
P 7075 2275
AR Path="/5EFDD352/5F422F5B" Ref="#PWR?"  Part="1" 
AR Path="/5EFDE485/5F422F5B" Ref="#PWR?"  Part="1" 
AR Path="/5F422F5B" Ref="#PWR?"  Part="1" 
F 0 "#PWR?" H 7075 2025 50  0001 C CNN
F 1 "GND" H 7075 2125 50  0000 C CNN
F 2 "" H 7075 2275 50  0001 C CNN
F 3 "" H 7075 2275 50  0001 C CNN
	1    7075 2275
	1    0    0    -1  
$EndComp
Wire Wire Line
	6575 975  6375 975 
Wire Wire Line
	6575 1075 6375 1075
Wire Wire Line
	6575 1175 6375 1175
Wire Wire Line
	6575 1275 6375 1275
Wire Wire Line
	6575 1375 6375 1375
Wire Wire Line
	6575 1475 6375 1475
Wire Wire Line
	6575 1575 6375 1575
Wire Wire Line
	6575 1675 6375 1675
Wire Wire Line
	7700 975  7575 975 
Wire Wire Line
	7700 1075 7575 1075
Text Label 6375 975  0    50   ~ 0
DB0
Text Label 6375 1075 0    50   ~ 0
DB1
Text Label 6375 1175 0    50   ~ 0
DB2
Text Label 6375 1275 0    50   ~ 0
DB3
Text Label 6375 1375 0    50   ~ 0
DB4
Text Label 6375 1475 0    50   ~ 0
DB5
Text Label 6375 1575 0    50   ~ 0
DB6
Text Label 6375 1675 0    50   ~ 0
DB7
Wire Wire Line
	7700 1275 7575 1275
Wire Wire Line
	7700 1175 7575 1175
Wire Wire Line
	7700 1475 7575 1475
Wire Wire Line
	7700 1375 7575 1375
Wire Wire Line
	7700 1675 7575 1675
Wire Wire Line
	7700 1575 7575 1575
Text Label 7700 975  2    50   ~ 0
D0
Text Label 7700 1075 2    50   ~ 0
D1
Text Label 7700 1175 2    50   ~ 0
D2
Text Label 7700 1275 2    50   ~ 0
D3
Text Label 7700 1375 2    50   ~ 0
D4
Text Label 7700 1475 2    50   ~ 0
D5
Text Label 7700 1575 2    50   ~ 0
D6
Text Label 7700 1675 2    50   ~ 0
D7
$Comp
L 74xx:74HCT00 U3
U 1 1 5F76A5B0
P 3475 6500
F 0 "U3" H 3475 6825 50  0000 C CNN
F 1 "74HCT00" H 3475 6734 50  0000 C CNN
F 2 "" H 3475 6500 50  0001 C CNN
F 3 "http://www.ti.com/lit/gpn/sn74hct00" H 3475 6500 50  0001 C CNN
	1    3475 6500
	-1   0    0    -1  
$EndComp
$Comp
L 74xx:74HCT00 U3
U 2 1 5F76C8D5
P 4300 3500
F 0 "U3" H 4300 3775 50  0000 C CNN
F 1 "74HCT00" H 4325 3700 50  0000 C CNN
F 2 "" H 4300 3500 50  0001 C CNN
F 3 "http://www.ti.com/lit/gpn/sn74hct00" H 4300 3500 50  0001 C CNN
	2    4300 3500
	-1   0    0    -1  
$EndComp
$Comp
L 74xx:74HCT00 U3
U 5 1 5F76F896
P 5450 7075
F 0 "U3" H 5375 7125 50  0000 L CNN
F 1 "74HCT00" H 5275 7050 50  0000 L CNN
F 2 "" H 5450 7075 50  0001 C CNN
F 3 "http://www.ti.com/lit/gpn/sn74hct00" H 5450 7075 50  0001 C CNN
	5    5450 7075
	1    0    0    -1  
$EndComp
$Comp
L power:GND #PWR?
U 1 1 5F770A60
P 5450 7575
AR Path="/5EFDD352/5F770A60" Ref="#PWR?"  Part="1" 
AR Path="/5EFDE485/5F770A60" Ref="#PWR?"  Part="1" 
AR Path="/5F770A60" Ref="#PWR?"  Part="1" 
F 0 "#PWR?" H 5450 7325 50  0001 C CNN
F 1 "GND" H 5455 7402 50  0000 C CNN
F 2 "" H 5450 7575 50  0001 C CNN
F 3 "" H 5450 7575 50  0001 C CNN
	1    5450 7575
	1    0    0    -1  
$EndComp
$Comp
L power:+5V #PWR?
U 1 1 5F771038
P 5450 6575
AR Path="/5EFDD352/5F771038" Ref="#PWR?"  Part="1" 
AR Path="/5EFDE485/5F771038" Ref="#PWR?"  Part="1" 
AR Path="/5F771038" Ref="#PWR?"  Part="1" 
F 0 "#PWR?" H 5450 6425 50  0001 C CNN
F 1 "+5V" H 5465 6748 50  0000 C CNN
F 2 "" H 5450 6575 50  0001 C CNN
F 3 "" H 5450 6575 50  0001 C CNN
	1    5450 6575
	1    0    0    -1  
$EndComp
$Comp
L 74xx:74LS138 U5
U 1 1 5F77FB1D
P 1275 5325
F 0 "U5" H 900 5875 50  0000 C CNN
F 1 "74LS138" H 1000 5800 50  0000 C CNN
F 2 "" H 1275 5325 50  0001 C CNN
F 3 "http://www.ti.com/lit/gpn/sn74LS138" H 1275 5325 50  0001 C CNN
	1    1275 5325
	1    0    0    -1  
$EndComp
Wire Wire Line
	575  5225 575  5625
$Comp
L power:GND #PWR?
U 1 1 5F7812F5
P 575 5875
AR Path="/5EFDD352/5F7812F5" Ref="#PWR?"  Part="1" 
AR Path="/5EFDE485/5F7812F5" Ref="#PWR?"  Part="1" 
AR Path="/5F7812F5" Ref="#PWR?"  Part="1" 
F 0 "#PWR?" H 575 5625 50  0001 C CNN
F 1 "GND" H 575 5725 50  0000 C CNN
F 2 "" H 575 5875 50  0001 C CNN
F 3 "" H 575 5875 50  0001 C CNN
	1    575  5875
	1    0    0    -1  
$EndComp
$Comp
L power:GND #PWR?
U 1 1 5F78177C
P 1275 6025
AR Path="/5EFDD352/5F78177C" Ref="#PWR?"  Part="1" 
AR Path="/5EFDE485/5F78177C" Ref="#PWR?"  Part="1" 
AR Path="/5F78177C" Ref="#PWR?"  Part="1" 
F 0 "#PWR?" H 1275 5775 50  0001 C CNN
F 1 "GND" H 1275 5875 50  0000 C CNN
F 2 "" H 1275 6025 50  0001 C CNN
F 3 "" H 1275 6025 50  0001 C CNN
	1    1275 6025
	1    0    0    -1  
$EndComp
Text Label 550  5025 0    50   ~ 0
AB2
Wire Wire Line
	550  5025 775  5025
Wire Wire Line
	550  5125 775  5125
Text Label 550  5125 0    50   ~ 0
AB3
Wire Wire Line
	575  5225 775  5225
Wire Wire Line
	775  5625 575  5625
Connection ~ 575  5625
Wire Wire Line
	575  5625 575  5725
Wire Wire Line
	775  5725 575  5725
Connection ~ 575  5725
Wire Wire Line
	575  5725 575  5875
$Comp
L power:+5V #PWR?
U 1 1 5F78911D
P 1275 4725
AR Path="/5EFDD352/5F78911D" Ref="#PWR?"  Part="1" 
AR Path="/5EFDE485/5F78911D" Ref="#PWR?"  Part="1" 
AR Path="/5F78911D" Ref="#PWR?"  Part="1" 
F 0 "#PWR?" H 1275 4575 50  0001 C CNN
F 1 "+5V" H 1275 4875 50  0000 C CNN
F 2 "" H 1275 4725 50  0001 C CNN
F 3 "" H 1275 4725 50  0001 C CNN
	1    1275 4725
	1    0    0    -1  
$EndComp
$Comp
L power:+5V #PWR?
U 1 1 5F78BE4D
P 4610 3945
AR Path="/5EFDD352/5F78BE4D" Ref="#PWR?"  Part="1" 
AR Path="/5EFDE485/5F78BE4D" Ref="#PWR?"  Part="1" 
AR Path="/5F78BE4D" Ref="#PWR?"  Part="1" 
F 0 "#PWR?" H 4610 3795 50  0001 C CNN
F 1 "+5V" H 4610 4095 50  0000 C CNN
F 2 "" H 4610 3945 50  0001 C CNN
F 3 "" H 4610 3945 50  0001 C CNN
	1    4610 3945
	1    0    0    -1  
$EndComp
Wire Wire Line
	4610 3945 4610 3995
Wire Wire Line
	4610 3995 4660 3995
Wire Wire Line
	5210 3995 5160 3995
$Comp
L power:+5V #PWR?
U 1 1 5F78CB22
P 5210 3945
AR Path="/5EFDD352/5F78CB22" Ref="#PWR?"  Part="1" 
AR Path="/5EFDE485/5F78CB22" Ref="#PWR?"  Part="1" 
AR Path="/5F78CB22" Ref="#PWR?"  Part="1" 
F 0 "#PWR?" H 5210 3795 50  0001 C CNN
F 1 "+5V" H 5210 4095 50  0000 C CNN
F 2 "" H 5210 3945 50  0001 C CNN
F 3 "" H 5210 3945 50  0001 C CNN
	1    5210 3945
	-1   0    0    -1  
$EndComp
Wire Wire Line
	5210 3945 5210 3995
$Comp
L Connector_Generic:Conn_02x12_Counter_Clockwise J?
U 1 1 5F78D905
P 4860 4495
F 0 "J?" H 4910 5212 50  0000 C CNN
F 1 "Parallel" H 4910 5121 50  0000 C CNN
F 2 "" H 4860 4495 50  0001 C CNN
F 3 "~" H 4860 4495 50  0001 C CNN
	1    4860 4495
	1    0    0    -1  
$EndComp
Wire Wire Line
	4660 4095 4310 4095
Wire Wire Line
	4310 4095 4310 4270
$Comp
L power:GND #PWR?
U 1 1 5F793A1D
P 4310 4270
AR Path="/5EFDD352/5F793A1D" Ref="#PWR?"  Part="1" 
AR Path="/5EFDE485/5F793A1D" Ref="#PWR?"  Part="1" 
AR Path="/5F793A1D" Ref="#PWR?"  Part="1" 
F 0 "#PWR?" H 4310 4020 50  0001 C CNN
F 1 "GND" H 4310 4120 50  0000 C CNN
F 2 "" H 4310 4270 50  0001 C CNN
F 3 "" H 4310 4270 50  0001 C CNN
	1    4310 4270
	1    0    0    -1  
$EndComp
Wire Wire Line
	5160 4095 5510 4095
$Comp
L power:GND #PWR?
U 1 1 5F793E6F
P 5510 4270
AR Path="/5EFDD352/5F793E6F" Ref="#PWR?"  Part="1" 
AR Path="/5EFDE485/5F793E6F" Ref="#PWR?"  Part="1" 
AR Path="/5F793E6F" Ref="#PWR?"  Part="1" 
F 0 "#PWR?" H 5510 4020 50  0001 C CNN
F 1 "GND" H 5510 4120 50  0000 C CNN
F 2 "" H 5510 4270 50  0001 C CNN
F 3 "" H 5510 4270 50  0001 C CNN
	1    5510 4270
	-1   0    0    -1  
$EndComp
Wire Wire Line
	5510 4095 5510 4270
Wire Wire Line
	4660 4195 4410 4195
Wire Wire Line
	4660 4295 4410 4295
Wire Wire Line
	4660 4395 4410 4395
Wire Wire Line
	4660 4495 4410 4495
Wire Wire Line
	4660 4595 4410 4595
Wire Wire Line
	4660 4695 4410 4695
Wire Wire Line
	4660 4795 4410 4795
Wire Wire Line
	4660 4895 4410 4895
Wire Wire Line
	4660 4995 4410 4995
Wire Wire Line
	4660 5095 4410 5095
Wire Wire Line
	5410 4895 5160 4895
Wire Wire Line
	5410 4295 5160 4295
Wire Wire Line
	5410 4595 5160 4595
Wire Wire Line
	5410 4495 5160 4495
Wire Wire Line
	5410 4195 5160 4195
Wire Wire Line
	5410 4395 5160 4395
Wire Wire Line
	5410 4995 5160 4995
Wire Wire Line
	5410 4795 5160 4795
Wire Wire Line
	5410 4695 5160 4695
Text Label 5410 4495 2    50   ~ 0
PA6
Text Label 5410 4395 2    50   ~ 0
PA7
Text Label 5410 4795 2    50   ~ 0
PA3
Text Label 5410 4595 2    50   ~ 0
PA5
Text Label 5410 4895 2    50   ~ 0
PA2
Text Label 5410 4695 2    50   ~ 0
PA4
Text Label 5410 4995 2    50   ~ 0
PA1
Text Label 4410 4795 0    50   ~ 0
PB3
Text Label 4410 4595 0    50   ~ 0
PB5
Text Label 4410 4495 0    50   ~ 0
PB6
Text Label 4410 4995 0    50   ~ 0
PB1
Text Label 4410 4895 0    50   ~ 0
PB2
Text Label 4410 5095 0    50   ~ 0
PB0
Text Label 4410 4395 0    50   ~ 0
PB7
Text Label 4410 4695 0    50   ~ 0
PB4
Text Label 5410 4295 2    50   ~ 0
~ASTB
Text Label 5410 4195 2    50   ~ 0
ARDY
Text Label 4410 4295 0    50   ~ 0
~BSTB
Text Label 4410 4195 0    50   ~ 0
BRDY
NoConn ~ 1775 5225
NoConn ~ 1775 5325
NoConn ~ 1775 5425
NoConn ~ 1775 5525
NoConn ~ 1775 5625
NoConn ~ 1775 5725
Text Label 2075 5125 2    50   ~ 0
~CE_PIO
Text Label 2075 5025 2    50   ~ 0
~CE_SIO
$Comp
L 74xx:74LS85 U4
U 1 1 5F7A25F7
P 2350 6875
F 0 "U4" H 2000 7500 50  0000 C CNN
F 1 "74LS85" H 2100 7425 50  0000 C CNN
F 2 "" H 2350 6875 50  0001 C CNN
F 3 "http://www.ti.com/lit/gpn/sn74LS85" H 2350 6875 50  0001 C CNN
	1    2350 6875
	1    0    0    -1  
$EndComp
$Comp
L power:GND #PWR?
U 1 1 5F7B163D
P 2350 7575
AR Path="/5EFDD352/5F7B163D" Ref="#PWR?"  Part="1" 
AR Path="/5EFDE485/5F7B163D" Ref="#PWR?"  Part="1" 
AR Path="/5F7B163D" Ref="#PWR?"  Part="1" 
F 0 "#PWR?" H 2350 7325 50  0001 C CNN
F 1 "GND" H 2350 7425 50  0000 C CNN
F 2 "" H 2350 7575 50  0001 C CNN
F 3 "" H 2350 7575 50  0001 C CNN
	1    2350 7575
	1    0    0    -1  
$EndComp
$Comp
L power:+5V #PWR?
U 1 1 5F7B1C0D
P 2350 6175
AR Path="/5EFDD352/5F7B1C0D" Ref="#PWR?"  Part="1" 
AR Path="/5EFDE485/5F7B1C0D" Ref="#PWR?"  Part="1" 
AR Path="/5F7B1C0D" Ref="#PWR?"  Part="1" 
F 0 "#PWR?" H 2350 6025 50  0001 C CNN
F 1 "+5V" H 2350 6325 50  0000 C CNN
F 2 "" H 2350 6175 50  0001 C CNN
F 3 "" H 2350 6175 50  0001 C CNN
	1    2350 6175
	1    0    0    -1  
$EndComp
$Comp
L Connector_Generic:Conn_02x04_Counter_Clockwise J?
U 1 1 5F7B2482
P 800 7075
F 0 "J?" H 850 7392 50  0000 C CNN
F 1 "Jumper" H 850 7301 50  0000 C CNN
F 2 "" H 800 7075 50  0001 C CNN
F 3 "~" H 800 7075 50  0001 C CNN
	1    800  7075
	1    0    0    -1  
$EndComp
$Comp
L Device:R_Network04 RN?
U 1 1 5F7B5165
P 1350 6725
F 0 "RN?" H 1275 7000 50  0000 L CNN
F 1 "10k" H 1275 6925 50  0000 L CNN
F 2 "Resistor_THT:R_Array_SIP5" V 1625 6725 50  0001 C CNN
F 3 "http://www.vishay.com/docs/31509/csc.pdf" H 1350 6725 50  0001 C CNN
	1    1350 6725
	1    0    0    -1  
$EndComp
$Comp
L power:+5V #PWR?
U 1 1 5F7B619D
P 1150 6525
AR Path="/5EFDD352/5F7B619D" Ref="#PWR?"  Part="1" 
AR Path="/5EFDE485/5F7B619D" Ref="#PWR?"  Part="1" 
AR Path="/5F7B619D" Ref="#PWR?"  Part="1" 
F 0 "#PWR?" H 1150 6375 50  0001 C CNN
F 1 "+5V" H 1150 6675 50  0000 C CNN
F 2 "" H 1150 6525 50  0001 C CNN
F 3 "" H 1150 6525 50  0001 C CNN
	1    1150 6525
	1    0    0    -1  
$EndComp
Wire Wire Line
	1100 7275 1150 7275
Wire Wire Line
	1100 7175 1250 7175
Wire Wire Line
	1100 7075 1350 7075
Wire Wire Line
	1100 6975 1450 6975
Wire Wire Line
	1150 6925 1150 7275
Connection ~ 1150 7275
Wire Wire Line
	1150 7275 1850 7275
Wire Wire Line
	1250 6925 1250 7175
Connection ~ 1250 7175
Wire Wire Line
	1250 7175 1850 7175
Wire Wire Line
	1350 6925 1350 7075
Connection ~ 1350 7075
Wire Wire Line
	1350 7075 1850 7075
Wire Wire Line
	1450 6925 1450 6975
Connection ~ 1450 6975
Wire Wire Line
	1450 6975 1850 6975
Wire Wire Line
	600  7175 575  7175
Wire Wire Line
	575  7075 575  7175
Wire Wire Line
	600  7075 575  7075
Connection ~ 575  7275
Wire Wire Line
	575  7275 575  7450
Wire Wire Line
	600  7275 575  7275
Wire Wire Line
	600  6975 575  6975
Wire Wire Line
	575  7175 575  7275
Connection ~ 575  7075
Connection ~ 575  7175
Wire Wire Line
	575  6975 575  7075
$Comp
L power:GND #PWR?
U 1 1 5F7B4805
P 575 7450
AR Path="/5EFDD352/5F7B4805" Ref="#PWR?"  Part="1" 
AR Path="/5EFDE485/5F7B4805" Ref="#PWR?"  Part="1" 
AR Path="/5F7B4805" Ref="#PWR?"  Part="1" 
F 0 "#PWR?" H 575 7200 50  0001 C CNN
F 1 "GND" H 575 7300 50  0000 C CNN
F 2 "" H 575 7450 50  0001 C CNN
F 3 "" H 575 7450 50  0001 C CNN
	1    575  7450
	1    0    0    -1  
$EndComp
Wire Wire Line
	2950 7275 2850 7275
Wire Wire Line
	1850 6475 1600 6475
Wire Wire Line
	1850 6575 1600 6575
Wire Wire Line
	1850 6675 1600 6675
Wire Wire Line
	1850 6775 1600 6775
Text Label 1600 6475 0    50   ~ 0
AB4
Text Label 1600 6575 0    50   ~ 0
AB5
Text Label 1600 6675 0    50   ~ 0
AB6
Text Label 1600 6775 0    50   ~ 0
AB7
NoConn ~ 2850 6475
NoConn ~ 2850 6575
NoConn ~ 2850 7075
NoConn ~ 2850 7175
$Comp
L Device:R_Small R1
U 1 1 5F7C043E
P 4825 3075
F 0 "R1" H 4884 3121 50  0000 L CNN
F 1 "1k" H 4884 3030 50  0000 L CNN
F 2 "" H 4825 3075 50  0001 C CNN
F 3 "~" H 4825 3075 50  0001 C CNN
	1    4825 3075
	1    0    0    -1  
$EndComp
$Comp
L power:+5V #PWR?
U 1 1 5F7C07EB
P 4825 2975
AR Path="/5EFDD352/5F7C07EB" Ref="#PWR?"  Part="1" 
AR Path="/5EFDE485/5F7C07EB" Ref="#PWR?"  Part="1" 
AR Path="/5F7C07EB" Ref="#PWR?"  Part="1" 
F 0 "#PWR?" H 4825 2825 50  0001 C CNN
F 1 "+5V" H 4825 3125 50  0000 C CNN
F 2 "" H 4825 2975 50  0001 C CNN
F 3 "" H 4825 2975 50  0001 C CNN
	1    4825 2975
	1    0    0    -1  
$EndComp
$Comp
L my_ics:Z8440 U8
U 1 1 5F73D5DD
P 7950 5000
F 0 "U8" H 7625 6325 50  0000 C CNN
F 1 "Z8440" H 7675 6250 50  0000 C CNN
F 2 "Package_DIP:DIP-40_W15.24mm" H 7950 3600 50  0001 C CNN
F 3 "https://www.zilog.com/appnotes_download.php?FromPage=DirectLink&dn=PS0180&ft=Product%20Specification%20(Data%20Sheet)%20%20&f=YUhSMGNEb3ZMM2QzZHk1NmFXeHZaeTVqYjIwdlpHOWpjeTk2T0RBdmNITXdNVGd3TG5Ca1pnPT0=" H 7900 3400 50  0001 C CNN
	1    7950 5000
	1    0    0    -1  
$EndComp
$Comp
L power:+5V #PWR?
U 1 1 5F73FF11
P 7950 3700
AR Path="/5EFDD352/5F73FF11" Ref="#PWR?"  Part="1" 
AR Path="/5EFDE485/5F73FF11" Ref="#PWR?"  Part="1" 
AR Path="/5F73FF11" Ref="#PWR?"  Part="1" 
F 0 "#PWR?" H 7950 3550 50  0001 C CNN
F 1 "+5V" H 7950 3850 50  0000 C CNN
F 2 "" H 7950 3700 50  0001 C CNN
F 3 "" H 7950 3700 50  0001 C CNN
	1    7950 3700
	1    0    0    -1  
$EndComp
$Comp
L power:GND #PWR?
U 1 1 5F7405FA
P 7950 6300
AR Path="/5EFDD352/5F7405FA" Ref="#PWR?"  Part="1" 
AR Path="/5EFDE485/5F7405FA" Ref="#PWR?"  Part="1" 
AR Path="/5F7405FA" Ref="#PWR?"  Part="1" 
F 0 "#PWR?" H 7950 6050 50  0001 C CNN
F 1 "GND" H 7950 6150 50  0000 C CNN
F 2 "" H 7950 6300 50  0001 C CNN
F 3 "" H 7950 6300 50  0001 C CNN
	1    7950 6300
	1    0    0    -1  
$EndComp
Wire Wire Line
	7450 4500 7175 4500
Wire Wire Line
	7450 4400 7175 4400
Wire Wire Line
	7450 4200 7175 4200
Wire Wire Line
	7450 4600 7175 4600
Wire Wire Line
	7450 4100 7175 4100
Wire Wire Line
	7450 4300 7175 4300
Wire Wire Line
	7450 3900 7175 3900
Wire Wire Line
	7450 4000 7175 4000
Text Label 7175 4500 0    50   ~ 0
D6
Text Label 7175 4600 0    50   ~ 0
D7
Text Label 7175 4200 0    50   ~ 0
D3
Text Label 7175 4100 0    50   ~ 0
D2
Text Label 7175 3900 0    50   ~ 0
D0
Text Label 7175 4300 0    50   ~ 0
D4
Text Label 7175 4400 0    50   ~ 0
D5
Text Label 7175 4000 0    50   ~ 0
D1
Wire Wire Line
	7450 4800 7175 4800
Wire Wire Line
	7175 4700 7450 4700
Text Label 7175 4700 0    50   ~ 0
AB1
Text Label 7175 4800 0    50   ~ 0
AB0
Wire Wire Line
	7450 5100 7175 5100
Wire Wire Line
	7450 5200 7175 5200
Wire Wire Line
	7450 5300 7175 5300
Wire Wire Line
	7450 5400 7175 5400
Wire Wire Line
	7450 5500 7175 5500
Wire Wire Line
	7450 5600 7100 5600
Text Label 7175 5100 0    50   ~ 0
~CE_SIO
Text Label 2800 2125 2    50   ~ 0
IEI
Text Label 2800 2625 2    50   ~ 0
IEO
Wire Wire Line
	2450 2625 2800 2625
Wire Wire Line
	4600 3400 4650 3400
$Comp
L 74xx:74LS08 U14
U 1 1 5F74FC32
P 4700 1875
F 0 "U14" H 4675 1600 50  0000 C CNN
F 1 "74LS08" H 4675 1675 50  0000 C CNN
F 2 "" H 4700 1875 50  0001 C CNN
F 3 "http://www.ti.com/lit/gpn/sn74LS08" H 4700 1875 50  0001 C CNN
	1    4700 1875
	1    0    0    1   
$EndComp
$Comp
L 74xx:74LS08 U14
U 2 1 5F7507CF
P 3875 1775
F 0 "U14" H 4100 1950 50  0000 C CNN
F 1 "74LS08" H 4150 1875 50  0000 C CNN
F 2 "" H 3875 1775 50  0001 C CNN
F 3 "http://www.ti.com/lit/gpn/sn74LS08" H 3875 1775 50  0001 C CNN
	2    3875 1775
	1    0    0    -1  
$EndComp
$Comp
L 74xx:74LS08 U14
U 3 1 5F751452
P 6200 2575
F 0 "U14" H 6200 2900 50  0000 C CNN
F 1 "74LS08" H 6200 2809 50  0000 C CNN
F 2 "" H 6200 2575 50  0001 C CNN
F 3 "http://www.ti.com/lit/gpn/sn74LS08" H 6200 2575 50  0001 C CNN
	3    6200 2575
	1    0    0    -1  
$EndComp
$Comp
L 74xx:74LS08 U14
U 4 1 5F752561
P 6050 1875
F 0 "U14" H 6050 2200 50  0000 C CNN
F 1 "74LS08" H 6050 2109 50  0000 C CNN
F 2 "" H 6050 1875 50  0001 C CNN
F 3 "http://www.ti.com/lit/gpn/sn74LS08" H 6050 1875 50  0001 C CNN
	4    6050 1875
	1    0    0    -1  
$EndComp
$Comp
L 74xx:74LS08 U14
U 5 1 5F753599
P 6300 7075
F 0 "U14" H 6200 7125 50  0000 L CNN
F 1 "74LS08" H 6150 7050 50  0000 L CNN
F 2 "" H 6300 7075 50  0001 C CNN
F 3 "http://www.ti.com/lit/gpn/sn74LS08" H 6300 7075 50  0001 C CNN
	5    6300 7075
	1    0    0    -1  
$EndComp
$Comp
L 74xx:74LS08 U15
U 4 1 5F75DF84
P 4750 6550
F 0 "U15" H 4750 6875 50  0000 C CNN
F 1 "74LS08" H 4750 6784 50  0000 C CNN
F 2 "" H 4750 6550 50  0001 C CNN
F 3 "http://www.ti.com/lit/gpn/sn74LS08" H 4750 6550 50  0001 C CNN
	4    4750 6550
	1    0    0    -1  
$EndComp
$Comp
L 74xx:74LS08 U15
U 3 1 5F75DF93
P 6550 5175
F 0 "U15" H 6550 5500 50  0000 C CNN
F 1 "74LS08" H 6550 5409 50  0000 C CNN
F 2 "" H 6550 5175 50  0001 C CNN
F 3 "http://www.ti.com/lit/gpn/sn74LS08" H 6550 5175 50  0001 C CNN
	3    6550 5175
	1    0    0    -1  
$EndComp
$Comp
L 74xx:74LS08 U15
U 2 1 5F75DFA2
P 5075 3400
F 0 "U15" H 5000 3675 50  0000 C CNN
F 1 "74LS08" H 4975 3600 50  0000 C CNN
F 2 "" H 5075 3400 50  0001 C CNN
F 3 "http://www.ti.com/lit/gpn/sn74LS08" H 5075 3400 50  0001 C CNN
	2    5075 3400
	-1   0    0    -1  
$EndComp
$Comp
L 74xx:74LS08 U15
U 1 1 5F75DFB1
P 5675 3300
F 0 "U15" H 5675 3625 50  0000 C CNN
F 1 "74LS08" H 5675 3534 50  0000 C CNN
F 2 "" H 5675 3300 50  0001 C CNN
F 3 "http://www.ti.com/lit/gpn/sn74LS08" H 5675 3300 50  0001 C CNN
	1    5675 3300
	-1   0    0    -1  
$EndComp
$Comp
L Transistor_BJT:BC547 Q?
U 1 1 5F7682D6
P 5950 4275
F 0 "Q?" H 5875 4550 50  0000 L CNN
F 1 "BC547" H 5750 4475 50  0000 L CNN
F 2 "Package_TO_SOT_THT:TO-92_Inline" H 6150 4200 50  0001 L CIN
F 3 "https://www.onsemi.com/pub/Collateral/BC550-D.pdf" H 5950 4275 50  0001 L CNN
	1    5950 4275
	-1   0    0    -1  
$EndComp
$Comp
L 74xx:74LS32 U13
U 1 1 5F768E90
P 3825 2400
F 0 "U13" H 3825 2725 50  0000 C CNN
F 1 "74LS32" H 3825 2634 50  0000 C CNN
F 2 "" H 3825 2400 50  0001 C CNN
F 3 "http://www.ti.com/lit/gpn/sn74LS32" H 3825 2400 50  0001 C CNN
	1    3825 2400
	1    0    0    -1  
$EndComp
$Comp
L 74xx:74LS32 U13
U 3 1 5F76C5E0
P 5075 2600
F 0 "U13" H 5075 2925 50  0000 C CNN
F 1 "74LS32" H 5075 2834 50  0000 C CNN
F 2 "" H 5075 2600 50  0001 C CNN
F 3 "http://www.ti.com/lit/gpn/sn74LS32" H 5075 2600 50  0001 C CNN
	3    5075 2600
	1    0    0    -1  
$EndComp
$Comp
L 74xx:74LS32 U13
U 4 1 5F76D2C2
P 4425 2500
F 0 "U13" H 4425 2825 50  0000 C CNN
F 1 "74LS32" H 4425 2734 50  0000 C CNN
F 2 "" H 4425 2500 50  0001 C CNN
F 3 "http://www.ti.com/lit/gpn/sn74LS32" H 4425 2500 50  0001 C CNN
	4    4425 2500
	1    0    0    -1  
$EndComp
$Comp
L 74xx:74LS32 U13
U 5 1 5F76D5B5
P 5875 7075
F 0 "U13" H 5775 7125 50  0000 L CNN
F 1 "74LS32" H 5725 7050 50  0000 L CNN
F 2 "" H 5875 7075 50  0001 C CNN
F 3 "http://www.ti.com/lit/gpn/sn74LS32" H 5875 7075 50  0001 C CNN
	5    5875 7075
	1    0    0    -1  
$EndComp
$Comp
L power:GND #PWR?
U 1 1 5F78E84E
P 5875 7575
AR Path="/5EFDD352/5F78E84E" Ref="#PWR?"  Part="1" 
AR Path="/5EFDE485/5F78E84E" Ref="#PWR?"  Part="1" 
AR Path="/5F78E84E" Ref="#PWR?"  Part="1" 
F 0 "#PWR?" H 5875 7325 50  0001 C CNN
F 1 "GND" H 5880 7402 50  0000 C CNN
F 2 "" H 5875 7575 50  0001 C CNN
F 3 "" H 5875 7575 50  0001 C CNN
	1    5875 7575
	1    0    0    -1  
$EndComp
$Comp
L power:+5V #PWR?
U 1 1 5F78E85B
P 5875 6575
AR Path="/5EFDD352/5F78E85B" Ref="#PWR?"  Part="1" 
AR Path="/5EFDE485/5F78E85B" Ref="#PWR?"  Part="1" 
AR Path="/5F78E85B" Ref="#PWR?"  Part="1" 
F 0 "#PWR?" H 5875 6425 50  0001 C CNN
F 1 "+5V" H 5890 6748 50  0000 C CNN
F 2 "" H 5875 6575 50  0001 C CNN
F 3 "" H 5875 6575 50  0001 C CNN
	1    5875 6575
	1    0    0    -1  
$EndComp
$Comp
L power:+5V #PWR?
U 1 1 5F78EE55
P 6300 6575
AR Path="/5EFDD352/5F78EE55" Ref="#PWR?"  Part="1" 
AR Path="/5EFDE485/5F78EE55" Ref="#PWR?"  Part="1" 
AR Path="/5F78EE55" Ref="#PWR?"  Part="1" 
F 0 "#PWR?" H 6300 6425 50  0001 C CNN
F 1 "+5V" H 6315 6748 50  0000 C CNN
F 2 "" H 6300 6575 50  0001 C CNN
F 3 "" H 6300 6575 50  0001 C CNN
	1    6300 6575
	1    0    0    -1  
$EndComp
$Comp
L power:GND #PWR?
U 1 1 5F78EE62
P 6300 7575
AR Path="/5EFDD352/5F78EE62" Ref="#PWR?"  Part="1" 
AR Path="/5EFDE485/5F78EE62" Ref="#PWR?"  Part="1" 
AR Path="/5F78EE62" Ref="#PWR?"  Part="1" 
F 0 "#PWR?" H 6300 7325 50  0001 C CNN
F 1 "GND" H 6305 7402 50  0000 C CNN
F 2 "" H 6300 7575 50  0001 C CNN
F 3 "" H 6300 7575 50  0001 C CNN
	1    6300 7575
	1    0    0    -1  
$EndComp
$Comp
L 74xx:74LS08 U15
U 5 1 5F75DF75
P 6725 7075
F 0 "U15" H 6625 7125 50  0000 L CNN
F 1 "74LS08" H 6575 7050 50  0000 L CNN
F 2 "" H 6725 7075 50  0001 C CNN
F 3 "http://www.ti.com/lit/gpn/sn74LS08" H 6725 7075 50  0001 C CNN
	5    6725 7075
	1    0    0    -1  
$EndComp
$Comp
L power:GND #PWR?
U 1 1 5F78F5D6
P 6725 7575
AR Path="/5EFDD352/5F78F5D6" Ref="#PWR?"  Part="1" 
AR Path="/5EFDE485/5F78F5D6" Ref="#PWR?"  Part="1" 
AR Path="/5F78F5D6" Ref="#PWR?"  Part="1" 
F 0 "#PWR?" H 6725 7325 50  0001 C CNN
F 1 "GND" H 6730 7402 50  0000 C CNN
F 2 "" H 6725 7575 50  0001 C CNN
F 3 "" H 6725 7575 50  0001 C CNN
	1    6725 7575
	1    0    0    -1  
$EndComp
$Comp
L power:+5V #PWR?
U 1 1 5F78F5E3
P 6725 6575
AR Path="/5EFDD352/5F78F5E3" Ref="#PWR?"  Part="1" 
AR Path="/5EFDE485/5F78F5E3" Ref="#PWR?"  Part="1" 
AR Path="/5F78F5E3" Ref="#PWR?"  Part="1" 
F 0 "#PWR?" H 6725 6425 50  0001 C CNN
F 1 "+5V" H 6740 6748 50  0000 C CNN
F 2 "" H 6725 6575 50  0001 C CNN
F 3 "" H 6725 6575 50  0001 C CNN
	1    6725 6575
	1    0    0    -1  
$EndComp
$Comp
L power:GND #PWR?
U 1 1 5F7AF33E
P 6525 2000
AR Path="/5EFDD352/5F7AF33E" Ref="#PWR?"  Part="1" 
AR Path="/5EFDE485/5F7AF33E" Ref="#PWR?"  Part="1" 
AR Path="/5F7AF33E" Ref="#PWR?"  Part="1" 
F 0 "#PWR?" H 6525 1750 50  0001 C CNN
F 1 "GND" H 6525 1850 50  0000 C CNN
F 2 "" H 6525 2000 50  0001 C CNN
F 3 "" H 6525 2000 50  0001 C CNN
	1    6525 2000
	1    0    0    -1  
$EndComp
Wire Wire Line
	6525 2000 6525 1975
Wire Wire Line
	6525 1975 6575 1975
Wire Wire Line
	4775 2500 4750 2500
Wire Wire Line
	4725 2500 4750 2500
Text Label 3275 2300 0    50   ~ 0
~IORQb
Wire Wire Line
	3275 2300 3525 2300
Text Label 5650 2475 0    50   ~ 0
~M1b
Wire Wire Line
	5650 2475 5900 2475
Text Label 7175 5200 0    50   ~ 0
~M1b
Text Label 5650 2675 0    50   ~ 0
~RESET
Wire Wire Line
	5650 2675 5900 2675
Text Label 7175 5500 0    50   ~ 0
~RESET
Wire Wire Line
	3300 2600 4125 2600
Wire Wire Line
	7075 6100 7450 6100
$Comp
L 74xx:74HCT00 U3
U 3 1 5F76D9FE
P 3700 3600
F 0 "U3" H 3700 3925 50  0000 C CNN
F 1 "74HCT00" H 3700 3834 50  0000 C CNN
F 2 "" H 3700 3600 50  0001 C CNN
F 3 "http://www.ti.com/lit/gpn/sn74hct00" H 3700 3600 50  0001 C CNN
	3    3700 3600
	-1   0    0    -1  
$EndComp
Wire Wire Line
	4000 3700 4725 3700
Wire Wire Line
	3300 3600 3400 3600
Wire Wire Line
	1775 5125 2075 5125
Wire Wire Line
	1775 5025 2075 5025
Wire Wire Line
	6000 3200 6000 3400
Wire Wire Line
	6000 3400 5975 3400
Wire Wire Line
	5375 3500 6100 3500
Connection ~ 6000 3400
Wire Wire Line
	3775 6400 3825 6400
Wire Wire Line
	3825 6400 3825 6600
Wire Wire Line
	3825 6600 3775 6600
Wire Wire Line
	3825 6600 4225 6600
Connection ~ 3825 6600
Text Label 4225 6600 2    50   ~ 0
~IORQb
Text Label 7175 5300 0    50   ~ 0
~IORQb
Text Label 7175 5400 0    50   ~ 0
~RDb
Text Label 7100 5600 0    50   ~ 0
~PER_CLK
$Comp
L 74xx:74HCT00 U3
U 4 1 5F76E7EF
P 6650 4275
F 0 "U3" H 6650 4600 50  0000 C CNN
F 1 "74HCT00" H 6650 4509 50  0000 C CNN
F 2 "" H 6650 4275 50  0001 C CNN
F 3 "http://www.ti.com/lit/gpn/sn74hct00" H 6650 4275 50  0001 C CNN
	4    6650 4275
	-1   0    0    -1  
$EndComp
$Comp
L Device:R_Small R?
U 1 1 5F827B3B
P 6250 4275
F 0 "R?" V 6054 4275 50  0000 C CNN
F 1 "470E" V 6145 4275 50  0000 C CNN
F 2 "" H 6250 4275 50  0001 C CNN
F 3 "~" H 6250 4275 50  0001 C CNN
	1    6250 4275
	0    1    1    0   
$EndComp
$Comp
L power:GND #PWR?
U 1 1 5F835346
P 5850 4475
AR Path="/5EFDD352/5F835346" Ref="#PWR?"  Part="1" 
AR Path="/5EFDE485/5F835346" Ref="#PWR?"  Part="1" 
AR Path="/5F835346" Ref="#PWR?"  Part="1" 
F 0 "#PWR?" H 5850 4225 50  0001 C CNN
F 1 "GND" H 5850 4325 50  0000 C CNN
F 2 "" H 5850 4475 50  0001 C CNN
F 3 "" H 5850 4475 50  0001 C CNN
	1    5850 4475
	1    0    0    -1  
$EndComp
Text Label 5850 3825 0    50   ~ 0
~INT
Wire Wire Line
	5850 3825 6000 3825
$Comp
L Connector_Generic:Conn_01x02 J?
U 1 1 5F83BADB
P 6200 3825
F 0 "J?" H 6280 3817 50  0000 L CNN
F 1 "INT" H 6280 3726 50  0000 L CNN
F 2 "" H 6200 3825 50  0001 C CNN
F 3 "~" H 6200 3825 50  0001 C CNN
	1    6200 3825
	1    0    0    -1  
$EndComp
Wire Wire Line
	6000 3925 5850 3925
Wire Wire Line
	5850 3925 5850 4075
Wire Wire Line
	5425 5850 5175 5850
Wire Wire Line
	5425 5650 5175 5650
Wire Wire Line
	5425 5950 5175 5950
Wire Wire Line
	5425 5550 5175 5550
Text Label 5175 6250 0    50   ~ 0
PB1
Text Label 5175 5750 0    50   ~ 0
PB6
Text Label 5175 6150 0    50   ~ 0
PB2
Text Label 5175 5850 0    50   ~ 0
PB5
Text Label 5175 5450 0    50   ~ 0
BRDY
Text Label 5175 6050 0    50   ~ 0
PB3
Text Label 5175 6350 0    50   ~ 0
PB0
Text Label 5175 5650 0    50   ~ 0
PB7
Text Label 5175 5950 0    50   ~ 0
PB4
Text Label 5175 5550 0    50   ~ 0
~BSTB
Wire Wire Line
	5425 6150 5175 6150
Wire Wire Line
	5425 5750 5175 5750
Wire Wire Line
	5425 5450 5175 5450
Wire Wire Line
	5425 6350 5175 6350
Wire Wire Line
	5425 6250 5175 6250
Wire Wire Line
	5425 6050 5175 6050
$Comp
L Connector_Generic:Conn_01x10 J?
U 1 1 5F83DFE9
P 5625 5850
F 0 "J?" H 5425 6450 50  0000 L CNN
F 1 "Conn_01x10" H 5250 6375 50  0000 L CNN
F 2 "" H 5625 5850 50  0001 C CNN
F 3 "~" H 5625 5850 50  0001 C CNN
	1    5625 5850
	1    0    0    -1  
$EndComp
$Comp
L power:GND #PWR?
U 1 1 5F842099
P 10350 2200
AR Path="/5EFDD352/5F842099" Ref="#PWR?"  Part="1" 
AR Path="/5EFDE485/5F842099" Ref="#PWR?"  Part="1" 
AR Path="/5F842099" Ref="#PWR?"  Part="1" 
F 0 "#PWR?" H 10350 1950 50  0001 C CNN
F 1 "GND" H 10350 2050 50  0000 C CNN
F 2 "" H 10350 2200 50  0001 C CNN
F 3 "" H 10350 2200 50  0001 C CNN
	1    10350 2200
	1    0    0    -1  
$EndComp
Wire Wire Line
	10350 2200 10350 1500
Wire Wire Line
	10350 1500 10450 1500
Wire Wire Line
	10350 1500 10350 900 
Wire Wire Line
	10350 900  10450 900 
Connection ~ 10350 1500
Wire Wire Line
	10450 1000 10125 1000
Wire Wire Line
	10450 1100 10125 1100
Wire Wire Line
	10450 1200 10125 1200
Wire Wire Line
	10450 1300 10125 1300
NoConn ~ 10450 1400
Wire Wire Line
	10450 1600 10125 1600
NoConn ~ 10450 1700
NoConn ~ 10450 1800
NoConn ~ 10450 1900
NoConn ~ 10450 2000
NoConn ~ 10450 2100
Wire Wire Line
	11150 1600 10950 1600
NoConn ~ 10950 900 
NoConn ~ 10950 1000
NoConn ~ 10950 1100
NoConn ~ 10950 1200
NoConn ~ 10950 1300
NoConn ~ 10950 1400
NoConn ~ 10950 1500
NoConn ~ 10950 1700
NoConn ~ 10950 1800
NoConn ~ 10950 1900
NoConn ~ 10950 2000
NoConn ~ 10950 2100
$Comp
L my_ics:GD75188 U11
U 3 1 5F84698D
P 4100 7475
F 0 "U11" H 4112 7774 60  0000 C CNN
F 1 "GD75188" H 4112 7667 60  0000 C CNN
F 2 "" H 4125 7475 60  0001 C CNN
F 3 "http://radio-hobby.org/uploads/datasheet/649/gd75/gd75188.pdf" H 4125 7475 60  0001 C CNN
	3    4100 7475
	1    0    0    -1  
$EndComp
$Comp
L my_ics:GD75188 U12
U 3 1 5F84A25F
P 4100 7050
F 0 "U12" H 4112 7349 60  0000 C CNN
F 1 "GD75188" H 4112 7242 60  0000 C CNN
F 2 "" H 4125 7050 60  0001 C CNN
F 3 "http://radio-hobby.org/uploads/datasheet/649/gd75/gd75188.pdf" H 4125 7050 60  0001 C CNN
	3    4100 7050
	1    0    0    -1  
$EndComp
$Comp
L my_ics:GD75189 U9
U 3 1 5F856AAD
P 4700 7050
F 0 "U9" H 4925 7275 60  0000 C CNN
F 1 "GD75189" H 4925 7175 60  0000 C CNN
F 2 "" H 4700 7050 60  0001 C CNN
F 3 "http://pdf.dzsc.com/GD7/GD75189.pdf" H 4700 7050 60  0001 C CNN
	3    4700 7050
	1    0    0    -1  
$EndComp
$Comp
L my_ics:GD75189 U9
U 4 1 5F85726C
P 5925 1100
F 0 "U9" H 6175 1300 60  0000 C CNN
F 1 "GD75189" H 6200 1200 60  0000 C CNN
F 2 "" H 5925 1100 60  0001 C CNN
F 3 "http://pdf.dzsc.com/GD7/GD75189.pdf" H 5925 1100 60  0001 C CNN
	4    5925 1100
	-1   0    0    -1  
$EndComp
$Comp
L my_ics:GD75189 U10
U 2 1 5F8581B2
P 3900 1425
F 0 "U10" H 4150 1650 60  0000 C CNN
F 1 "GD75189" H 4175 1550 60  0000 C CNN
F 2 "" H 3900 1425 60  0001 C CNN
F 3 "http://pdf.dzsc.com/GD7/GD75189.pdf" H 3900 1425 60  0001 C CNN
	2    3900 1425
	-1   0    0    -1  
$EndComp
$Comp
L my_ics:GD75189 U10
U 3 1 5F8581D4
P 4700 7475
F 0 "U10" H 4912 7704 60  0000 C CNN
F 1 "GD75189" H 4912 7597 60  0000 C CNN
F 2 "" H 4700 7475 60  0001 C CNN
F 3 "http://pdf.dzsc.com/GD7/GD75189.pdf" H 4700 7475 60  0001 C CNN
	3    4700 7475
	1    0    0    -1  
$EndComp
$Comp
L my_ics:GD75189 U10
U 1 1 5F8581E5
P 5725 775
F 0 "U10" H 5925 975 60  0000 C CNN
F 1 "GD75189" H 5925 900 60  0000 C CNN
F 2 "" H 5725 775 60  0001 C CNN
F 3 "http://pdf.dzsc.com/GD7/GD75189.pdf" H 5725 775 60  0001 C CNN
	1    5725 775 
	-1   0    0    -1  
$EndComp
$Comp
L power:VCC #PWR?
U 1 1 5F8620B9
P 3300 7425
F 0 "#PWR?" H 3300 7275 50  0001 C CNN
F 1 "VCC" H 3315 7598 50  0000 C CNN
F 2 "" H 3300 7425 50  0001 C CNN
F 3 "" H 3300 7425 50  0001 C CNN
	1    3300 7425
	1    0    0    -1  
$EndComp
$Comp
L Device:NetTie_2 NT?
U 1 1 5F862419
P 3525 7575
F 0 "NT?" H 3525 7756 50  0000 C CNN
F 1 "NetTie_2" H 3525 7665 50  0000 C CNN
F 2 "" H 3525 7575 50  0001 C CNN
F 3 "~" H 3525 7575 50  0001 C CNN
	1    3525 7575
	1    0    0    -1  
$EndComp
$Comp
L power:+5V #PWR?
U 1 1 5F86270C
P 3750 7425
AR Path="/5EFDD352/5F86270C" Ref="#PWR?"  Part="1" 
AR Path="/5EFDE485/5F86270C" Ref="#PWR?"  Part="1" 
AR Path="/5F86270C" Ref="#PWR?"  Part="1" 
F 0 "#PWR?" H 3750 7275 50  0001 C CNN
F 1 "+5V" H 3750 7575 50  0000 C CNN
F 2 "" H 3750 7425 50  0001 C CNN
F 3 "" H 3750 7425 50  0001 C CNN
	1    3750 7425
	-1   0    0    -1  
$EndComp
Wire Wire Line
	3750 7425 3750 7575
Wire Wire Line
	3750 7575 3625 7575
Wire Wire Line
	3300 7425 3300 7575
Wire Wire Line
	3300 7575 3425 7575
NoConn ~ 5925 875 
NoConn ~ 5725 550 
NoConn ~ 3900 1200
NoConn ~ 4700 7250
NoConn ~ 4925 7475
NoConn ~ 4500 7475
NoConn ~ 4700 6825
NoConn ~ 4500 7050
NoConn ~ 4925 7050
NoConn ~ 3925 7000
NoConn ~ 3925 7100
NoConn ~ 4300 7050
NoConn ~ 4300 7475
NoConn ~ 3925 7525
NoConn ~ 3925 7425
$Comp
L power:+12V #PWR?
U 1 1 5F89D88C
P 5125 1125
F 0 "#PWR?" H 5125 975 50  0001 C CNN
F 1 "+12V" H 5140 1298 50  0000 C CNN
F 2 "" H 5125 1125 50  0001 C CNN
F 3 "" H 5125 1125 50  0001 C CNN
	1    5125 1125
	1    0    0    -1  
$EndComp
Wire Wire Line
	5125 1125 5025 1125
Wire Wire Line
	5025 1125 5025 1075
Wire Wire Line
	5025 1075 4900 1075
Wire Wire Line
	4900 1150 5125 1150
Wire Wire Line
	5125 1150 5125 1225
$Comp
L power:GND #PWR?
U 1 1 5F89EB74
P 5125 1225
AR Path="/5EFDD352/5F89EB74" Ref="#PWR?"  Part="1" 
AR Path="/5EFDE485/5F89EB74" Ref="#PWR?"  Part="1" 
AR Path="/5F89EB74" Ref="#PWR?"  Part="1" 
F 0 "#PWR?" H 5125 975 50  0001 C CNN
F 1 "GND" H 5125 1075 50  0000 C CNN
F 2 "" H 5125 1225 50  0001 C CNN
F 3 "" H 5125 1225 50  0001 C CNN
	1    5125 1225
	1    0    0    -1  
$EndComp
Wire Wire Line
	4900 1225 4950 1225
Wire Wire Line
	4950 1225 4950 1275
$Comp
L power:-12V #PWR?
U 1 1 5F89F180
P 4950 1275
F 0 "#PWR?" H 4950 1375 50  0001 C CNN
F 1 "-12V" H 4965 1448 50  0000 C CNN
F 2 "" H 4950 1275 50  0001 C CNN
F 3 "" H 4950 1275 50  0001 C CNN
	1    4950 1275
	-1   0    0    1   
$EndComp
$Comp
L Connector_Generic:Conn_02x13_Top_Bottom J?
U 1 1 5F8A16D2
P 10650 1500
F 0 "J?" H 10700 2317 50  0000 C CNN
F 1 "B MODEM" H 10700 2226 50  0000 C CNN
F 2 "" H 10650 1500 50  0001 C CNN
F 3 "~" H 10650 1500 50  0001 C CNN
	1    10650 1500
	1    0    0    -1  
$EndComp
Text Label 4375 1425 2    50   ~ 0
CTSA
Wire Wire Line
	5925 775  6350 775 
Text Label 6350 775  2    50   ~ 0
DCDA
Text Label 6325 1100 2    50   ~ 0
RXDA
Wire Wire Line
	6325 1100 6125 1100
Wire Wire Line
	3175 6500 3125 6500
Wire Wire Line
	3125 6500 3125 6675
Wire Wire Line
	3125 6675 2850 6675
Wire Wire Line
	775  5525 725  5525
Wire Wire Line
	725  5525 725  6250
Wire Wire Line
	725  6250 1750 6250
Wire Wire Line
	1750 6250 1750 5950
Wire Wire Line
	1750 5950 2950 5950
Wire Wire Line
	2950 5950 2950 7275
Connection ~ 4750 2500
Text Label 3275 1675 0    50   ~ 0
~CE_SIO
Text Label 3275 1875 0    50   ~ 0
~CE_PIO
Wire Wire Line
	3275 1875 3575 1875
Wire Wire Line
	3575 1675 3275 1675
Wire Wire Line
	3525 2500 3275 2500
Text Label 3275 2500 0    50   ~ 0
~M1b
Wire Wire Line
	4175 1775 4400 1775
Wire Wire Line
	4400 1975 4350 1975
Wire Wire Line
	4350 1975 4350 2100
Wire Wire Line
	4350 2100 4750 2100
Wire Wire Line
	4750 2100 4750 2500
Wire Wire Line
	4750 2500 4750 2700
Wire Wire Line
	4950 1675 5150 1675
$Comp
L 74xx:74LS32 U13
U 2 1 5F76B9E1
P 5450 1775
F 0 "U13" H 5450 1500 50  0000 C CNN
F 1 "74LS32" H 5425 1575 50  0000 C CNN
F 2 "" H 5450 1775 50  0001 C CNN
F 3 "http://www.ti.com/lit/gpn/sn74LS32" H 5450 1775 50  0001 C CNN
	2    5450 1775
	1    0    0    1   
$EndComp
Text Label 4950 1675 0    50   ~ 0
~RDb
Wire Wire Line
	5000 1875 5150 1875
Wire Wire Line
	3300 2600 3300 3600
Wire Wire Line
	5750 1975 4900 1975
Wire Wire Line
	4900 1975 4900 2100
Wire Wire Line
	4900 2100 4750 2100
Connection ~ 4750 2100
NoConn ~ 5375 2600
$Comp
L Timer:NE555D U?
U 1 1 5F92C7EE
P 3325 5150
F 0 "U?" H 3025 5575 50  0000 C CNN
F 1 "NE555D" H 3100 5500 50  0000 C CNN
F 2 "Package_SO:SOIC-8_3.9x4.9mm_P1.27mm" H 4175 4750 50  0001 C CNN
F 3 "http://www.ti.com/lit/ds/symlink/ne555.pdf" H 4175 4750 50  0001 C CNN
	1    3325 5150
	1    0    0    -1  
$EndComp
$Comp
L power:+5V #PWR?
U 1 1 5F92E328
P 3325 4375
AR Path="/5EFDD352/5F92E328" Ref="#PWR?"  Part="1" 
AR Path="/5EFDE485/5F92E328" Ref="#PWR?"  Part="1" 
AR Path="/5F92E328" Ref="#PWR?"  Part="1" 
F 0 "#PWR?" H 3325 4225 50  0001 C CNN
F 1 "+5V" H 3325 4525 50  0000 C CNN
F 2 "" H 3325 4375 50  0001 C CNN
F 3 "" H 3325 4375 50  0001 C CNN
	1    3325 4375
	1    0    0    -1  
$EndComp
$Comp
L power:GND #PWR?
U 1 1 5F92E8AF
P 3325 5550
AR Path="/5EFDD352/5F92E8AF" Ref="#PWR?"  Part="1" 
AR Path="/5EFDE485/5F92E8AF" Ref="#PWR?"  Part="1" 
AR Path="/5F92E8AF" Ref="#PWR?"  Part="1" 
F 0 "#PWR?" H 3325 5300 50  0001 C CNN
F 1 "GND" H 3325 5400 50  0000 C CNN
F 2 "" H 3325 5550 50  0001 C CNN
F 3 "" H 3325 5550 50  0001 C CNN
	1    3325 5550
	1    0    0    -1  
$EndComp
$Comp
L Device:C_Small C?
U 1 1 5F92FAED
P 3525 4550
F 0 "C?" H 3617 4596 50  0000 L CNN
F 1 "C_Small" H 3617 4505 50  0000 L CNN
F 2 "" H 3525 4550 50  0001 C CNN
F 3 "~" H 3525 4550 50  0001 C CNN
	1    3525 4550
	1    0    0    -1  
$EndComp
$Comp
L power:GND #PWR?
U 1 1 5F92FE01
P 3525 4650
AR Path="/5EFDD352/5F92FE01" Ref="#PWR?"  Part="1" 
AR Path="/5EFDE485/5F92FE01" Ref="#PWR?"  Part="1" 
AR Path="/5F92FE01" Ref="#PWR?"  Part="1" 
F 0 "#PWR?" H 3525 4400 50  0001 C CNN
F 1 "GND" H 3525 4500 50  0000 C CNN
F 2 "" H 3525 4650 50  0001 C CNN
F 3 "" H 3525 4650 50  0001 C CNN
	1    3525 4650
	1    0    0    -1  
$EndComp
Wire Wire Line
	3325 4375 3325 4425
Wire Wire Line
	3325 4425 3525 4425
Wire Wire Line
	3525 4425 3525 4450
Connection ~ 3325 4425
Wire Wire Line
	3325 4425 3325 4750
$Comp
L power:+5V #PWR?
U 1 1 5F9307F6
P 4225 4875
AR Path="/5EFDD352/5F9307F6" Ref="#PWR?"  Part="1" 
AR Path="/5EFDE485/5F9307F6" Ref="#PWR?"  Part="1" 
AR Path="/5F9307F6" Ref="#PWR?"  Part="1" 
F 0 "#PWR?" H 4225 4725 50  0001 C CNN
F 1 "+5V" H 4225 5025 50  0000 C CNN
F 2 "" H 4225 4875 50  0001 C CNN
F 3 "" H 4225 4875 50  0001 C CNN
	1    4225 4875
	1    0    0    -1  
$EndComp
$Comp
L Device:R_Small R?
U 1 1 5F930D48
P 4225 4975
F 0 "R?" H 4284 5021 50  0000 L CNN
F 1 "RB" H 4284 4930 50  0000 L CNN
F 2 "" H 4225 4975 50  0001 C CNN
F 3 "~" H 4225 4975 50  0001 C CNN
	1    4225 4975
	1    0    0    -1  
$EndComp
Wire Wire Line
	4225 5075 4225 5150
Wire Wire Line
	4225 5150 3825 5150
$Comp
L Device:R_Small R?
U 1 1 5F93161A
P 4225 5275
F 0 "R?" H 4284 5321 50  0000 L CNN
F 1 "RA" H 4284 5230 50  0000 L CNN
F 2 "" H 4225 5275 50  0001 C CNN
F 3 "~" H 4225 5275 50  0001 C CNN
	1    4225 5275
	1    0    0    -1  
$EndComp
Wire Wire Line
	4225 5175 4225 5150
Connection ~ 4225 5150
Wire Wire Line
	4225 5375 4225 5400
Wire Wire Line
	4225 5400 3875 5400
Wire Wire Line
	3875 5400 3875 5350
Wire Wire Line
	3875 5350 3825 5350
Wire Wire Line
	2825 4950 2775 4950
Wire Wire Line
	2775 4950 2775 5750
Wire Wire Line
	2775 5750 3875 5750
Wire Wire Line
	3875 5750 3875 5400
Connection ~ 3875 5400
$Comp
L Device:C_Small C?
U 1 1 5F93200B
P 4225 5525
F 0 "C?" H 4317 5571 50  0000 L CNN
F 1 "CT" H 4317 5480 50  0000 L CNN
F 2 "" H 4225 5525 50  0001 C CNN
F 3 "~" H 4225 5525 50  0001 C CNN
	1    4225 5525
	1    0    0    -1  
$EndComp
Wire Wire Line
	4225 5400 4225 5425
$Comp
L power:GND #PWR?
U 1 1 5F932019
P 4225 5625
AR Path="/5EFDD352/5F932019" Ref="#PWR?"  Part="1" 
AR Path="/5EFDE485/5F932019" Ref="#PWR?"  Part="1" 
AR Path="/5F932019" Ref="#PWR?"  Part="1" 
F 0 "#PWR?" H 4225 5375 50  0001 C CNN
F 1 "GND" H 4225 5475 50  0000 C CNN
F 2 "" H 4225 5625 50  0001 C CNN
F 3 "" H 4225 5625 50  0001 C CNN
	1    4225 5625
	1    0    0    -1  
$EndComp
Connection ~ 4225 5400
$Comp
L power:GND #PWR?
U 1 1 5F933FBF
P 2475 5600
AR Path="/5EFDD352/5F933FBF" Ref="#PWR?"  Part="1" 
AR Path="/5EFDE485/5F933FBF" Ref="#PWR?"  Part="1" 
AR Path="/5F933FBF" Ref="#PWR?"  Part="1" 
F 0 "#PWR?" H 2475 5350 50  0001 C CNN
F 1 "GND" H 2475 5450 50  0000 C CNN
F 2 "" H 2475 5600 50  0001 C CNN
F 3 "" H 2475 5600 50  0001 C CNN
	1    2475 5600
	1    0    0    -1  
$EndComp
$Comp
L Device:C_Small C?
U 1 1 5F933FCD
P 2475 5500
F 0 "C?" H 2567 5546 50  0000 L CNN
F 1 "10n" H 2567 5455 50  0000 L CNN
F 2 "" H 2475 5500 50  0001 C CNN
F 3 "~" H 2475 5500 50  0001 C CNN
	1    2475 5500
	1    0    0    -1  
$EndComp
Wire Wire Line
	2475 5400 2475 5150
Wire Wire Line
	2475 5150 2825 5150
$Comp
L power:+5V #PWR?
U 1 1 5F935786
P 2675 5350
AR Path="/5EFDD352/5F935786" Ref="#PWR?"  Part="1" 
AR Path="/5EFDE485/5F935786" Ref="#PWR?"  Part="1" 
AR Path="/5F935786" Ref="#PWR?"  Part="1" 
F 0 "#PWR?" H 2675 5200 50  0001 C CNN
F 1 "+5V" H 2675 5500 50  0000 C CNN
F 2 "" H 2675 5350 50  0001 C CNN
F 3 "" H 2675 5350 50  0001 C CNN
	1    2675 5350
	1    0    0    -1  
$EndComp
Wire Wire Line
	2675 5350 2825 5350
$Comp
L Connector_Generic:Conn_01x01 J?
U 1 1 5F93C616
P 4075 4800
F 0 "J?" H 4025 4975 50  0000 L CNN
F 1 "TP" H 4025 4900 50  0000 L CNN
F 2 "" H 4075 4800 50  0001 C CNN
F 3 "~" H 4075 4800 50  0001 C CNN
	1    4075 4800
	1    0    0    -1  
$EndComp
Wire Wire Line
	6250 5275 6200 5275
Wire Wire Line
	6200 5275 6200 5350
$Comp
L power:GND #PWR?
U 1 1 5F93D4B4
P 6200 5350
AR Path="/5EFDD352/5F93D4B4" Ref="#PWR?"  Part="1" 
AR Path="/5EFDE485/5F93D4B4" Ref="#PWR?"  Part="1" 
AR Path="/5F93D4B4" Ref="#PWR?"  Part="1" 
F 0 "#PWR?" H 6200 5100 50  0001 C CNN
F 1 "GND" H 6200 5200 50  0000 C CNN
F 2 "" H 6200 5350 50  0001 C CNN
F 3 "" H 6200 5350 50  0001 C CNN
	1    6200 5350
	1    0    0    -1  
$EndComp
$Comp
L Connector_Generic:Conn_01x01 J?
U 1 1 5F9452B5
P 4075 5075
F 0 "J?" H 4025 5250 50  0000 L CNN
F 1 "TP" H 4025 5175 50  0000 L CNN
F 2 "" H 4075 5075 50  0001 C CNN
F 3 "~" H 4075 5075 50  0001 C CNN
	1    4075 5075
	1    0    0    -1  
$EndComp
Wire Wire Line
	3875 5075 3875 4950
Wire Wire Line
	3825 4950 3875 4950
Connection ~ 3875 4950
Wire Wire Line
	3875 4950 3875 4800
NoConn ~ 7450 4900
NoConn ~ 7450 5000
Wire Wire Line
	4825 3175 4825 3200
NoConn ~ 7450 5900
Wire Wire Line
	7450 5800 6925 5800
Wire Wire Line
	6925 5800 6925 5175
Wire Wire Line
	6925 5175 6850 5175
Wire Wire Line
	6250 5075 5950 5075
Text Label 5950 5075 0    50   ~ 0
~RXDA
Text Notes 5750 5800 0    50   ~ 0
This GND Point can be broken\nand connected to Output\nof NE555 (Pin3 / TP)
Wire Wire Line
	4450 6650 4400 6650
Wire Wire Line
	4400 6650 4400 6450
Wire Wire Line
	4450 6450 4400 6450
Connection ~ 4400 6450
Wire Wire Line
	4400 6450 4400 6275
NoConn ~ 5050 6550
$Comp
L power:+5V #PWR?
U 1 1 5F960D06
P 4400 6275
AR Path="/5EFDD352/5F960D06" Ref="#PWR?"  Part="1" 
AR Path="/5EFDE485/5F960D06" Ref="#PWR?"  Part="1" 
AR Path="/5F960D06" Ref="#PWR?"  Part="1" 
F 0 "#PWR?" H 4400 6125 50  0001 C CNN
F 1 "+5V" H 4400 6425 50  0000 C CNN
F 2 "" H 4400 6275 50  0001 C CNN
F 3 "" H 4400 6275 50  0001 C CNN
	1    4400 6275
	-1   0    0    -1  
$EndComp
Wire Wire Line
	5410 5095 5160 5095
Text Label 5410 5095 2    50   ~ 0
PA0
Text Label 3625 2975 0    50   ~ 0
IEI
Wire Wire Line
	3825 3075 3625 3075
Wire Wire Line
	3825 2975 3625 2975
Text Label 3625 3075 0    50   ~ 0
IEO
$Comp
L Connector_Generic:Conn_02x02_Counter_Clockwise J?
U 1 1 5F978404
P 4125 2975
F 0 "J?" H 4175 3192 50  0000 C CNN
F 1 "IE0 IEI" H 4175 3101 50  0000 C CNN
F 2 "" H 4125 2975 50  0001 C CNN
F 3 "~" H 4125 2975 50  0001 C CNN
	1    4125 2975
	-1   0    0    -1  
$EndComp
Wire Wire Line
	4325 2975 4650 2975
Wire Wire Line
	4650 2975 4650 3400
Wire Wire Line
	4650 3600 4600 3600
Connection ~ 4650 3400
Wire Wire Line
	4650 3400 4775 3400
Wire Wire Line
	4650 3400 4650 3600
Wire Wire Line
	4325 3075 4725 3075
Wire Wire Line
	4725 3075 4725 3200
Connection ~ 4725 3700
Wire Wire Line
	4725 3700 5750 3700
Wire Wire Line
	4725 3200 4825 3200
Connection ~ 4725 3200
Wire Wire Line
	4725 3200 4725 3700
Wire Wire Line
	5975 3200 6000 3200
Wire Wire Line
	6000 3400 6000 3700
Wire Wire Line
	6500 2575 7350 2575
Text Label 7750 1900 0    50   ~ 0
AB0
Text Label 7750 1800 0    50   ~ 0
AB1
$Comp
L power:+5V #PWR?
U 1 1 5F775FF4
P 8525 700
AR Path="/5EFDD352/5F775FF4" Ref="#PWR?"  Part="1" 
AR Path="/5EFDE485/5F775FF4" Ref="#PWR?"  Part="1" 
AR Path="/5F775FF4" Ref="#PWR?"  Part="1" 
F 0 "#PWR?" H 8525 550 50  0001 C CNN
F 1 "+5V" H 8525 850 50  0000 C CNN
F 2 "" H 8525 700 50  0001 C CNN
F 3 "" H 8525 700 50  0001 C CNN
	1    8525 700 
	1    0    0    -1  
$EndComp
$Comp
L power:GND #PWR?
U 1 1 5F775853
P 8525 3300
AR Path="/5EFDD352/5F775853" Ref="#PWR?"  Part="1" 
AR Path="/5EFDE485/5F775853" Ref="#PWR?"  Part="1" 
AR Path="/5F775853" Ref="#PWR?"  Part="1" 
F 0 "#PWR?" H 8525 3050 50  0001 C CNN
F 1 "GND" H 8525 3150 50  0000 C CNN
F 2 "" H 8525 3300 50  0001 C CNN
F 3 "" H 8525 3300 50  0001 C CNN
	1    8525 3300
	1    0    0    -1  
$EndComp
$Comp
L Interface:Z84C20 U7
U 1 1 5F771AFD
P 8525 2000
F 0 "U7" H 8150 3350 50  0000 C CNN
F 1 "Z84C20" H 8250 3275 50  0000 C CNN
F 2 "Package_DIP:DIP-40_W15.24mm" H 8525 600 50  0001 C CNN
F 3 "https://www.zilog.com/appnotes_download.php?FromPage=DirectLink&dn=PS0180&ft=Product%20Specification%20(Data%20Sheet)%20%20&f=YUhSMGNEb3ZMM2QzZHk1NmFXeHZaeTVqYjIwdlpHOWpjeTk2T0RBdmNITXdNVGd3TG5Ca1pnPT0=" H 8475 400 50  0001 C CNN
	1    8525 2000
	1    0    0    -1  
$EndComp
Wire Wire Line
	8025 1200 7750 1200
Wire Wire Line
	8025 1100 7750 1100
Text Label 9275 900  2    50   ~ 0
PA0
Wire Wire Line
	8025 1600 7750 1600
Wire Wire Line
	8025 1500 7750 1500
Text Label 7750 1600 0    50   ~ 0
D7
Text Label 7750 900  0    50   ~ 0
D0
Wire Wire Line
	9275 900  9025 900 
Wire Wire Line
	9025 2100 9275 2100
Text Label 7750 1400 0    50   ~ 0
D5
Text Label 7750 2300 0    50   ~ 0
~IORQb
Text Label 7750 1100 0    50   ~ 0
D2
Wire Wire Line
	9275 1400 9025 1400
Wire Wire Line
	7350 2575 7350 2200
Text Label 7750 1000 0    50   ~ 0
D1
Wire Wire Line
	8025 1000 7750 1000
Wire Wire Line
	9275 1100 9025 1100
Wire Wire Line
	9275 1300 9025 1300
Text Label 7750 1500 0    50   ~ 0
D6
Text Label 7750 1200 0    50   ~ 0
D3
Wire Wire Line
	9025 3100 9275 3100
Wire Wire Line
	8025 1300 7750 1300
Wire Wire Line
	8025 1900 7750 1900
Wire Wire Line
	7350 2200 8025 2200
Wire Wire Line
	9275 1600 9025 1600
Wire Wire Line
	8025 1400 7750 1400
Wire Wire Line
	8025 900  7750 900 
Text Label 7750 2100 0    50   ~ 0
~CE_PIO
Text Label 9275 1900 2    50   ~ 0
~ASTB
Text Label 9275 1800 2    50   ~ 0
ARDY
Text Label 9275 2800 2    50   ~ 0
PB7
Text Label 9275 2700 2    50   ~ 0
PB6
Wire Wire Line
	9025 2800 9275 2800
Wire Wire Line
	9025 3000 9275 3000
Text Label 9275 2500 2    50   ~ 0
PB4
Text Label 9275 2600 2    50   ~ 0
PB5
Text Label 9275 2300 2    50   ~ 0
PB2
Text Label 9275 2400 2    50   ~ 0
PB3
Wire Wire Line
	7075 3000 7075 6100
Wire Wire Line
	8025 3000 7075 3000
Wire Wire Line
	7750 1800 8025 1800
Text Label 9275 3000 2    50   ~ 0
BRDY
Text Label 9275 3100 2    50   ~ 0
~BSTB
Text Label 7750 2400 0    50   ~ 0
~RDb
Text Label 7625 2600 0    50   ~ 0
~PER_CLK
Wire Wire Line
	6100 3500 6100 3100
Text Label 9275 2100 2    50   ~ 0
PB0
Text Label 9275 2200 2    50   ~ 0
PB1
Text Label 9275 1600 2    50   ~ 0
PA7
Wire Wire Line
	9275 1500 9025 1500
Wire Wire Line
	9275 1200 9025 1200
Wire Wire Line
	8025 2100 7750 2100
Wire Wire Line
	9025 2700 9275 2700
Wire Wire Line
	9025 2600 9275 2600
Wire Wire Line
	9275 1800 9025 1800
Text Label 9275 1500 2    50   ~ 0
PA6
Wire Wire Line
	8025 3100 6100 3100
Text Label 9275 1200 2    50   ~ 0
PA3
Text Label 9275 1400 2    50   ~ 0
PA5
Wire Wire Line
	9025 2500 9275 2500
Text Label 7750 1300 0    50   ~ 0
D4
Text Label 9275 1300 2    50   ~ 0
PA4
Wire Wire Line
	9275 1000 9025 1000
Wire Wire Line
	9025 2200 9275 2200
Text Label 9275 1100 2    50   ~ 0
PA2
Wire Wire Line
	9025 2400 9275 2400
Wire Wire Line
	9025 2300 9275 2300
Wire Wire Line
	8025 2400 7750 2400
Wire Wire Line
	8025 2300 7750 2300
Wire Wire Line
	8025 2600 7625 2600
Wire Wire Line
	9025 1900 9275 1900
Text Label 9275 1000 2    50   ~ 0
PA1
Wire Wire Line
	3675 1425 3300 1425
Wire Wire Line
	5500 775  5275 775 
Wire Wire Line
	5275 1100 5700 1100
$Comp
L Device:R_Network04 RN?
U 1 1 5F99C714
P 4850 5625
F 0 "RN?" H 4775 5900 50  0000 L CNN
F 1 "2k2" H 4775 5825 50  0000 L CNN
F 2 "Resistor_THT:R_Array_SIP5" V 5125 5625 50  0001 C CNN
F 3 "http://www.vishay.com/docs/31509/csc.pdf" H 4850 5625 50  0001 C CNN
	1    4850 5625
	1    0    0    -1  
$EndComp
Wire Wire Line
	4650 5825 4650 6125
Wire Wire Line
	4750 5825 4750 6125
Wire Wire Line
	4850 5825 4850 6125
Wire Wire Line
	4950 5825 4950 6125
Text Label 4650 6125 1    50   ~ 0
CTSA
$Comp
L power:+12V #PWR?
U 1 1 5F9B4009
P 1650 2200
F 0 "#PWR?" H 1650 2050 50  0001 C CNN
F 1 "+12V" H 1665 2373 50  0000 C CNN
F 2 "" H 1650 2200 50  0001 C CNN
F 3 "" H 1650 2200 50  0001 C CNN
	1    1650 2200
	1    0    0    -1  
$EndComp
Wire Wire Line
	1650 2200 1650 2300
Wire Wire Line
	1650 2300 1150 2300
$Comp
L power:-12V #PWR?
U 1 1 5F9B53BF
P 1650 3275
F 0 "#PWR?" H 1650 3375 50  0001 C CNN
F 1 "-12V" H 1665 3448 50  0000 C CNN
F 2 "" H 1650 3275 50  0001 C CNN
F 3 "" H 1650 3275 50  0001 C CNN
	1    1650 3275
	-1   0    0    1   
$EndComp
Wire Wire Line
	1650 3275 1650 3200
Wire Wire Line
	1650 3200 1150 3200
$Comp
L power:+12V #PWR?
U 1 1 5F9B58D6
P 4650 5425
F 0 "#PWR?" H 4650 5275 50  0001 C CNN
F 1 "+12V" H 4550 5575 50  0000 L CNN
F 2 "" H 4650 5425 50  0001 C CNN
F 3 "" H 4650 5425 50  0001 C CNN
	1    4650 5425
	1    0    0    -1  
$EndComp
Text Label 4750 6125 1    50   ~ 0
DCDA
Wire Wire Line
	9925 2725 9925 2825
Wire Wire Line
	10150 3125 10175 3125
Wire Wire Line
	9925 2825 9950 2825
Wire Wire Line
	10550 3950 10550 3800
Text Label 11125 3075 2    50   ~ 0
DTRB
Wire Wire Line
	9950 2725 9925 2725
$Comp
L my_ics:GD75189 U9
U 4 1 5F9B6988
P 9375 3900
F 0 "U9" H 9625 4100 60  0000 C CNN
F 1 "GD75189" H 9650 4000 60  0000 C CNN
F 2 "" H 9375 3900 60  0001 C CNN
F 3 "http://pdf.dzsc.com/GD7/GD75189.pdf" H 9375 3900 60  0001 C CNN
	4    9375 3900
	-1   0    0    -1  
$EndComp
$Comp
L my_ics:GD75189 U9
U 1 1 5F9B6999
P 9200 3575
F 0 "U9" H 9400 3775 60  0000 C CNN
F 1 "GD75189" H 9400 3700 60  0000 C CNN
F 2 "" H 9200 3575 60  0001 C CNN
F 3 "http://pdf.dzsc.com/GD7/GD75189.pdf" H 9200 3575 60  0001 C CNN
	1    9200 3575
	-1   0    0    -1  
$EndComp
Wire Wire Line
	11125 3950 10550 3950
Wire Wire Line
	10900 3575 10800 3575
Wire Wire Line
	10150 3025 10150 3125
Wire Wire Line
	9400 3575 9825 3575
Wire Wire Line
	9800 3900 9575 3900
NoConn ~ 10300 3575
$Comp
L power:-12V #PWR?
U 1 1 5F9B69BE
P 10725 3725
F 0 "#PWR?" H 10725 3825 50  0001 C CNN
F 1 "-12V" H 10740 3898 50  0000 C CNN
F 2 "" H 10725 3725 50  0001 C CNN
F 3 "" H 10725 3725 50  0001 C CNN
	1    10725 3725
	-1   0    0    1   
$EndComp
Wire Wire Line
	10800 3525 10675 3525
NoConn ~ 9375 3675
$Comp
L my_ics:GD75188 U11
U 1 1 5F9B69D2
P 10575 3350
F 0 "U11" H 10575 3575 60  0000 C CNN
F 1 "GD75188" H 10575 3475 60  0000 C CNN
F 2 "" H 10600 3350 60  0001 C CNN
F 3 "http://radio-hobby.org/uploads/datasheet/649/gd75/gd75188.pdf" H 10600 3350 60  0001 C CNN
	1    10575 3350
	1    0    0    -1  
$EndComp
$Comp
L my_ics:GD75188 U11
U 2 1 5F9B69E4
P 10350 3075
F 0 "U11" H 10350 3325 60  0000 C CNN
F 1 "GD75188" H 10350 3225 60  0000 C CNN
F 2 "" H 10375 3075 60  0001 C CNN
F 3 "http://radio-hobby.org/uploads/datasheet/649/gd75/gd75188.pdf" H 10375 3075 60  0001 C CNN
	2    10350 3075
	1    0    0    -1  
$EndComp
Wire Wire Line
	10900 3600 10900 3675
Wire Wire Line
	10325 2775 11125 2775
Wire Wire Line
	10175 3025 10150 3025
Text Label 9825 3575 2    50   ~ 0
DCDB
Text Label 11125 2775 2    50   ~ 0
TXDB
$Comp
L power:GND #PWR?
U 1 1 5F9B69F7
P 10900 3675
AR Path="/5EFDD352/5F9B69F7" Ref="#PWR?"  Part="1" 
AR Path="/5EFDE485/5F9B69F7" Ref="#PWR?"  Part="1" 
AR Path="/5F9B69F7" Ref="#PWR?"  Part="1" 
F 0 "#PWR?" H 10900 3425 50  0001 C CNN
F 1 "GND" H 10900 3525 50  0000 C CNN
F 2 "" H 10900 3675 50  0001 C CNN
F 3 "" H 10900 3675 50  0001 C CNN
	1    10900 3675
	1    0    0    -1  
$EndComp
Text Label 11125 3950 2    50   ~ 0
CTSB
Wire Wire Line
	10725 3675 10725 3725
NoConn ~ 9200 3350
Wire Wire Line
	10775 3350 11125 3350
Text Label 9800 3900 2    50   ~ 0
RXDB
$Comp
L power:+12V #PWR?
U 1 1 5F9B6A09
P 10900 3575
F 0 "#PWR?" H 10900 3425 50  0001 C CNN
F 1 "+12V" H 10915 3748 50  0000 C CNN
F 2 "" H 10900 3575 50  0001 C CNN
F 3 "" H 10900 3575 50  0001 C CNN
	1    10900 3575
	1    0    0    -1  
$EndComp
$Comp
L my_ics:GD75188 U11
U 4 1 5F9B6A1B
P 10125 2775
F 0 "U11" H 10125 3025 60  0000 C CNN
F 1 "GD75188" H 10125 2925 60  0000 C CNN
F 2 "" H 10150 2775 60  0001 C CNN
F 3 "http://radio-hobby.org/uploads/datasheet/649/gd75/gd75188.pdf" H 10150 2775 60  0001 C CNN
	4    10125 2775
	1    0    0    -1  
$EndComp
Wire Wire Line
	10675 3600 10900 3600
Wire Wire Line
	10675 3675 10725 3675
Wire Wire Line
	10800 3575 10800 3525
Wire Wire Line
	10550 3075 11125 3075
Wire Wire Line
	10550 3800 10500 3800
Text Label 11125 3350 2    50   ~ 0
RTSB
Wire Wire Line
	9925 2825 9700 2825
Connection ~ 9925 2825
Connection ~ 10150 3125
Text Label 8675 4600 2    50   ~ 0
~TXDB
Text Label 8675 4800 2    50   ~ 0
~RTSB
Text Label 8675 4900 2    50   ~ 0
~CTSB
Text Label 8675 5000 2    50   ~ 0
~DCDB
Text Label 8675 5100 2    50   ~ 0
~RXDB
Text Label 8675 4700 2    50   ~ 0
~DTRB
Text Label 8675 3900 2    50   ~ 0
~TXDA
Text Label 8675 4100 2    50   ~ 0
~RTSA
Text Label 8675 4200 2    50   ~ 0
~CTSA
Text Label 8675 4300 2    50   ~ 0
~DCDA
Text Label 8675 4000 2    50   ~ 0
~DTRA
Text Label 8675 4400 2    50   ~ 0
~RXDA
Wire Wire Line
	8675 3900 8450 3900
Wire Wire Line
	8675 4000 8450 4000
Wire Wire Line
	8675 4100 8450 4100
Wire Wire Line
	8675 4200 8450 4200
Wire Wire Line
	8675 4300 8450 4300
Wire Wire Line
	8675 4400 8450 4400
Wire Wire Line
	8675 4700 8450 4700
Wire Wire Line
	8675 4600 8450 4600
Wire Wire Line
	8675 4800 8450 4800
Wire Wire Line
	8675 4900 8450 4900
Wire Wire Line
	8675 5000 8450 5000
Wire Wire Line
	8675 5100 8450 5100
Text Label 3300 1425 0    50   ~ 0
~CTSA
Text Label 5275 775  0    50   ~ 0
~DCDA
Text Label 5275 1100 0    50   ~ 0
~RXDA
$Comp
L my_ics:GD75189 U9
U 2 1 5F9B69AA
P 10300 3800
F 0 "U9" H 10550 4025 60  0000 C CNN
F 1 "GD75189" H 10575 3925 60  0000 C CNN
F 2 "" H 10300 3800 60  0001 C CNN
F 3 "http://pdf.dzsc.com/GD7/GD75189.pdf" H 10300 3800 60  0001 C CNN
	2    10300 3800
	-1   0    0    -1  
$EndComp
Text Label 9700 2825 0    50   ~ 0
~TXDB
Text Label 9700 3400 0    50   ~ 0
~RTSB
Text Label 9825 3800 0    50   ~ 0
~CTSB
Text Label 8750 3575 0    50   ~ 0
~DCDB
Text Label 9700 3125 0    50   ~ 0
~DTRB
Text Label 8750 3900 0    50   ~ 0
~RXDB
Wire Wire Line
	9700 3125 10150 3125
Wire Wire Line
	9700 3400 10400 3400
Wire Wire Line
	10075 3800 9825 3800
Wire Wire Line
	8750 3575 8975 3575
Wire Wire Line
	9150 3900 8750 3900
Text Label 10125 1000 0    50   ~ 0
TXDB
Text Label 10125 1100 0    50   ~ 0
RXDB
Text Label 10125 1200 0    50   ~ 0
RTSB
Text Label 10125 1300 0    50   ~ 0
CTSB
Text Label 4950 6125 1    50   ~ 0
CTSB
Text Label 10125 1600 0    50   ~ 0
DCDB
Text Label 4850 6125 1    50   ~ 0
DCDB
Wire Wire Line
	7000 5700 7450 5700
Wire Wire Line
	7000 4375 6950 4375
Wire Wire Line
	7000 4175 7000 4375
Wire Wire Line
	7000 4375 7000 5700
Wire Wire Line
	7000 2800 7000 4175
Wire Wire Line
	7000 4175 6950 4175
Wire Wire Line
	7000 2800 8025 2800
Connection ~ 7000 4375
Connection ~ 7000 4175
Wire Wire Line
	4750 2700 4775 2700
Wire Wire Line
	5750 6000 5750 3700
Wire Wire Line
	5750 6000 7450 6000
Connection ~ 5750 3700
Wire Wire Line
	5750 3700 6000 3700
Wire Wire Line
	9250 4825 9250 4425
$Comp
L Connector_Generic:Conn_02x03_Counter_Clockwise J?
U 1 1 5F99D5FD
P 9675 4825
F 0 "J?" H 9725 5100 50  0000 C CNN
F 1 "2/3" H 9725 5025 50  0000 C CNN
F 2 "" H 9675 4825 50  0001 C CNN
F 3 "~" H 9675 4825 50  0001 C CNN
	1    9675 4825
	1    0    0    -1  
$EndComp
Text Label 10175 5400 2    50   ~ 0
CTSA
Wire Wire Line
	10275 4900 10575 4900
Wire Wire Line
	10400 5300 10575 5300
Wire Wire Line
	10275 4425 10275 4800
Text Label 9275 5200 0    50   ~ 0
CTSA
Text Label 9275 4725 0    50   ~ 0
RXDA
Wire Wire Line
	10325 5100 10325 5875
Wire Wire Line
	10225 4700 10575 4700
Wire Wire Line
	9975 4725 10175 4725
NoConn ~ 11075 4800
Wire Wire Line
	10475 4600 10575 4600
NoConn ~ 11075 4700
Text Label 9275 4925 0    50   ~ 0
TXDA
Wire Wire Line
	9275 4725 9475 4725
Wire Wire Line
	9275 4925 9475 4925
Wire Wire Line
	9975 5300 10275 5300
NoConn ~ 11075 5000
Wire Wire Line
	10575 5000 10225 5000
NoConn ~ 11075 5400
Wire Wire Line
	10475 5200 10575 5200
Wire Wire Line
	9250 5300 9475 5300
$Comp
L Connector_Generic:Conn_01x03 J?
U 1 1 5F99F3FC
P 9725 5775
F 0 "J?" H 9675 6050 50  0000 L CNN
F 1 "6/8" H 9650 5975 50  0000 L CNN
F 2 "" H 9725 5775 50  0001 C CNN
F 3 "~" H 9725 5775 50  0001 C CNN
	1    9725 5775
	-1   0    0    -1  
$EndComp
$Comp
L power:GND #PWR?
U 1 1 5F8CAECE
P 10475 5900
AR Path="/5EFDD352/5F8CAECE" Ref="#PWR?"  Part="1" 
AR Path="/5EFDE485/5F8CAECE" Ref="#PWR?"  Part="1" 
AR Path="/5F8CAECE" Ref="#PWR?"  Part="1" 
F 0 "#PWR?" H 10475 5650 50  0001 C CNN
F 1 "GND" H 10475 5750 50  0000 C CNN
F 2 "" H 10475 5900 50  0001 C CNN
F 3 "" H 10475 5900 50  0001 C CNN
	1    10475 5900
	1    0    0    -1  
$EndComp
Wire Wire Line
	9250 5300 9250 5050
Wire Wire Line
	10225 4825 10225 4700
Text Label 10175 5200 2    50   ~ 0
RTSA
Wire Wire Line
	10475 5200 10475 4600
NoConn ~ 11075 5100
Wire Wire Line
	10275 5300 10275 4900
Wire Wire Line
	9275 5200 9475 5200
NoConn ~ 10575 5400
NoConn ~ 11075 5500
Wire Wire Line
	9925 5675 10400 5675
Wire Wire Line
	9925 5875 10325 5875
NoConn ~ 11075 5800
Wire Wire Line
	10575 5100 10325 5100
Wire Wire Line
	10025 5775 9925 5775
NoConn ~ 10575 5500
NoConn ~ 10575 5600
NoConn ~ 11075 5700
Connection ~ 10475 5200
Wire Wire Line
	10475 5900 10475 5200
NoConn ~ 11075 5300
Text Label 9275 5400 0    50   ~ 0
RTSA
Wire Wire Line
	10400 5675 10400 5300
Wire Wire Line
	9975 5200 10175 5200
Wire Wire Line
	10225 5050 10225 5000
Wire Wire Line
	9250 5050 10225 5050
Wire Wire Line
	9275 5400 9475 5400
$Comp
L Connector_Generic:Conn_02x03_Counter_Clockwise J?
U 1 1 5F99E4C6
P 9675 5300
F 0 "J?" H 9725 5575 50  0000 C CNN
F 1 "4/5" H 9725 5500 50  0000 C CNN
F 2 "" H 9675 5300 50  0001 C CNN
F 3 "~" H 9675 5300 50  0001 C CNN
	1    9675 5300
	1    0    0    -1  
$EndComp
$Comp
L Connector_Generic:Conn_02x13_Top_Bottom J?
U 1 1 5F8CAEF8
P 10775 5200
F 0 "J?" H 10825 6017 50  0000 C CNN
F 1 "A TERMINAL" H 10825 5926 50  0000 C CNN
F 2 "" H 10775 5200 50  0001 C CNN
F 3 "~" H 10775 5200 50  0001 C CNN
	1    10775 5200
	1    0    0    -1  
$EndComp
NoConn ~ 11075 4600
NoConn ~ 11075 4900
NoConn ~ 11075 5600
NoConn ~ 10575 5800
NoConn ~ 10575 5700
Wire Wire Line
	9250 4825 9475 4825
Wire Wire Line
	9975 4925 10175 4925
Wire Wire Line
	9975 5400 10175 5400
Text Label 10175 4925 2    50   ~ 0
RXDA
Wire Wire Line
	9250 4425 10275 4425
Text Label 10175 4725 2    50   ~ 0
TXDA
Wire Wire Line
	9975 4825 10225 4825
Wire Wire Line
	10275 4800 10575 4800
Wire Wire Line
	10025 6250 10025 5775
Wire Wire Line
	11175 6475 9425 6475
Wire Wire Line
	11075 5200 11175 5200
Wire Wire Line
	11175 5200 11175 6475
Wire Wire Line
	9200 6150 9475 6150
$Comp
L Connector_Generic:Conn_02x03_Counter_Clockwise J?
U 1 1 5F99EA4D
P 9675 6250
F 0 "J?" H 9725 6525 50  0000 C CNN
F 1 "6-8/20" H 9725 6450 50  0000 C CNN
F 2 "" H 9675 6250 50  0001 C CNN
F 3 "~" H 9675 6250 50  0001 C CNN
	1    9675 6250
	1    0    0    -1  
$EndComp
Wire Wire Line
	9975 6250 10025 6250
Wire Wire Line
	9975 6350 10250 6350
Wire Wire Line
	9200 6350 9475 6350
Text Label 10250 6150 2    50   ~ 0
DTRA
Text Label 10250 6350 2    50   ~ 0
DCDA
Wire Wire Line
	9425 6475 9425 6250
Wire Wire Line
	9425 6250 9475 6250
Text Label 9200 6350 0    50   ~ 0
DTRA
Text Label 9200 6150 0    50   ~ 0
DCDA
Wire Wire Line
	9975 6150 10250 6150
Text Label 11150 1600 2    50   ~ 0
DTRB
Text Label 5350 900  2    50   ~ 0
RTSA
Wire Wire Line
	4150 1075 4375 1075
$Comp
L my_ics:GD75188 U12
U 4 1 5F84A24D
P 3725 775
F 0 "U12" H 3725 1025 60  0000 C CNN
F 1 "GD75188" H 3725 925 60  0000 C CNN
F 2 "" H 3750 775 60  0001 C CNN
F 3 "http://radio-hobby.org/uploads/datasheet/649/gd75/gd75188.pdf" H 3750 775 60  0001 C CNN
	4    3725 775 
	1    0    0    -1  
$EndComp
Text Label 3300 1125 0    50   ~ 0
~DTRA
Wire Wire Line
	5000 900  5350 900 
Text Label 4375 775  2    50   ~ 0
TXDA
Wire Wire Line
	4400 950  4625 950 
Wire Wire Line
	3775 1025 3750 1025
Wire Wire Line
	3300 1125 3750 1125
Wire Wire Line
	3925 775  4375 775 
Wire Wire Line
	3525 825  3300 825 
Text Label 3300 825  0    50   ~ 0
~TXDA
$Comp
L my_ics:GD75188 U12
U 2 1 5F84A271
P 3950 1075
F 0 "U12" H 3950 1325 60  0000 C CNN
F 1 "GD75188" H 3950 1225 60  0000 C CNN
F 2 "" H 3975 1075 60  0001 C CNN
F 3 "http://radio-hobby.org/uploads/datasheet/649/gd75/gd75188.pdf" H 3975 1075 60  0001 C CNN
	2    3950 1075
	1    0    0    -1  
$EndComp
$Comp
L my_ics:GD75188 U12
U 1 1 5F84A282
P 4800 900
F 0 "U12" H 4800 1125 60  0000 C CNN
F 1 "GD75188" H 4800 1025 60  0000 C CNN
F 2 "" H 4825 900 60  0001 C CNN
F 3 "http://radio-hobby.org/uploads/datasheet/649/gd75/gd75188.pdf" H 4825 900 60  0001 C CNN
	1    4800 900 
	1    0    0    -1  
$EndComp
Wire Wire Line
	3750 1025 3750 1125
Connection ~ 3750 1125
Wire Wire Line
	3550 725  3525 725 
Text Label 4375 1075 2    50   ~ 0
DTRA
Text Label 4400 950  0    50   ~ 0
~RTSA
Connection ~ 3525 825 
Wire Wire Line
	3525 825  3550 825 
Wire Wire Line
	3750 1125 3775 1125
Wire Wire Line
	3525 725  3525 825 
Wire Wire Line
	4100 1425 4375 1425
Wire Wire Line
	6350 1875 6575 1875
Wire Wire Line
	8450 5600 8475 5600
Wire Wire Line
	8475 5600 8475 5700
Wire Wire Line
	8475 5700 8450 5700
Wire Wire Line
	8475 5700 8650 5700
Connection ~ 8475 5700
Text Label 8650 5700 2    50   ~ 0
BRA
Wire Wire Line
	8450 5500 8650 5500
Text Label 8650 5500 2    50   ~ 0
BRB
Text Notes 8500 6000 0    50   ~ 0
Baud Rate Generator\nomitted (4702 Chips and\n2.4576MHz Crystal)
$EndSCHEMATC
