:1C000000C3930279E60FD3C83E553276F53A76F5FE553720653EAA3276F53A766A
:1C001C00F5FEAA372058D9217F001176F5011F00EDB0D9C376F5D921F6F511438A
:1C00380068018000EDB0D978E60FD3C83E553276F53A76F5FE553720293EAA3283
:1C00540076F53A76F5FEAA37201CD921436811F6F5018000EDB0219E001176F56B
:1C007000011F00EDB0D9C376F5AF3E00D3C8C979E60FF680D3C87CD967D97DD9F5
:1C008C006F11F6F5018000EDB0D979E60FD3C8C3320078E60FF680D3C87AD957D0
:1C00A800D97BD95F21F6F5018000EDB0D978E60FD3C8C379003A8160B72009E589
:1C00C400D5C5CD5B01C1D1E1CDFD00DB68CB7FC2DC003EFFB7C3DD00AFC9AF3208
:1C00E0008460E5D5C5CD5B01CDFD00DB68CB7FC2E800F5CDAD01DB69F1C1D1E15F
:1C00FC00C93A5C60B7CA2B01CD3C05DA2B013A5B60FE01C227013A5C60325B60A7
:1C0118003A84603CE603328460CDD103C32B013D325B603A5E60B7CA5A01CD3CDB
:1C01340005DA5A013A5D60FE01C256013A5E60325D603A8460EE01E60332846073
:1C015000CDD103C35A013D325D60C93A0F60FE01C2A701CD5903DB71F53A856044
:1C016C00F5CDB111E5D5CD6C054EC5CD1F053E00328560CDD103CDF4033E0ACD28
:1C0188006003CDF403CD2205C179CD7B05D1E1CD1D04F1328560CDD103CD590347
:1C01A400F1D3713E01328160C93A0F60FE01C2F701CD5903DB71F53A8560F5CD42
:1C01C000B111E5D5CD6C057EF5AF328460328560CDD103CDF403CD22053E0ACDAC
:1C01DC006003CDF403CD1F05F1CD7B05D1E1CD1D04F1328560CDD103F1D371AF84
:1C01F800328160C93E53D3CA3E50D3CAC9DBCAE60128FADBCBC9DBCAE60228FA21
:1C02140079D3CBC9DB490F38FB79D348AFD3493E01D34979C9AF323868328160F8
:1C023000328660328760325F60325960D3A0324560326060327E60326B603277B3
:1C024C0060327B60327F603258603E01328060327A6021B86A22416821FF6F2212
:1C0268003D68210000220060AF327E60327F603E0A325E60325D603E07CD6003C6
:1C0284003E02CD6003CD8803CDFC01CD2302C931DAF62172191100F001FF0FED67
:1C02A000B0CD290231DAF621C002E5C5D5E5D9C5D5E5DDE5FDE5ED73396831B76D
:1C02BC006AC3C302C300F03E01320F60E521F302E3CDF402E67FFE1BC2DD02CD14
:1C02D8004114C3F002FE20D2E802CDF517C3F002FE20DAF002CDD018C3CD02C99E
:1C02F4003A5960FE01C20003CDDE00C9C5D5E5D9C5D5E5DDE5FDE5ED733B68ED58
:1C0310007B3968C34703FDE1DDE1E1D1C1D9E1D1C1373FC979C5D5E5D9C5D5E5BE
:1C032C00DDE5FDE5F53A8160B7CA3B03CDAD01F1ED733968ED7B3B68C31603CD21
:1C034800FD00FDE1DDE1E1D1C1D9E1D1C1373F79C9DB70E60428FAC9F5CD59034B
:1C036400F1D370C9F5CD5903F1E6F047DB60E60FB0D3603E07D3713E04CD600346
:1C038000CD59033E03D371C93E00CD68033E50CD68033EA0CD68033EF0CD680332
:1C039C0021B86011B960017F073620EDB0AF32826032836021A0600E00061871D2
:1C03B8000C2305C2B7032188600E00061836000C2305C2C503CDD103C9C53A8562
:1C03D400600707E60C473A8460E603B007070707473A8660E60FB0C1F5CD5903A8
:1C03F000F1D360C9E5D53A82604F69060060290929E53A83604F69060060292943
:1C040C00092911F600EBAFED52EBE1CD1D04D1E1C9CD59037CD3787DD3797AD387
:1C0428007A7BD37BC93A6060FE01C26304E5D5CDEB08CDB111226760ED5369608F
:1C044400D1E1E5D5CD6704CD00092A6760ED5B6960CD1D04D1E1CD6704CDEB0888
:1C046000C36604CD6704C9220260ED530460CD5903DB78CB5F2802F6F057DB79C9
:1C047C005FED5306602A0260AFED52220A60DB7ACB5F2802F6F057DB7B5FED537E
:1C04980008602A0460AFED52220C60ED5B0A60CB7C2803CDBA10CB7A2805EBCDF1
:1C04B400BA10EB7CB7C2C1047AB7CAF0042A0260ED5B0460E5D52A0A60CB2CCB86
:1C04D0001DED5B066019E52A0C60CB2CCB1DED5B086019EBE1CD6704D1E1CD671F
:1C04EC0004C3FA042A0A60ED5B0C60CDFB04C90611CB7C2805CDBA10CBC8CB7A58
:1C0508002807EBCDBA10EBCBD0CD59037DD3757BD37778CD6003C9AF18023E0174
:1C052400CD60033E02C36003F5CD5903F1D372C9F5CD5903F1D373C9DB70E602B7
:1C054000CA59053A7E60B7C254053C327E60373FC9C3560537C9C36B053A7E6099
:1C055C00B7C2650537C9C36B05AF327E6037C9C93A836047CD30063A82605F16ED
:1C0578000019C9B7F28505CD9207C38805CD6003C9CD2205AFCD3405AFCD2C054D
:1C0594001100000604210000CD1D040E083E0BCD60030DC2A10521400019EB05B3
:1C05B000C299053E11C334053AA060F5DD21A0600617DD7E01DD7700DD2305C2C3
:1C05CC00C205F1DD7700C9CDE117CDD103CD220521000011F600CD1D04CDB50646
:1C05E800CD1F0521000011F600CD1D04CDA406CDEB17CDD103CD220521000011E3
:1C060400F600CD1D04CDB506CD1F0521000011F600CD1D04CDA406CDB805061749
:1C062000CD3006AF02545D13014F003620EDB0C9D558160021A060195E21886056
:1C063C0019444D626B29292929545D29291911B86019D1C93E4F327C6018053E99
:1C06580050327C60CD6C053A82604FDB70E604CA63067EB7F27506CD9207C377D5
:1C06740006D370230C3A7C60B9C26306C93E17327D6018053E18327D60CD6C050B
:1C0690000A3254603A836047C53A5460473A82604FC3C4063E18327D600601C5D7
:1C06AC00CD30060A470E00180F3E18327D600600C5CD30060A470E0078B7CAE43A
:1C06C80006DB70E604CAC9067EB7F2DB06CD9207C3DD06D370230C79B8C2C906FA
:1C06E400CD5903AFD378D379DB7A67DB7B6F110A00AFED527CD37A7DD37BC104A8
:1C0700003A7D60B8C2BC06C95B5C5D7B7C7D7E40DBDCDDFBFCFDFEC07D0A090A9B
:1C071C007D3D4242423D7D4040407D715454784100394444393D40407D40007F85
:1C073800014D32004A5529004F3A3868B7280479F6804F3A5860B7200279C9798D
:1C075400210807011000EDB1C03E0F91F680C94F3EF8CD60033EA8CD6003DB71B6
:1C077000F53E03CD60033EFECD60033EAECD6003CD5903F1D37179C9CD6307CDDB
:1C078C006003E1D1C1C9C5D5E5E67FFE2028F0FE2130E9FE083805CD6307D60808
:1C07A8005F1600626B29291911180719CD8D11D9D5E52A2560ED5B2760D90605DF
:1C07C4007ED9D5470E08CB00D2D4073E80CD600313CD1D040DC2CA07D123CD1DAB
:1C07E00004D92305C2C407D923CD1D04E1D1D9E1D1C1C9CD0208D2FF07E67F376F
:1C07FC00C30108E67FC9CDF402C9AF325A60CDF307FE20CA0A08FE25C22508CD20
:1C081800F307E5CD2908D1F519F1C32808CD2908C9210000FE2DC239083E01329D
:1C0834005A60CDF307FE24C2B108CDF307FE3A3005FE30D25E08FE473005FE4137
:1C085000D25E08FE673005FE61D25E0837C9FE3A3005FE30D27A08FE473005FEBC
:1C086C0041D27A08FE67D2AE08FE61DAAE0829292929FE47D28F08FE41DA8F08FD
:1C088800D641C60AC3A208FE67D2A008FE61DAA008D661C60AC3A208D630E60FD1
:1C08A4005F160019CDF307C35E08C3D808FE3A3005FE30D2BC0837C9FE3AD2D804
:1C08C00008FE30DAD808545D29291929E60F5F160019CDF307C3BC08F53A5A602D
:1C08DC00FE00CAE708DAE708CDBA10F1373FC93A6160328560CDD1033A6260D337
:1C08F800A03A6360CD6003C93A6460328560CDD1033A6560D3A03A6660CD6003F6
:1C091400C93A5F60B7C22209325E60325C60CD1F05AF328560328460CDD103CD48
:1C093000F307FE41CA700EFE4DC25A09CD8D112A2560CD0608DA5709E52A2760F5
:1C094C00CD0608D1DA5709EBCD1D04C36A0EFE44C27D09CD8D112A2560CD060816
:1C096800DA7A09E52A2760CD0608D1DA7A09EBCDE912C36A0EFE50C29C09CD0601
:1C09840008DA99097DE6033284607D0F0FE603328560CDD103C36A0EFE53C2C10C
:1C09A00009CD0608DABE097DE6033284607D0F0FE603328560CD3C05DAB509CD2C
:1C09BC00D103C36A0EFE72C2DC09CD0608DAD2097DE60FC3D309AF328660CDD1F3
:1C09D80003C36A0EFE59C2FD09CD0608DAF6097D325E60325D603E01325F60C3A3
:1C09F400FA09AF325F60C36A0EFE58C21E0ACD0608DA170A7D325C60325B603E5D
:1C0A100001325F60C31B0AAF325F60C36A0EFE43C22C0ACD8905CD1F05C36A0E55
:1C0A2C00FE5AC23A0ACD8803CD1F05C36A0EFE47C26B0ACD0608DA680AE5CD0671
:1C0A480008D1DA680A7BFE10D2680AFE00DA680A7CB7C2680ACD59037BE60FF660
:1C0A6400704FED69C36A0EFE42C2C20ACDF307FE0DCABF0AF53A6060FE01C2AB98
:1C0A80000AF1FE80D2A80AFE20DAA80A4FCDEB08CDB111E5D579CD6003D1E1CD33
:1C0A9C000009CD1D0479CD6003CDEB08C3B90AF1FE80D2B90AFE20DAB90ACD606C
:1C0AB80003CDF307C3730AC36A0EFE56C2DA0ACD0208B7CAD70ACD6003CD0208A3
:1C0AD400C3CA0AC36A0EFE6DC2FB0ACD020867E5CD0208E16FE5CD020857D5CD03
:1C0AF0000208D15FE1CD1D04C36A0EFE64C21C0BCD020867E5CD0208E16FE5CD5F
:1C0B0C00020857D5CD0208D15FE1CD2D04C36A0EFE4FC2650B210000CD060822D9
:1C0B28001560210000CD0608221760210000CD0608221160210000CD06082213E7
:1C0B440060FE20C2530B210000CD0608C3540B37D25B0BAFC35C0B7D324360CD72
:1C0B6000CD11C36A0EFE52C21D0C210000CD0608223160210000CD0608223360C5
:1C0B7C00FE20C28A0B210000CD0608C38B0B37DAEB0B7DFE01C2E80BCD8D112AC6
:1C0B980031607CB5CAAD0BCB7CCAAA0B21FFFFC3AD0B2101002235602A2560ED28
:1C0BB4005B2760CD1D04EBED4B336009EBE5CD2D04E1ED5B356019E5EB2A256072
:1C0BD000ED4B316009AFED527CB5E1C2B30B2A2560ED5B2760CD1D04C31A0CCD95
:1C0BEC008D112A2760ED4B336009EB2A2560E5D5CD2D04D1E1ED4B316009E5CD42
:1C0C08002D04E1ED5B2760D5CD2D04D12A2560CD2D04C36A0EFE4CC2690CCD8D88
:1C0C2400112A2560CD0608E52A2760CD0608EBE1CD1D04CD8D11E5215C0CE32A08
:1C0C40002560CD0608FE20C0E52A2760CD0608D1EBF5CD2D04F1FE20C0C33F0C5D
:1C0C5C002A2560ED5B2760CD2D04C36A0EFE6CC2740CCD2413C36A0EFE4AC2A52B
:1C0C78000C210000CD0608223160210000CD0608223360CD8D112A2760ED4B336D
:1C0C94006009EB2A2560ED4B316009CDE912C36A0EFE57C2B00CCD7B0EC36A0E08
:1C0CB000FE46C2590D3A8660F5CD8D112A2560CD0608DA3C0DE52A2760CD06081E
:1C0CCC00D1DA390DED537160227360210000CD0608DA390DE5FE20C2F00CCD0665
:1C0CE80008DAF00C7D328660E13A86603287603A8560F57DE603327560CD720F94
:1C0D0400DA320DCDAC0FED5B7360ED536E602A7160226C60CD1D043A7560327081
:1C0D200060328560CDD103CD1F05CDE60F3E01326B60F1328560CDD103C34F0DE8
:1C0D3C003A8760328660CDD103CDAC0FAF326B60CD1F05F1328660CDD103C36AC5
:1C0D58000EFE45C2610DC36A0EFE48C2810D210000CD0608DA7A0D2239603E01D6
:1C0D7400324560C37E0DAF324560C36A0EFE49C2A10D210000CD0608DA9A0D2227
:1C0D900037603E02324560C39E0DAF324560C36A0EFE4BC2FC0D210000CD06085A
:1C0DAC00DAF50D7DE603326160210000CD06087D326260210000CD06087DE60129
:1C0DC800326360210000CD06087DE603326460210000CD06087D32656021000031
:1C0DE400CD06087DE6013266603E01326060C3F90DAF326060C36A0EFE51C20ACB
:1C0E00000E21FF6F223D68C36A0EFE54C2270ECDB111ED733F68ED7B3D68E5D591
:1C0E1C00ED733D68ED7B3F68C36A0EFE55C2520E2A3D6811FF6FAFED527CB5CABF
:1C0E38004F0EED733F68ED7B3D68D1E1ED733D68ED7B3F68CD1D04C36A0EFE1B25
:1C0E5400C26A0ECDF307FE1BC26A0ECDF307FE41C26A0EC3700ECDF307C33209E8
:1C0E7000CD59033E11D373AFD372C9CDF307FE41C2150FCDAC0FAF326B60CDF30B
:1C0E8C0007FE603005FE40D2A00EFE30CAA00EFE31C2000F21B86A227860FE30E1
:1C0EA800C2B10E3E0377C3D90EFE31C2BC0E3E0277C3D90EE61F47DD21620FE68E
:1C0EC400075F1600DD1978E618DDB600470707E660F680B07723E5CDF307E1FEB1
:1C0EE000603005FE40D2A60EFE30CAA60EFE31CAA60E3600233E01327760224140
:1C0EFC0068C3120F3A7760FE01C2120FAF3277602A7860224168C3610FFE42C2E1
:1C0F1800200FCDE60FC3610FFE43C2530FCDAC0FAF326B60CD0608DA470FE5CD43
:1C0F34000608D1DA440F7B327A607DE607327B60C3500F3E01327A60AF327B606E
:1C0F5000C3610FFE47C2610F210000CD06087DD3A0C90001020306070405010207
:1C0F6C000306050007043A6B60B7C27B0FAFC92A6C60ED5B7160AFED527CB5CAD8
:1C0F88008C0FAFC92A6E60ED5B7360AFED527CB5CA9D0FAFC93A7060473A7560BA
:1C0FA400B8CAAA0FAFC937C93A6B60FE01C2E50FED5B6E602A6C60CD1D043A850B
:1C0FC00060F53A7060328560CDD1033A8660B7C2D80FCD2205C3DB0FCD1F05CD1F
:1C0FDC00E60FF1328560CDD103C93A7760FE01C23B103A7A60473A7B604F2A7814
:1C0FF800607EB7CA3810C57EFE80DA291079B7CA25107EE607DD216A0F5F1600DC
:1C101400DD19DD7E000DC20D104F7EE6F8B1C326107EC32A107E23F5CD6003F1FC
:1C10300005C22B10C1C3F90FC33E10CD4D10C90318021E1E03181A021C1C031A2D
:1C104C0002CD59033E14D3753E14D377060E213F107ECD60032310F9C911680186
:1C1068007CB7FA8110E5217E10E3E5AFED52E1F8AFED52C37210C38710197CB7B2
:1C108400FA8110C90E007AB7F297100E012F577B2F5F1378A9321060CB44C2C21D
:1C10A000107D0E082100002917D2AF1019CE000DC2A7106C673A1060B7C87C2F8B
:1C10BC00677D2F6F23C9EBC3B5100004090D12161B1F24282C31353A3E42474B91
:1C10D8004F53585C6064686C7074787C8084888B8F93969A9EA1A5A8ABAFB2B580
:1C10F400B8BBBEC1C4C7CACCCFD2D4D7D9DBDEE0E2E4E6E8EAECEDEFF1F2F3F5FE
:1C111000F6F7F8F9FAFBFCFDFEFEFFFFFF00000000EB215A00AFED52CB7CCA3168
:1C112C001111680119222F600600115A00AFED52FA7911115A00AFED52FA6C119F
:1C1148000601115A00AFED52FA6011216801ED5B2F60AFED52C369112A2F60116A
:1C116400B400AFED52C37611ED5B2F6021B400AFED52C37C112A2F607CB5C8EBFC
:1C11800021C610196E26007DB7C02601C9CD5903DB78CB5F2802F6F0322660DB82
:1C119C0079322560DB7ACB5F2802F6F0322860DB7B322760C9CD5903DB78CB5F40
:1C11B8002802F6F067DB796FDB7ACB5F2802F6F057DB7B5FC9CD8D112A1360CDA8
:1C11D40065102213602A1160CD6510221160CD2111ED5B1560CD8810EB2A2560CA
:1C11F000AFED522219602229602A1160CD3111ED5B1760CD8810EB2A2760AFEDA9
:1C120C0052221B60222B602A1160222D602A2B60221F602A2960221D602A2D6081
:1C122800CD2111ED5B1560CD8810ED5B1960192229602A2D60CD3111ED5B17607F
:1C124400CD8810ED5B1B6019222B603A4360FE01C269122A2B602223602A29607A
:1C126000222160CD5F13C383122A1960E52A1B60E52A2960ED5B2B60CDE912E1F7
:1C127C00221B60E12219602A2D6023CD6510222D60E52A1360D1AFED527CB5C23E
:1C12980019122A2D60CD2111ED5B1560CD8810ED5B1960192229602A2D60CD31FD
:1C12B40011ED5B1760CD8810ED5B1B6019222B603A4360FE01C2DE122A2B6022FB
:1C12D00023602A2960222160CD5F13C3E8122A2960ED5B2B60CDE912C93A456037
:1C12EC00B7C2F612CD2D04C32313222160ED532360E5D53A45603244602A3760D8
:1C1308002219602A3960221B60CDB111221D60ED531F60CD6313D1E1CD1D04C935
:1C132400CD8D11DD2119600603DDE5C52A2560CD0608C1DDE1D8DD7500DD7401B6
:1C134000DD23DD23DDE5C52A2760CD0608C1DDE1D8DD7500DD7401DD23DD23057E
:1C135C00C22D13AF3244602A2160ED5B1D60CD2B14DD2A1D60D92A2360ED5B1F01
:1C13780060CD2B14D9FD2A1F60D5E1D5D9E1AFED527CD9B7F29C13D9D5D9E1D551
:1C139400EB210000AFED52D1DD221D60FD221F60E5D5C53A4460B7C2BB132A1971
:1C13B00060ED5B1B60CD1D04C3DC13FE01C2CD132A1D60ED5B1B60CD1D04C3DCC6
:1C13CC0013FE02C2DC132A1960ED5B1F60CD1D042A1D60ED5B1F60CD2D04C1D1EB
:1C13E800E1C5E52A1D60ED4B2160AFED427CB5E1C1281D7CB7FA1014DD09E5D913
:1C140400E1AFED52AFED52E5D9E1188CD9FD09D919191884C5E52A1F60ED4B2398
:1C14200060AFED427CB5E1C120D1C9010100AFED52F23A14CDBA1001FFFFEBC96B
:1C143C00C9CDF402C9CD3D14FE2EC25E14CD3D14FE35D25B14FE30DA5B14E60FC3
:1C145800328060C36F15FE29C26B143E01323868C36F15FE28C27714AF3238686B
:1C147400C36F15FE47C28714CD3D143E20CDD018C36F15FE3DC2B314CD3D14D643
:1C14900020FE18D29E14FE00DA9E14328360CD3D14D620FE50D2B014FE00DAB067
:1C14AC0014328260C36F15FE3FC2C9143A8360C6204F3A8260C6204F0E0DC36FE9
:1C14C80015FE44C2E214CD3D14FE4CC2DB143E01C3DC14AF325960C36F15FE51BE
:1C14E400C2ED14CDEC15C36F15FE57C2F814CD5316C36F15FE45C20315CDC616AE
:1C150000C36F15FE52C20E15CD5017C36F15FE54CA1815FE74C21E15CD7015C313
:1C151C006F15FE59CA2815FE79C22E15CDA615C36F15FE7AC24715CD3D14FE30A4
:1C153800C23F15AFC341153E01325860C36F15FE1BC26F15CD3D14FE47C26F1541
:1C155400AF320F60CD15093A5F60B7C26A153E0A325E60325D603E01320F60C97F
:1C157000CDE117CDD103CDF403CD2205CD5706CDEB17CDD103CDF403CD2205CD22
:1C158C005706CD6C053A82603C023A8260473E50904736202305C29E15C9CDE11C
:1C15A80017CDD103CDF403CD2205CD8806CDEB17CDD103CDF403CD2205CD8806D9
:1C15C400CD8E153A8360C6014778FE18D2EB15C5CD3006AF02014F00E5D1133648
:1C15E00020EDB0C178C60147C3CD15C9CDE117CDD103CDF403CD2205CD5706CD68
:1C15FC00F403CD1F053E20CD60033A8260FE4FD21116CD5006CDEB17CDD103CD9B
:1C161800F403CD2205CD5706CDF403CD1F053E20CD60033A8260FE4FD23616CD0A
:1C1634005006CD6C050AFE50D241163C023A8260470E207E714F230478FE50C2C9
:1C1650004716C9CDE117CDD103CDF403CD2205CD5706CDF403CD1F053A8260F54A
:1C166C003CFE50D27816328260CD5706F1328260CDEB17CDD103CDF403CD22050D
:1C168800CD5706CDF403CD1F053A8260F53CFE50D2A116328260CD5706F1328260
:1C16A40060CD6C053A826047E5DDE178FE4FD2C116DD7E01DD7700DD2304C3AFF2
:1C16C00016DD360020C9AF328260CDE117CDD103CD2205CDF403CD8806CD1F05CF
:1C16DC003A8360FE17D2F316F53C328360CDF403F1328360CD8106CDEB17CDD114
:1C16F80003CD2205CDF403CD8806CD1F053A8360FE17D21C17F53C328360CDF491
:1C17140003F1328360CD810621A0603A83604F0600093A8360473AB7604F78FE46
:1C17300018D23C177E714F2304C32E173A836047CD3006AF02545D13014F003691
:1C174C0020EDB0C9AF328260CDE117CDD103CD2205CDF403CD8806CD1F05CDF40D
:1C176800033A8360FE17D27D17F53C328360CD8806F1328360CDEB17CDD103CDE6
:1C1784002205CDF403CD8806CD1F05CDF4033A8360FE17D2A617F53C328360CD7A
:1C17A0008806F132836021A0603A83604F0600097EF5E5DDE13A83604778FE17F6
:1C17BC00D2CB17DD7E01DD7700DD2304C3B917F1DD77000617CD3006AF02545D4F
:1C17D80013014F003620EDB0C9AF3284603E01328560C93E01328460AF328560D7
:1C17F400C9FE08C222183A8260B7C21B183A8360B7CA18183E4F3282603A8360BA
:1C181000B7CA18183D328360C31F183D328260C3CF18FE1AC23918CD88033E0AF9
:1C182C00325E60325D60AF325C60C3CF18FE1EC24818AF328260328360C3CF18BA
:1C184800FE07C25318000000C3CF18FE0BC266183A8360B7CA63183D328360C331
:1C186400CF18FE0AC280183A8360FE17D27A183C328360C37D18CDD305C3CF1891
:1C188000FE16C294183A8360FE17D291183C328360C3CF18FE0CCA9E18FE09C2CF
:1C189C00C6183A8260FE4FC2BF18AF3282603A8360FE17C2B818CDD305C3BC188D
:1C18B8003C328360C3C3183C328260C3CF18FE0DC2CF18AF328260C9E67FCD4079
:1C18D40007F5AF328560CDD103CDF403CD6C050A5F3A82603CBBCAF118DAF11861
:1C18F000027E325760FE20CA0519CD22053E0ACD6003CDF403CD1F05F1F577B738
:1C190C00F21519CD9207C31819CD60033E01328560CDD103CDF4033A5760FE204B
:1C192800CA3919CD22053E0ACD6003CDF403CD1F05F1B7F24419CD9207C34719E6
:1C194400CD60033A82603C328260FE4FCA7119DA7119AF3282603A83603C328315
:1C19600060FE17CA7119DA71193E17328360CDD305C9C363F0C36AF1C3B2F1C309
:1C197C0082F1C3CAF1C3E2F1C39AF100AFC90000C9C35EF0C363F0C375F3C3C65E
:1C199800F2C301F3C363F00000DBF63FF700000000000000000000000000C3FAB0
:1C19B400F1C312F2C328F2C33EF2C354F2C36EF2C388F2C3B8F2C3BFF2C3A2F2EE
:1C19D0003EEF06FFC9313FF73E80D3C8CD25F321E9F0CDDFF0CD6AF1E67F4FCD1C
:1C19EC0082F1FE31201F0E01CD30F338DC218000CB6120032100FCE506011600DC
:1C1A08001E01CD75F3E120C5E9FE32200F213E8E22FCFF21D3C822FEFFC3FCFFBD
:1C1A2400FE332006AFD3C8C30020FE34200EDBC0AFD3C831DAF6110004C30320E1
:1C1A4000FE032091CD6AF14FCD82F1FE0320F518847EB7C84FCD82F12318F61A98
:1C1A5C00464C4F4D4F4E20332E3020526F6C662D446965746572204B6C65696EA2
:1C1A78002028432920313938360D0A0D0A31203D20466C6F70707920426F6F749C
:1C1A94000D0A32203D20476F204530303030680D0A33203D20476F2042616E6B14
:1C1AB0002032303030680D0A34203D205A4541542073746172740D0A4354524C3A
:1C1ACC002D433D546573746D6F64650D0A000000AFD3C8ED7368F131DAF6CDDE46
:1C1AE80000F53E80D3C8F1ED7B68F1C9AFD3C8ED7368F131DAF6CD2403F53E806E
:1C1B0400D3C8F1ED7B68F1C9AFD3C8ED7368F131DAF6CDBD00F53E80D3C8F1EDF5
:1C1B20007B68F1C9AFD3C8ED7368F131DAF6CD0502F53E80D3C8F1ED7B68F1C96B
:1C1B3C00AFD3C8ED7368F131DAF6CD0E02F53E80D3C8F1ED7B68F1C9AFD3C8EDAC
:1C1B58007368F131DAF6CD1802F53E80D3C8F1ED7B68F1C9AFD3C8ED7368F131C0
:1C1B7400DAF6CD8803F53E80D3C8F1ED7B68F1C9AFD3C8ED7368F131DAF6CD890A
:1C1B9000053E80D3C8ED7B68F1C9AFD3C8ED7368F131DAF6CD1D043E80D3C8ED19
:1C1BAC007B68F1C9AFD3C8ED7368F131DAF6CD2D043E80D3C8ED7B68F1C9AFD319
:1C1BC800C8ED7368F131DAF679328560CDD1033E80D3C8ED7B68F1C9AFD3C8ED34
:1C1BE4007368F131DAF679328460CDD1033E80D3C8ED7B68F1C9AFD3C8ED7368F3
:1C1C0000F131DAF679328660CDD1033E80D3C8ED7B68F1C9AFD3C8ED7368F1318D
:1C1C1C00DAF6CD03003E80D3C8ED7B68F1C9DB70E60428FAC9CDB8F279D370C90D
:1C1C3800CDCCF2C375F379E603FE0020030E11C9FE0120030E12C9FE0220030E33
:1C1C540091C90E92C9E603FE0020030E01C9FE0120030E81C9FE0220030E02C959
:1C1C70000E82C979E67F4FF5CDE7F2F1E640C216F379F6304FC31AF379F6204FB9
:1C1C8C003E02C376F3F1DBC0FBED4D3E00325EF53EFF3265F5C9F33ED0D3C0DB4B
:1C1CA800C079E68F4FCD15F479F6304FCD60F3D079E6AF4FCD60F3D079E68FF63E
:1C1CC400104FCD60F3D079E68F4FCD60F3C979D3C43E0FD3C0DBC4E64028FADBDD
:1C1CE000C0E69837C0AFC9AF325FF5ED7368F131DAF63ED0D3C03A38003260F5B2
:1C1CFC003EC3323800E52A39002261F5211FF3223900E1DBC0ED56FBCD5FF4F346
:1C1D1800F53A60F5323800E52A61F5223900E1F1ED7B68F1C906003A64F5E680A6
:1C1D340028113A5EF5E6802804060218063A5FF5E60247DBC4E620200478F6041D
:1C1D5000C978C979D3C47BD3C20EC3CDBBF3C688D3C0DBC407D2F0F3EDA2C3F083
:1C1D6C00F379D3C47BD3C20EC3CDBBF3C6A8D3C0DBC407D20AF4EDA3C30AF4C56F
:1C1D880001F401CD1EF4C1C90B78B1C21EF4C9CD15F479CBAFD3C47BD3C27AD352
:1C1DA400C306183A5EF5E603B0D3C0CD4DF479D3C4061C3A5EF5E603B0D3C0761A
:1C1DC000CD15F479D3C406083A5EF5E603B0D3C07678B720087AE683325EF5AF76
:1C1DDC00C9AF3263F5793264F5E60F4F3A65F5FEFF2814E60FB9CABFF4E5C521DE
:1C1DF80066F54F060009DBC177C1E1E5C53A64F5E60F4F06002166F5097ED3C143
:1C1E1400C1E13A64F53265F5C501FA00CD1EF43A64F5D3C401650BCD1EF4C118FF
:1C1E300006DBC4E620200D3A64F54FCD54F5DBC0E68020F3DBC1FEFF280FBACA5E
:1C1E4C0006F53A64F54FCD54F5E690281F3A64F54FE5D5C5CD4EF4C1D1E13A634A
:1C1E6800F53C3263F5FE0A38DD3EFFB737C9AFC978FE02CA32F53A64F54FE5D515
:1C1E8400C5CDE1F3C1D1E1E69C28E7E61020C63A63F53C3263F5FE0538DAFE0A87
:1C1EA00038B718CD3A64F54FE5D5C5CDFBF3C1D1E1E6FC28C1E61020A03A63F5B0
:1C1EBC003C3263F5FE04389518ABE5D5C5CD25F4C1D1E1C900000000000000FF12
:1C1ED800FFFFFFFFFFFFFFFFFFFFFFFFFFFFFFFF000000000000000000000000FE
:1C1EF40000000000000000000000000000000000000000000000000000000000D2
:1C1F100000000000000000000000000000000000000000000000000000000000B5
:1C1F2C000000000000000000000000000000000000000000000000000000000099
:1C1F4800000000000000000000000000000000000000000000000000000000007D
:1C1F64000000000000000000000000000000000000000000000000000000000061
:1C1F80000000000000000000000000000000000000000000000000000000000045
:1C1F9C000000000000000000000000000000000000000000000000000000000029
:1C1FB800000000000000000000000000000000000000000000000000000000000D
:141FD4000000000000000000000000000000000000000000F9
:1C6000000000000000000000000000000000000000000000000000000000000084
:1C601C000000000000000000000000000000000000000000000000000000000068
:1C603800000000000000000000000000000000000000000000000000000000004C
:1C6054000000000000000000000000000000000000000000000000000000000030
:1C6070000000000000000000000000000000000000000000000000000000000014
:1C608C0000000000000000000000000000000000000000000000000000000000F8
:1C60A80000000000000000000000000000000000000000000000000000000000DC
:1C60C40000000000000000000000000000000000000000000000000000000000C0
:1C60E00000000000000000000000000000000000000000000000000000000000A4
:1C60FC000000000000000000000000000000000000000000000000000000000088
:1C611800000000000000000000000000000000000000000000000000000000006B
:1C613400000000000000000000000000000000000000000000000000000000004F
:1C6150000000000000000000000000000000000000000000000000000000000033
:1C616C000000000000000000000000000000000000000000000000000000000017
:1C61880000000000000000000000000000000000000000000000000000000000FB
:1C61A40000000000000000000000000000000000000000000000000000000000DF
:1C61C00000000000000000000000000000000000000000000000000000000000C3
:1C61DC0000000000000000000000000000000000000000000000000000000000A7
:1C61F800000000000000000000000000000000000000000000000000000000008B
:1C621400000000000000000000000000000000000000000000000000000000006E
:1C6230000000000000000000000000000000000000000000000000000000000052
:1C624C000000000000000000000000000000000000000000000000000000000036
:1C626800000000000000000000000000000000000000000000000000000000001A
:1C62840000000000000000000000000000000000000000000000000000000000FE
:1C62A00000000000000000000000000000000000000000000000000000000000E2
:1C62BC0000000000000000000000000000000000000000000000000000000000C6
:1C62D80000000000000000000000000000000000000000000000000000000000AA
:1C62F400000000000000000000000000000000000000000000000000000000008E
:1C6310000000000000000000000000000000000000000000000000000000000071
:1C632C000000000000000000000000000000000000000000000000000000000055
:1C6348000000000000000000000000000000000000000000000000000000000039
:1C636400000000000000000000000000000000000000000000000000000000001D
:1C6380000000000000000000000000000000000000000000000000000000000001
:1C639C0000000000000000000000000000000000000000000000000000000000E5
:1C63B80000000000000000000000000000000000000000000000000000000000C9
:1C63D40000000000000000000000000000000000000000000000000000000000AD
:1C63F0000000000000000000000000000000000000000000000000000000000091
:1C640C000000000000000000000000000000000000000000000000000000000074
:1C6428000000000000000000000000000000000000000000000000000000000058
:1C644400000000000000000000000000000000000000000000000000000000003C
:1C6460000000000000000000000000000000000000000000000000000000000020
:1C647C000000000000000000000000000000000000000000000000000000000004
:1C64980000000000000000000000000000000000000000000000000000000000E8
:1C64B40000000000000000000000000000000000000000000000000000000000CC
:1C64D00000000000000000000000000000000000000000000000000000000000B0
:1C64EC000000000000000000000000000000000000000000000000000000000094
:1C6508000000000000000000000000000000000000000000000000000000000077
:1C652400000000000000000000000000000000000000000000000000000000005B
:1C654000000000000000000000000000000000000000000000000000000000003F
:1C655C000000000000000000000000000000000000000000000000000000000023
:1C6578000000000000000000000000000000000000000000000000000000000007
:1C65940000000000000000000000000000000000000000000000000000000000EB
:1C65B00000000000000000000000000000000000000000000000000000000000CF
:1C65CC0000000000000000000000000000000000000000000000000000000000B3
:1C65E8000000000000000000000000000000000000000000000000000000000097
:1C660400000000000000000000000000000000000000000000000000000000007A
:1C662000000000000000000000000000000000000000000000000000000000005E
:1C663C000000000000000000000000000000000000000000000000000000000042
:1C6658000000000000000000000000000000000000000000000000000000000026
:1C667400000000000000000000000000000000000000000000000000000000000A
:1C66900000000000000000000000000000000000000000000000000000000000EE
:1C66AC0000000000000000000000000000000000000000000000000000000000D2
:1C66C80000000000000000000000000000000000000000000000000000000000B6
:1C66E400000000000000000000000000000000000000000000000000000000009A
:1C670000000000000000000000000000000000000000000000000000000000007D
:1C671C000000000000000000000000000000000000000000000000000000000061
:1C6738000000000000000000000000000000000000000000000000000000000045
:1C6754000000000000000000000000000000000000000000000000000000000029
:1C677000000000000000000000000000000000000000000000000000000000000D
:1C678C0000000000000000000000000000000000000000000000000000000000F1
:1C67A80000000000000000000000000000000000000000000000000000000000D5
:1C67C40000000000000000000000000000000000000000000000000000000000B9
:1C67E000000000000000000000000000000000000000000000000000000000009D
:1C67FC000000000000000000000000000000000000000000000000000000000081
:1C6818000000000000000000000000000000000000000000000000000000000064
:1C6834000000000001000000000000000000000000000000000000000000000047
:1C685000000000000000000000000000000000000000000000000000000000002C
:1C686C000000000000000000000000000000000000000000000000000000000010
:1C68880000000000000000000000000000000000000000000000000000000000F4
:1C68A40000000000000000000000000000000000000000000000000000000000D8
:1C68C00000000000000000000000000000000000000000000000000000000000BC
:1C68DC0000000000000000000000000000000000000000000000000000000000A0
:1C68F8000000000000000000000000000000000000000000000000000000000084
:1C6914000000000000000000000000000000000000000000000000000000000067
:1C693000000000000000000000000000000000000000000000000000000000004B
:1C694C00000000000000000000000000000000000000000000000000000000002F
:1C6968000000000000000000000000000000000000000000000000000000000013
:1C69840000000000000000000000000000000000000000000000000000000000F7
:1C69A00000000000000000000000000000000000000000000000000000000000DB
:1C69BC0000000000000000000000000000000000000000000000000000000000BF
:1C69D80000000000000000000000000000000000000000000000000000000000A3
:1C69F4000000000000000000000000000000000000000000000000000000000087
:1C6A1000000000000000000000000000000000000000000000000000000000006A
:1C6A2C00000000000000000000000000000000000000000000000000000000004E
:1C6A48000000000000000000000000000000000000000000000000000000000032
:1C6A64000000000000000000000000000000000000000000000000000000000016
:1C6A800000000000000000000000000000000000000000000000000000000000FA
:1C6A9C0000000000000000000000000000000000000000000000000000000000DE
:1C6AB80000000000000000000000000000000000000000000000000000000000C2
:1C6AD40000000000000000000000000000000000000000000000000000000000A6
:1C6AF000000000000000000000000000000000000000000000000000000000008A
:1C6B0C00000000000000000000000000000000000000000000000000000000006D
:1C6B28000000000000000000000000000000000000000000000000000000000051
:1C6B44000000000000000000000000000000000000000000000000000000000035
:1C6B60000000000000000000000000000000000000000000000000000000000019
:1C6B7C0000000000000000000000000000000000000000000000000000000000FD
:1C6B980000000000000000000000000000000000000000000000000000000000E1
:056BB4000000000000DC
:00F000010F
000000000000000000FD
:1C6B980000000000000000000000000000000000000000000000000000000000E1
:056B