EESchema Schematic File Version 5
EELAYER 30 0
EELAYER END
$Descr A4 11693 8268
encoding utf-8
Sheet 2 3
Title ""
Date ""
Rev ""
Comp ""
Comment1 ""
Comment2 ""
Comment3 ""
Comment4 ""
Comment5 ""
Comment6 ""
Comment7 ""
Comment8 ""
Comment9 ""
$EndDescr
Wire Wire Line
	1150 1100 1500 1100
Wire Wire Line
	1150 1200 1500 1200
Wire Wire Line
	1150 1300 1500 1300
Wire Wire Line
	1150 1400 1500 1400
Wire Wire Line
	1150 1500 1500 1500
Wire Wire Line
	1150 1600 1500 1600
Wire Wire Line
	1150 1700 1500 1700
Wire Wire Line
	1150 1800 1500 1800
Wire Wire Line
	1150 1900 1500 1900
Wire Wire Line
	1150 2000 1500 2000
Wire Wire Line
	1150 2100 1500 2100
Wire Wire Line
	1150 2800 1500 2800
Wire Wire Line
	1150 3000 1500 3000
Wire Wire Line
	1150 3700 1500 3700
Wire Wire Line
	1150 3800 1500 3800
Wire Wire Line
	1150 3900 1500 3900
Wire Wire Line
	1150 4000 1500 4000
Wire Wire Line
	1150 4100 1500 4100
Wire Wire Line
	1150 4200 1200 4200
Wire Wire Line
	2450 3025 2800 3025
Wire Wire Line
	2450 3425 2800 3425
Wire Wire Line
	2450 1725 2800 1725
Wire Wire Line
	2450 3525 2800 3525
Wire Wire Line
	2450 4225 2525 4225
Wire Wire Line
	2450 1425 2800 1425
Wire Wire Line
	2450 1525 2800 1525
Wire Wire Line
	2450 3925 2800 3925
Wire Wire Line
	2450 4025 2800 4025
Wire Wire Line
	2450 3725 2800 3725
Wire Wire Line
	2450 3625 2800 3625
Wire Wire Line
	2450 4125 2800 4125
Wire Wire Line
	2450 1225 2800 1225
Wire Wire Line
	2450 3825 2800 3825
Wire Wire Line
	2450 1625 2800 1625
Wire Wire Line
	2450 1925 2800 1925
Wire Wire Line
	2450 2425 2800 2425
Wire Wire Line
	2450 1325 2800 1325
Wire Wire Line
	2450 2825 2800 2825
Wire Wire Line
	2450 3225 2800 3225
Wire Wire Line
	2450 1825 2800 1825
Wire Wire Line
	2450 3125 2800 3125
Wire Wire Line
	2450 2025 2800 2025
Wire Wire Line
	2450 2725 2800 2725
$Comp
L my_conn:CONN_DIN41612_32x3 P?
U 1 1 5EFA257C
P 950 2650
AR Path="/5EFDD352/5EFA257C" Ref="P?"  Part="1" 
AR Path="/5EFDE485/5EFA257C" Ref="P?"  Part="1" 
AR Path="/5EFA257C" Ref="P?"  Part="1" 
AR Path="/5F7D831C/5EFA257C" Ref="P?"  Part="1" 
F 0 "P?" H 867 4415 50  0000 C CNN
F 1 "CONN_DIN41612_32x3" H 867 4324 50  0000 C CNN
F 2 "" H 950 2650 50  0000 C CNN
F 3 "" H 950 2650 50  0000 C CNN
	1    950  2650
	-1   0    0    -1  
$EndComp
Text Label 2800 1325 2    50   ~ 0
DB7
$Comp
L my_conn:CONN_DIN41612_32x3 P?
U 3 1 5EFA60F5
P 2250 2675
AR Path="/5EFDD352/5EFA60F5" Ref="P?"  Part="3" 
AR Path="/5EFDE485/5EFA60F5" Ref="P?"  Part="3" 
AR Path="/5EFA60F5" Ref="P?"  Part="3" 
AR Path="/5F7D831C/5EFA60F5" Ref="P?"  Part="3" 
F 0 "P?" H 2167 4440 50  0000 C CNN
F 1 "CONN_DIN41612_32x3" H 2167 4349 50  0000 C CNN
F 2 "" H 2250 2675 50  0000 C CNN
F 3 "" H 2250 2675 50  0000 C CNN
	3    2250 2675
	-1   0    0    -1  
$EndComp
Text Label 2800 1225 2    50   ~ 0
DB0
Text Label 2800 1425 2    50   ~ 0
DB2
Text Label 1500 1300 2    50   ~ 0
DB6
Text Label 2800 2425 2    50   ~ 0
DB1
Text Label 1500 1400 2    50   ~ 0
DB3
Text Label 1500 1500 2    50   ~ 0
DB4
Text Label 1500 1200 2    50   ~ 0
DB5
Wire Wire Line
	2450 1125 2800 1125
$Comp
L power:+5V #PWR?
U 1 1 5EFBB209
P 2800 925
AR Path="/5EFDD352/5EFBB209" Ref="#PWR?"  Part="1" 
AR Path="/5EFDE485/5EFBB209" Ref="#PWR?"  Part="1" 
AR Path="/5EFBB209" Ref="#PWR?"  Part="1" 
AR Path="/5F7D831C/5EFBB209" Ref="#PWR?"  Part="1" 
F 0 "#PWR?" H 2800 775 50  0001 C CNN
F 1 "+5V" H 2800 1075 50  0000 C CNN
F 2 "" H 2800 925 50  0001 C CNN
F 3 "" H 2800 925 50  0001 C CNN
	1    2800 925 
	1    0    0    -1  
$EndComp
Wire Wire Line
	2800 925  2800 1125
$Comp
L power:+5V #PWR?
U 1 1 5EFBC250
P 1500 900
AR Path="/5EFDD352/5EFBC250" Ref="#PWR?"  Part="1" 
AR Path="/5EFDE485/5EFBC250" Ref="#PWR?"  Part="1" 
AR Path="/5EFBC250" Ref="#PWR?"  Part="1" 
AR Path="/5F7D831C/5EFBC250" Ref="#PWR?"  Part="1" 
F 0 "#PWR?" H 1500 750 50  0001 C CNN
F 1 "+5V" H 1515 1073 50  0000 C CNN
F 2 "" H 1500 900 50  0001 C CNN
F 3 "" H 1500 900 50  0001 C CNN
	1    1500 900 
	1    0    0    -1  
$EndComp
Wire Wire Line
	1500 900  1500 1100
$Comp
L power:GND #PWR?
U 1 1 5EFBCA20
P 2525 4275
AR Path="/5EFDD352/5EFBCA20" Ref="#PWR?"  Part="1" 
AR Path="/5EFDE485/5EFBCA20" Ref="#PWR?"  Part="1" 
AR Path="/5EFBCA20" Ref="#PWR?"  Part="1" 
AR Path="/5F7D831C/5EFBCA20" Ref="#PWR?"  Part="1" 
F 0 "#PWR?" H 2525 4025 50  0001 C CNN
F 1 "GND" H 2525 4125 50  0000 C CNN
F 2 "" H 2525 4275 50  0001 C CNN
F 3 "" H 2525 4275 50  0001 C CNN
	1    2525 4275
	1    0    0    -1  
$EndComp
Wire Wire Line
	2525 4275 2525 4225
Wire Wire Line
	1200 4250 1200 4200
$Comp
L power:GND #PWR?
U 1 1 5EFBD4EE
P 1200 4250
AR Path="/5EFDD352/5EFBD4EE" Ref="#PWR?"  Part="1" 
AR Path="/5EFDE485/5EFBD4EE" Ref="#PWR?"  Part="1" 
AR Path="/5EFBD4EE" Ref="#PWR?"  Part="1" 
AR Path="/5F7D831C/5EFBD4EE" Ref="#PWR?"  Part="1" 
F 0 "#PWR?" H 1200 4000 50  0001 C CNN
F 1 "GND" H 1205 4077 50  0000 C CNN
F 2 "" H 1200 4250 50  0001 C CNN
F 3 "" H 1200 4250 50  0001 C CNN
	1    1200 4250
	1    0    0    -1  
$EndComp
Text Label 1500 1800 2    50   ~ 0
AB5
Text Label 2800 1525 2    50   ~ 0
AB0
Text Label 1500 1600 2    50   ~ 0
AB2
Text Label 1500 1700 2    50   ~ 0
AB4
Text Label 2800 1925 2    50   ~ 0
AB7
Text Label 2800 1725 2    50   ~ 0
AB1
Text Label 1500 1900 2    50   ~ 0
AB6
Text Label 2800 1625 2    50   ~ 0
AB3
Text Label 2800 3825 2    50   ~ 0
AB12
Text Label 1500 2800 2    50   ~ 0
AB14
Text Label 2800 2725 2    50   ~ 0
AB11
Text Label 2800 2825 2    50   ~ 0
AB10
Text Label 2800 1825 2    50   ~ 0
AB8
Text Label 2800 3725 2    50   ~ 0
AB15
Text Label 1500 3900 2    50   ~ 0
AB13
Text Label 1500 4000 2    50   ~ 0
AB9
Text Label 1500 2000 2    50   ~ 0
~WAIT
Text Label 1500 2100 2    50   ~ 0
~BUSRQ
Text Label 2800 3225 2    50   ~ 0
~WRb
Text Label 2800 3425 2    50   ~ 0
~RDb
Text Label 1500 3000 2    50   ~ 0
~M1b
Text Label 1500 3800 2    50   ~ 0
~RFSHb
Text Label 2800 4025 2    50   ~ 0
~MREQb
Text Label 1500 3700 2    50   ~ 0
~IORQb
Text Label 1500 4100 2    50   ~ 0
~BUSACKb
Text Label 2800 3925 2    50   ~ 0
~PER_CLK
Text Label 2800 4125 2    50   ~ 0
~RESET
Text Label 2800 3625 2    50   ~ 0
~RESET
NoConn ~ 1150 3500
NoConn ~ 1150 3600
NoConn ~ 1150 3300
NoConn ~ 1150 3400
NoConn ~ 1150 2900
NoConn ~ 1150 3100
NoConn ~ 1150 2400
NoConn ~ 1150 2500
NoConn ~ 1150 2600
NoConn ~ 1150 2700
Wire Wire Line
	2450 2125 2800 2125
Text Notes 2800 2025 0    50   ~ 0
 not conn.
NoConn ~ 2450 2225
NoConn ~ 2450 2325
NoConn ~ 2450 2525
NoConn ~ 2450 2925
Text Label 2800 3025 2    50   ~ 0
~NMI
Text Label 2800 3125 2    50   ~ 0
~INT
NoConn ~ 2450 3325
Text Label 2800 3525 2    50   ~ 0
~HALT
Wire Notes Line
	525  525  3225 525 
Wire Notes Line
	3225 525  3225 4525
Wire Notes Line
	3225 4525 525  4525
Wire Notes Line
	525  4525 525  525 
Text Notes 575  675  0    50   ~ 0
ECB - Bus
Wire Wire Line
	1150 2200 1500 2200
Text Label 1500 2200 2    50   ~ 0
12A
Text Label 2800 2125 2    50   ~ 0
IEI
Text Label 2800 2625 2    50   ~ 0
IEO
Wire Wire Line
	2450 2625 2800 2625
$Comp
L power:+12V #PWR?
U 1 1 5F9B4009
P 1650 2200
F 0 "#PWR?" H 1650 2050 50  0001 C CNN
F 1 "+12V" H 1665 2373 50  0000 C CNN
F 2 "" H 1650 2200 50  0001 C CNN
F 3 "" H 1650 2200 50  0001 C CNN
	1    1650 2200
	1    0    0    -1  
$EndComp
Wire Wire Line
	1650 2200 1650 2300
Wire Wire Line
	1650 2300 1150 2300
$Comp
L power:-12V #PWR?
U 1 1 5F9B53BF
P 1650 3275
F 0 "#PWR?" H 1650 3375 50  0001 C CNN
F 1 "-12V" H 1665 3448 50  0000 C CNN
F 2 "" H 1650 3275 50  0001 C CNN
F 3 "" H 1650 3275 50  0001 C CNN
	1    1650 3275
	-1   0    0    1   
$EndComp
Wire Wire Line
	1650 3275 1650 3200
Wire Wire Line
	1650 3200 1150 3200
$Comp
L 74xx:74LS245 U5
U 1 1 5F7E38D9
P 9100 1775
F 0 "U5" H 8750 2500 50  0000 C CNN
F 1 "74LS245" H 8850 2425 50  0000 C CNN
F 2 "" H 9100 1775 50  0001 C CNN
F 3 "http://www.ti.com/lit/gpn/sn74LS245" H 9100 1775 50  0001 C CNN
	1    9100 1775
	1    0    0    -1  
$EndComp
$Comp
L power:+5V #PWR?
U 1 1 5F7E5064
P 9100 975
AR Path="/5EFDD352/5F7E5064" Ref="#PWR?"  Part="1" 
AR Path="/5EFDE485/5F7E5064" Ref="#PWR?"  Part="1" 
AR Path="/5F7E5064" Ref="#PWR?"  Part="1" 
AR Path="/5F7D831C/5F7E5064" Ref="#PWR?"  Part="1" 
F 0 "#PWR?" H 9100 825 50  0001 C CNN
F 1 "+5V" H 9100 1125 50  0000 C CNN
F 2 "" H 9100 975 50  0001 C CNN
F 3 "" H 9100 975 50  0001 C CNN
	1    9100 975 
	1    0    0    -1  
$EndComp
$Comp
L power:GND #PWR?
U 1 1 5F7E5475
P 9100 2575
AR Path="/5EFDD352/5F7E5475" Ref="#PWR?"  Part="1" 
AR Path="/5EFDE485/5F7E5475" Ref="#PWR?"  Part="1" 
AR Path="/5F7E5475" Ref="#PWR?"  Part="1" 
AR Path="/5F7D831C/5F7E5475" Ref="#PWR?"  Part="1" 
F 0 "#PWR?" H 9100 2325 50  0001 C CNN
F 1 "GND" H 9100 2425 50  0000 C CNN
F 2 "" H 9100 2575 50  0001 C CNN
F 3 "" H 9100 2575 50  0001 C CNN
	1    9100 2575
	1    0    0    -1  
$EndComp
Wire Wire Line
	9600 1275 9625 1275
Wire Wire Line
	9600 1375 9725 1375
Wire Wire Line
	9600 1475 9825 1475
Wire Wire Line
	9600 1575 9925 1575
Wire Wire Line
	9600 1675 10025 1675
Wire Wire Line
	9600 1775 10125 1775
Wire Wire Line
	9600 1875 10225 1875
Wire Wire Line
	9600 1975 10325 1975
Wire Wire Line
	8375 1275 8600 1275
Wire Wire Line
	8375 1375 8600 1375
Wire Wire Line
	8375 1975 8600 1975
Wire Wire Line
	8375 1875 8600 1875
Wire Wire Line
	8375 1475 8600 1475
Wire Wire Line
	8375 1775 8600 1775
Wire Wire Line
	8375 1675 8600 1675
Wire Wire Line
	8375 1575 8600 1575
Text Label 8375 1275 0    50   ~ 0
DB0
Text Label 8375 1375 0    50   ~ 0
DB1
Text Label 8375 1475 0    50   ~ 0
DB2
Text Label 8375 1575 0    50   ~ 0
DB3
Text Label 8375 1675 0    50   ~ 0
DB4
Text Label 8375 1775 0    50   ~ 0
DB5
Text Label 8375 1875 0    50   ~ 0
DB6
Text Label 8375 1975 0    50   ~ 0
DB7
$Comp
L power:+5V #PWR?
U 1 1 5F7E5BD0
P 8775 4475
AR Path="/5EFDD352/5F7E5BD0" Ref="#PWR?"  Part="1" 
AR Path="/5EFDE485/5F7E5BD0" Ref="#PWR?"  Part="1" 
AR Path="/5F7E5BD0" Ref="#PWR?"  Part="1" 
AR Path="/5F7D831C/5F7E5BD0" Ref="#PWR?"  Part="1" 
F 0 "#PWR?" H 8775 4325 50  0001 C CNN
F 1 "+5V" H 8775 4625 50  0000 C CNN
F 2 "" H 8775 4475 50  0001 C CNN
F 3 "" H 8775 4475 50  0001 C CNN
	1    8775 4475
	1    0    0    -1  
$EndComp
Text Label 8050 5075 0    50   ~ 0
DB3
Wire Wire Line
	9275 4775 9500 4775
Wire Wire Line
	9275 4875 9500 4875
Text Label 8050 4775 0    50   ~ 0
DB0
Wire Wire Line
	9275 5475 9500 5475
Text Label 8050 5175 0    50   ~ 0
DB4
Text Label 8050 5475 0    50   ~ 0
DB7
Text Label 8050 5375 0    50   ~ 0
DB6
$Comp
L power:GND #PWR?
U 1 1 5F7E5BE5
P 8775 6075
AR Path="/5EFDD352/5F7E5BE5" Ref="#PWR?"  Part="1" 
AR Path="/5EFDE485/5F7E5BE5" Ref="#PWR?"  Part="1" 
AR Path="/5F7E5BE5" Ref="#PWR?"  Part="1" 
AR Path="/5F7D831C/5F7E5BE5" Ref="#PWR?"  Part="1" 
F 0 "#PWR?" H 8775 5825 50  0001 C CNN
F 1 "GND" H 8775 5925 50  0000 C CNN
F 2 "" H 8775 6075 50  0001 C CNN
F 3 "" H 8775 6075 50  0001 C CNN
	1    8775 6075
	1    0    0    -1  
$EndComp
Text Label 8050 4875 0    50   ~ 0
DB1
Wire Wire Line
	9275 5375 9500 5375
Wire Wire Line
	9275 4975 9500 4975
Wire Wire Line
	8050 4975 8275 4975
Wire Wire Line
	8050 5375 8275 5375
Text Label 8050 4975 0    50   ~ 0
DB2
Wire Wire Line
	8050 4875 8275 4875
Text Label 8050 5275 0    50   ~ 0
DB5
Wire Wire Line
	8050 5475 8275 5475
Wire Wire Line
	8050 5275 8275 5275
Wire Wire Line
	8050 5175 8275 5175
$Comp
L 74xx:74LS245 U6
U 1 1 5F7E5C10
P 8775 5275
F 0 "U6" H 8425 6000 50  0000 C CNN
F 1 "74LS245" H 8525 5925 50  0000 C CNN
F 2 "" H 8775 5275 50  0001 C CNN
F 3 "http://www.ti.com/lit/gpn/sn74LS245" H 8775 5275 50  0001 C CNN
	1    8775 5275
	1    0    0    -1  
$EndComp
Wire Wire Line
	9275 5275 9500 5275
Wire Wire Line
	8050 4775 8275 4775
Wire Wire Line
	9275 5175 9500 5175
Wire Wire Line
	8050 5075 8275 5075
Wire Wire Line
	9275 5075 9500 5075
Wire Wire Line
	8600 2175 8575 2175
Wire Wire Line
	8575 2175 8575 2275
Wire Wire Line
	8575 2275 8600 2275
Connection ~ 8575 2275
$Comp
L Connector_Generic:Conn_02x08_Counter_Clockwise S1
U 1 1 5F7E786E
P 10625 1575
F 0 "S1" H 10675 2092 50  0000 C CNN
F 1 "Interrupt" H 10675 2001 50  0000 C CNN
F 2 "" H 10625 1575 50  0001 C CNN
F 3 "~" H 10625 1575 50  0001 C CNN
	1    10625 1575
	1    0    0    -1  
$EndComp
Wire Wire Line
	10925 1275 10975 1275
Wire Wire Line
	10975 1275 10975 1375
$Comp
L power:GND #PWR?
U 1 1 5F7E8737
P 10975 2050
AR Path="/5EFDD352/5F7E8737" Ref="#PWR?"  Part="1" 
AR Path="/5EFDE485/5F7E8737" Ref="#PWR?"  Part="1" 
AR Path="/5F7E8737" Ref="#PWR?"  Part="1" 
AR Path="/5F7D831C/5F7E8737" Ref="#PWR?"  Part="1" 
F 0 "#PWR?" H 10975 1800 50  0001 C CNN
F 1 "GND" H 10975 1900 50  0000 C CNN
F 2 "" H 10975 2050 50  0001 C CNN
F 3 "" H 10975 2050 50  0001 C CNN
	1    10975 2050
	1    0    0    -1  
$EndComp
Wire Wire Line
	10925 1375 10975 1375
Connection ~ 10975 1375
Wire Wire Line
	10975 1375 10975 1475
Wire Wire Line
	10925 1475 10975 1475
Connection ~ 10975 1475
Wire Wire Line
	10975 1475 10975 1575
Wire Wire Line
	10925 1575 10975 1575
Connection ~ 10975 1575
Wire Wire Line
	10975 1575 10975 1675
Wire Wire Line
	10925 1675 10975 1675
Connection ~ 10975 1675
Wire Wire Line
	10975 1675 10975 1775
Wire Wire Line
	10925 1775 10975 1775
Connection ~ 10975 1775
Wire Wire Line
	10975 1775 10975 1875
Wire Wire Line
	10925 1875 10975 1875
Connection ~ 10975 1875
Wire Wire Line
	10975 1875 10975 1975
Wire Wire Line
	10925 1975 10975 1975
Connection ~ 10975 1975
Wire Wire Line
	10975 1975 10975 2050
$Comp
L Device:R_Network08 RN?
U 1 1 5F7EBA5D
P 10025 975
F 0 "RN?" H 10413 1021 50  0000 L CNN
F 1 "10k" H 10413 930 50  0000 L CNN
F 2 "Resistor_THT:R_Array_SIP9" V 10500 975 50  0001 C CNN
F 3 "http://www.vishay.com/docs/31509/csc.pdf" H 10025 975 50  0001 C CNN
	1    10025 975 
	1    0    0    -1  
$EndComp
Wire Wire Line
	10325 1175 10325 1975
Connection ~ 10325 1975
Wire Wire Line
	10325 1975 10425 1975
Wire Wire Line
	10225 1175 10225 1875
Connection ~ 10225 1875
Wire Wire Line
	10225 1875 10425 1875
Wire Wire Line
	10125 1175 10125 1775
Connection ~ 10125 1775
Wire Wire Line
	10125 1775 10425 1775
Wire Wire Line
	10025 1175 10025 1675
Connection ~ 10025 1675
Wire Wire Line
	10025 1675 10425 1675
Wire Wire Line
	9925 1175 9925 1575
Connection ~ 9925 1575
Wire Wire Line
	9925 1575 10425 1575
Wire Wire Line
	9825 1175 9825 1475
Connection ~ 9825 1475
Wire Wire Line
	9825 1475 10425 1475
Wire Wire Line
	9725 1175 9725 1375
Connection ~ 9725 1375
Wire Wire Line
	9725 1375 10425 1375
Wire Wire Line
	9625 1175 9625 1275
Connection ~ 9625 1275
Wire Wire Line
	9625 1275 10425 1275
$Comp
L power:+5V #PWR?
U 1 1 5F7ED37F
P 9625 775
AR Path="/5EFDD352/5F7ED37F" Ref="#PWR?"  Part="1" 
AR Path="/5EFDE485/5F7ED37F" Ref="#PWR?"  Part="1" 
AR Path="/5F7ED37F" Ref="#PWR?"  Part="1" 
AR Path="/5F7D831C/5F7ED37F" Ref="#PWR?"  Part="1" 
F 0 "#PWR?" H 9625 625 50  0001 C CNN
F 1 "+5V" H 9625 925 50  0000 C CNN
F 2 "" H 9625 775 50  0001 C CNN
F 3 "" H 9625 775 50  0001 C CNN
	1    9625 775 
	1    0    0    -1  
$EndComp
Text Label 9500 4775 2    50   ~ 0
D0
Text Label 9500 4875 2    50   ~ 0
D1
Text Label 9500 4975 2    50   ~ 0
D2
Text Label 9500 5075 2    50   ~ 0
D3
Text Label 9500 5175 2    50   ~ 0
D4
Text Label 9500 5275 2    50   ~ 0
D5
Text Label 9500 5375 2    50   ~ 0
D6
Text Label 9500 5475 2    50   ~ 0
D7
Text Label 4025 1025 2    50   ~ 0
D4
Text Label 4025 925  2    50   ~ 0
D3
Wire Wire Line
	3800 925  4025 925 
Text Label 4025 625  2    50   ~ 0
D0
Wire Wire Line
	3800 1225 4025 1225
Wire Wire Line
	3800 825  4025 825 
Text Label 4025 1325 2    50   ~ 0
D7
Text Label 4025 725  2    50   ~ 0
D1
Wire Wire Line
	3800 625  4025 625 
Wire Wire Line
	3800 1025 4025 1025
Wire Wire Line
	3800 725  4025 725 
Text Label 4025 1225 2    50   ~ 0
D6
Wire Wire Line
	3800 1325 4025 1325
Wire Wire Line
	3800 1125 4025 1125
Text Label 4025 825  2    50   ~ 0
D2
Text Label 4025 1125 2    50   ~ 0
D5
Text HLabel 3800 625  0    50   BiDi ~ 0
D0
Text HLabel 3800 725  0    50   BiDi ~ 0
D1
Text HLabel 3800 825  0    50   BiDi ~ 0
D2
Text HLabel 3800 925  0    50   BiDi ~ 0
D3
Text HLabel 3800 1025 0    50   BiDi ~ 0
D4
Text HLabel 3800 1125 0    50   BiDi ~ 0
D5
Text HLabel 3800 1225 0    50   BiDi ~ 0
D6
Text HLabel 3800 1325 0    50   BiDi ~ 0
D7
Text HLabel 3900 1450 0    50   Input ~ 0
~RESET
Wire Wire Line
	3900 1450 4275 1450
Text Label 4275 1450 2    50   ~ 0
~RESET
$Comp
L 74xx:74LS85 U2
U 1 1 5F882F4E
P 2875 6175
F 0 "U2" H 2600 6825 50  0000 C CNN
F 1 "74LS85" H 2600 6750 50  0000 C CNN
F 2 "" H 2875 6175 50  0001 C CNN
F 3 "http://www.ti.com/lit/gpn/sn74LS85" H 2875 6175 50  0001 C CNN
	1    2875 6175
	1    0    0    -1  
$EndComp
$Comp
L power:+5V #PWR?
U 1 1 5F8844C1
P 2875 5475
AR Path="/5EFDD352/5F8844C1" Ref="#PWR?"  Part="1" 
AR Path="/5EFDE485/5F8844C1" Ref="#PWR?"  Part="1" 
AR Path="/5F8844C1" Ref="#PWR?"  Part="1" 
AR Path="/5F7D831C/5F8844C1" Ref="#PWR?"  Part="1" 
F 0 "#PWR?" H 2875 5325 50  0001 C CNN
F 1 "+5V" H 2875 5625 50  0000 C CNN
F 2 "" H 2875 5475 50  0001 C CNN
F 3 "" H 2875 5475 50  0001 C CNN
	1    2875 5475
	1    0    0    -1  
$EndComp
$Comp
L power:GND #PWR?
U 1 1 5F88484C
P 2875 6875
AR Path="/5EFDD352/5F88484C" Ref="#PWR?"  Part="1" 
AR Path="/5EFDE485/5F88484C" Ref="#PWR?"  Part="1" 
AR Path="/5F88484C" Ref="#PWR?"  Part="1" 
AR Path="/5F7D831C/5F88484C" Ref="#PWR?"  Part="1" 
F 0 "#PWR?" H 2875 6625 50  0001 C CNN
F 1 "GND" H 2875 6725 50  0000 C CNN
F 2 "" H 2875 6875 50  0001 C CNN
F 3 "" H 2875 6875 50  0001 C CNN
	1    2875 6875
	1    0    0    -1  
$EndComp
Wire Wire Line
	3450 5975 3400 5975
Wire Wire Line
	3400 5775 3400 5875
Wire Wire Line
	3400 5775 3375 5775
Connection ~ 3400 5975
Wire Wire Line
	3400 5975 3375 5975
Wire Wire Line
	3375 5875 3400 5875
Connection ~ 3400 5875
Wire Wire Line
	3400 5875 3400 5975
Wire Wire Line
	5450 6300 5425 6300
$Comp
L power:+5V #PWR?
U 1 1 5F885A0D
P 5950 5500
AR Path="/5EFDD352/5F885A0D" Ref="#PWR?"  Part="1" 
AR Path="/5EFDE485/5F885A0D" Ref="#PWR?"  Part="1" 
AR Path="/5F885A0D" Ref="#PWR?"  Part="1" 
AR Path="/5F7D831C/5F885A0D" Ref="#PWR?"  Part="1" 
F 0 "#PWR?" H 5950 5350 50  0001 C CNN
F 1 "+5V" H 5950 5650 50  0000 C CNN
F 2 "" H 5950 5500 50  0001 C CNN
F 3 "" H 5950 5500 50  0001 C CNN
	1    5950 5500
	1    0    0    -1  
$EndComp
Wire Wire Line
	5450 5800 5425 5800
Wire Wire Line
	5450 6100 5425 6100
$Comp
L power:GND #PWR?
U 1 1 5F885A1D
P 5950 6900
AR Path="/5EFDD352/5F885A1D" Ref="#PWR?"  Part="1" 
AR Path="/5EFDE485/5F885A1D" Ref="#PWR?"  Part="1" 
AR Path="/5F885A1D" Ref="#PWR?"  Part="1" 
AR Path="/5F7D831C/5F885A1D" Ref="#PWR?"  Part="1" 
F 0 "#PWR?" H 5950 6650 50  0001 C CNN
F 1 "GND" H 5950 6750 50  0000 C CNN
F 2 "" H 5950 6900 50  0001 C CNN
F 3 "" H 5950 6900 50  0001 C CNN
	1    5950 6900
	1    0    0    -1  
$EndComp
Wire Wire Line
	6450 5900 6475 5900
Wire Wire Line
	5450 6500 5175 6500
Wire Wire Line
	5450 6400 5175 6400
Wire Wire Line
	5450 6600 5425 6600
Connection ~ 6475 4100
Wire Wire Line
	6475 4100 6475 4200
Wire Wire Line
	5450 4500 5175 4500
$Comp
L power:+5V #PWR?
U 1 1 5F8869A7
P 5950 3700
AR Path="/5EFDD352/5F8869A7" Ref="#PWR?"  Part="1" 
AR Path="/5EFDE485/5F8869A7" Ref="#PWR?"  Part="1" 
AR Path="/5F8869A7" Ref="#PWR?"  Part="1" 
AR Path="/5F7D831C/5F8869A7" Ref="#PWR?"  Part="1" 
F 0 "#PWR?" H 5950 3550 50  0001 C CNN
F 1 "+5V" H 5950 3850 50  0000 C CNN
F 2 "" H 5950 3700 50  0001 C CNN
F 3 "" H 5950 3700 50  0001 C CNN
	1    5950 3700
	1    0    0    -1  
$EndComp
Wire Wire Line
	5450 4000 5175 4000
Wire Wire Line
	6475 4200 6450 4200
$Comp
L power:GND #PWR?
U 1 1 5F8869B7
P 5950 5100
AR Path="/5EFDD352/5F8869B7" Ref="#PWR?"  Part="1" 
AR Path="/5EFDE485/5F8869B7" Ref="#PWR?"  Part="1" 
AR Path="/5F8869B7" Ref="#PWR?"  Part="1" 
AR Path="/5F7D831C/5F8869B7" Ref="#PWR?"  Part="1" 
F 0 "#PWR?" H 5950 4850 50  0001 C CNN
F 1 "GND" H 5950 4950 50  0000 C CNN
F 2 "" H 5950 5100 50  0001 C CNN
F 3 "" H 5950 5100 50  0001 C CNN
	1    5950 5100
	1    0    0    -1  
$EndComp
Wire Wire Line
	6450 4100 6475 4100
Connection ~ 6475 4200
Wire Wire Line
	6750 4800 6700 4800
Wire Wire Line
	6475 4000 6450 4000
Wire Wire Line
	5450 4700 5175 4700
Wire Wire Line
	6475 4000 6475 4100
Wire Wire Line
	5450 4600 5175 4600
Wire Wire Line
	5450 4800 5175 4800
$Comp
L 74xx:74LS85 U4
U 1 1 5F8869DF
P 5950 4400
F 0 "U4" H 5675 5050 50  0000 C CNN
F 1 "74LS85" H 5675 4975 50  0000 C CNN
F 2 "" H 5950 4400 50  0001 C CNN
F 3 "http://www.ti.com/lit/gpn/sn74LS85" H 5950 4400 50  0001 C CNN
	1    5950 4400
	1    0    0    -1  
$EndComp
Wire Wire Line
	5425 5800 5425 6100
$Comp
L power:GND #PWR?
U 1 1 5F888470
P 5425 6675
AR Path="/5EFDD352/5F888470" Ref="#PWR?"  Part="1" 
AR Path="/5EFDE485/5F888470" Ref="#PWR?"  Part="1" 
AR Path="/5F888470" Ref="#PWR?"  Part="1" 
AR Path="/5F7D831C/5F888470" Ref="#PWR?"  Part="1" 
F 0 "#PWR?" H 5425 6425 50  0001 C CNN
F 1 "GND" H 5425 6525 50  0000 C CNN
F 2 "" H 5425 6675 50  0001 C CNN
F 3 "" H 5425 6675 50  0001 C CNN
	1    5425 6675
	1    0    0    -1  
$EndComp
Wire Wire Line
	6450 6000 6550 6000
Wire Wire Line
	6475 5900 6475 6025
$Comp
L power:GND #PWR?
U 1 1 5F8888A6
P 6475 6025
AR Path="/5EFDD352/5F8888A6" Ref="#PWR?"  Part="1" 
AR Path="/5EFDE485/5F8888A6" Ref="#PWR?"  Part="1" 
AR Path="/5F8888A6" Ref="#PWR?"  Part="1" 
AR Path="/5F7D831C/5F8888A6" Ref="#PWR?"  Part="1" 
F 0 "#PWR?" H 6475 5775 50  0001 C CNN
F 1 "GND" H 6475 5875 50  0000 C CNN
F 2 "" H 6475 6025 50  0001 C CNN
F 3 "" H 6475 6025 50  0001 C CNN
	1    6475 6025
	1    0    0    -1  
$EndComp
$Comp
L Device:R_Small R?
U 1 1 5F889608
P 3400 5650
F 0 "R?" H 3459 5696 50  0000 L CNN
F 1 "1k" H 3459 5605 50  0000 L CNN
F 2 "" H 3400 5650 50  0001 C CNN
F 3 "~" H 3400 5650 50  0001 C CNN
	1    3400 5650
	1    0    0    -1  
$EndComp
$Comp
L power:+5V #PWR?
U 1 1 5F889AFE
P 3400 5550
AR Path="/5EFDD352/5F889AFE" Ref="#PWR?"  Part="1" 
AR Path="/5EFDE485/5F889AFE" Ref="#PWR?"  Part="1" 
AR Path="/5F889AFE" Ref="#PWR?"  Part="1" 
AR Path="/5F7D831C/5F889AFE" Ref="#PWR?"  Part="1" 
F 0 "#PWR?" H 3400 5400 50  0001 C CNN
F 1 "+5V" H 3400 5700 50  0000 C CNN
F 2 "" H 3400 5550 50  0001 C CNN
F 3 "" H 3400 5550 50  0001 C CNN
	1    3400 5550
	1    0    0    -1  
$EndComp
Wire Wire Line
	3400 5750 3400 5775
Connection ~ 3400 5775
$Comp
L 74xx:74LS03 U7
U 1 1 5F889F63
P 3750 5975
F 0 "U7" H 3750 5975 50  0000 C CNN
F 1 "74LS03" H 3750 6209 50  0000 C CNN
F 2 "" H 3750 5975 50  0001 C CNN
F 3 "http://www.ti.com/lit/gpn/sn74LS03" H 3750 5975 50  0001 C CNN
	1    3750 5975
	-1   0    0    -1  
$EndComp
$Comp
L 74xx:74LS03 U7
U 2 1 5F88D656
P 9500 2925
F 0 "U7" H 9475 2925 50  0000 C CNN
F 1 "74LS03" H 9725 3100 50  0000 C CNN
F 2 "" H 9500 2925 50  0001 C CNN
F 3 "http://www.ti.com/lit/gpn/sn74LS03" H 9500 2925 50  0001 C CNN
	2    9500 2925
	1    0    0    -1  
$EndComp
$Comp
L 74xx:74LS03 U7
U 3 1 5F88D939
P 6325 1125
F 0 "U7" H 6300 1125 50  0000 C CNN
F 1 "74LS03" H 6600 1250 50  0000 C CNN
F 2 "" H 6325 1125 50  0001 C CNN
F 3 "http://www.ti.com/lit/gpn/sn74LS03" H 6325 1125 50  0001 C CNN
	3    6325 1125
	1    0    0    -1  
$EndComp
$Comp
L 74xx:74LS03 U7
U 4 1 5F88E34A
P 6200 3125
F 0 "U7" H 6175 3125 50  0000 C CNN
F 1 "74LS03" H 6225 3325 50  0000 C CNN
F 2 "" H 6200 3125 50  0001 C CNN
F 3 "http://www.ti.com/lit/gpn/sn74LS03" H 6200 3125 50  0001 C CNN
	4    6200 3125
	1    0    0    -1  
$EndComp
Text Label 4350 6075 2    50   ~ 0
~IORQb
Wire Wire Line
	4350 6075 4075 6075
Wire Wire Line
	4075 6075 4075 5875
Wire Wire Line
	4075 5875 4050 5875
Connection ~ 4075 6075
Wire Wire Line
	4075 6075 4050 6075
NoConn ~ 3375 6375
NoConn ~ 3375 6475
Wire Wire Line
	4400 6575 4400 5300
Wire Wire Line
	4400 5300 6550 5300
Wire Wire Line
	6550 5300 6550 6000
Wire Wire Line
	3375 6575 4400 6575
Wire Wire Line
	6550 5300 6550 4200
Connection ~ 6550 5300
Wire Wire Line
	6550 4200 6475 4200
$Comp
L Device:R_Network08 RN?
U 1 1 5F8A1A0E
P 1700 5450
F 0 "RN?" H 1675 5700 50  0000 L CNN
F 1 "10k" H 1675 5625 50  0000 L CNN
F 2 "Resistor_THT:R_Array_SIP9" V 2175 5450 50  0001 C CNN
F 3 "http://www.vishay.com/docs/31509/csc.pdf" H 1700 5450 50  0001 C CNN
	1    1700 5450
	1    0    0    -1  
$EndComp
Wire Wire Line
	1300 5675 1150 5675
Text Label 2200 6475 0    50   ~ 0
AB5
Wire Wire Line
	725  6275 725  6375
Wire Wire Line
	1700 6375 2150 6375
Wire Wire Line
	1300 5650 1300 5675
Wire Wire Line
	775  6275 725  6275
Wire Wire Line
	1275 6275 1600 6275
Wire Wire Line
	725  6375 725  6450
$Comp
L power:GND #PWR?
U 1 1 5F8A0A35
P 725 6450
AR Path="/5EFDD352/5F8A0A35" Ref="#PWR?"  Part="1" 
AR Path="/5EFDE485/5F8A0A35" Ref="#PWR?"  Part="1" 
AR Path="/5F8A0A35" Ref="#PWR?"  Part="1" 
AR Path="/5F7D831C/5F8A0A35" Ref="#PWR?"  Part="1" 
F 0 "#PWR?" H 725 6200 50  0001 C CNN
F 1 "GND" H 725 6300 50  0000 C CNN
F 2 "" H 725 6450 50  0001 C CNN
F 3 "" H 725 6450 50  0001 C CNN
	1    725  6450
	1    0    0    -1  
$EndComp
Wire Wire Line
	775  6375 725  6375
Wire Wire Line
	1300 5250 1300 5200
Wire Wire Line
	1275 6375 1700 6375
Wire Wire Line
	2150 6275 2375 6275
Wire Wire Line
	1700 6375 1700 5650
Wire Wire Line
	1500 6175 1500 5975
Text Label 2200 6375 0    50   ~ 0
AB6
NoConn ~ 1800 5650
Wire Wire Line
	2375 6575 2200 6575
Connection ~ 1400 6075
Wire Wire Line
	1600 6275 1600 5650
Text Label 1550 5200 2    50   ~ 0
~RESET
$Comp
L Connector_Generic:Conn_02x04_Counter_Clockwise J?
U 1 1 5F89FE0F
P 1075 6175
F 0 "J?" H 1125 6492 50  0000 C CNN
F 1 "Address" H 1125 6401 50  0000 C CNN
F 2 "" H 1075 6175 50  0001 C CNN
F 3 "~" H 1075 6175 50  0001 C CNN
	1    1075 6175
	-1   0    0    -1  
$EndComp
Wire Wire Line
	775  6075 725  6075
Wire Wire Line
	2375 6375 2200 6375
Wire Wire Line
	1150 5675 1150 5525
Text Label 2200 5775 0    50   ~ 0
AB7
Wire Wire Line
	2375 6475 2200 6475
Connection ~ 725  6175
Connection ~ 725  6375
Wire Wire Line
	775  6175 725  6175
Wire Wire Line
	1600 6275 2100 6275
Wire Wire Line
	2100 6275 2100 5875
Connection ~ 725  6275
Wire Wire Line
	725  6075 725  6175
Wire Wire Line
	725  6175 725  6275
Connection ~ 1600 6275
Connection ~ 1700 6375
Wire Wire Line
	2375 5775 2200 5775
$Comp
L power:+5V #PWR?
U 1 1 5F8A2D2D
P 1150 5525
AR Path="/5EFDD352/5F8A2D2D" Ref="#PWR?"  Part="1" 
AR Path="/5EFDE485/5F8A2D2D" Ref="#PWR?"  Part="1" 
AR Path="/5F8A2D2D" Ref="#PWR?"  Part="1" 
AR Path="/5F7D831C/5F8A2D2D" Ref="#PWR?"  Part="1" 
F 0 "#PWR?" H 1150 5375 50  0001 C CNN
F 1 "+5V" H 1150 5675 50  0000 C CNN
F 2 "" H 1150 5525 50  0001 C CNN
F 3 "" H 1150 5525 50  0001 C CNN
	1    1150 5525
	1    0    0    -1  
$EndComp
Wire Wire Line
	1275 6175 1500 6175
Wire Wire Line
	1275 6075 1400 6075
Wire Wire Line
	1300 5200 1550 5200
Wire Wire Line
	2150 6375 2150 6275
Wire Wire Line
	1400 6075 1400 5650
Wire Wire Line
	2100 5875 2375 5875
Text Label 2200 6575 0    50   ~ 0
AB4
Wire Wire Line
	1400 6075 2375 6075
Wire Wire Line
	1900 5650 1900 5925
Text Label 1900 5925 1    50   ~ 0
PLUP1
Text Label 2000 5925 1    50   ~ 0
PLUP2
Wire Wire Line
	2000 5650 2000 5925
$Comp
L Connector_Generic:Conn_02x02_Counter_Clockwise J?
U 1 1 5F8BB09F
P 4850 6000
F 0 "J?" H 4900 6217 50  0000 C CNN
F 1 "Address" H 4900 6126 50  0000 C CNN
F 2 "" H 4850 6000 50  0001 C CNN
F 3 "~" H 4850 6000 50  0001 C CNN
	1    4850 6000
	-1   0    0    -1  
$EndComp
$Comp
L power:GND #PWR?
U 1 1 5F8BB5AE
P 4500 6175
AR Path="/5EFDD352/5F8BB5AE" Ref="#PWR?"  Part="1" 
AR Path="/5EFDE485/5F8BB5AE" Ref="#PWR?"  Part="1" 
AR Path="/5F8BB5AE" Ref="#PWR?"  Part="1" 
AR Path="/5F7D831C/5F8BB5AE" Ref="#PWR?"  Part="1" 
F 0 "#PWR?" H 4500 5925 50  0001 C CNN
F 1 "GND" H 4500 6025 50  0000 C CNN
F 2 "" H 4500 6175 50  0001 C CNN
F 3 "" H 4500 6175 50  0001 C CNN
	1    4500 6175
	1    0    0    -1  
$EndComp
Wire Wire Line
	4500 6175 4500 6100
Wire Wire Line
	4500 6000 4550 6000
Wire Wire Line
	4550 6100 4500 6100
Connection ~ 4500 6100
Wire Wire Line
	4500 6100 4500 6000
Text Label 5125 5500 3    50   ~ 0
PLUP1
Text Label 5225 5500 3    50   ~ 0
PLUP2
Wire Wire Line
	5125 6000 5050 6000
Wire Wire Line
	5125 5500 5125 6000
Wire Wire Line
	5225 5500 5225 5900
Wire Wire Line
	5050 6100 5225 6100
Wire Wire Line
	5125 6000 5450 6000
Connection ~ 5125 6000
Connection ~ 5225 5900
Wire Wire Line
	5225 5900 5225 6100
Wire Wire Line
	5225 5900 5450 5900
Connection ~ 5425 6600
Wire Wire Line
	5425 6600 5425 6675
Connection ~ 5425 6100
Wire Wire Line
	5425 6100 5425 6300
$Comp
L 74xx:74LS85 U3
U 1 1 5F885A45
P 5950 6200
F 0 "U3" H 5675 6850 50  0000 C CNN
F 1 "74LS85" H 5675 6775 50  0000 C CNN
F 2 "" H 5950 6200 50  0001 C CNN
F 3 "http://www.ti.com/lit/gpn/sn74LS85" H 5950 6200 50  0001 C CNN
	1    5950 6200
	1    0    0    -1  
$EndComp
NoConn ~ 6450 5800
NoConn ~ 6450 6400
NoConn ~ 6450 6500
Connection ~ 5425 6300
Wire Wire Line
	5425 6300 5425 6600
Text Label 5175 6500 0    50   ~ 0
AB2
Text Label 5175 6400 0    50   ~ 0
AB3
Wire Wire Line
	1075 6075 975  6075
Wire Wire Line
	4850 6000 4750 6000
Wire Wire Line
	1075 6175 975  6175
Wire Wire Line
	1075 6375 975  6375
Wire Wire Line
	4850 6100 4750 6100
Text Label 5175 4800 0    50   ~ 0
AB0
Text Label 5175 4000 0    50   ~ 0
AB1
Text Label 5175 4700 0    50   ~ 0
AB2
Text Label 5175 4600 0    50   ~ 0
AB3
Wire Wire Line
	4775 4300 4775 3875
Wire Wire Line
	4650 4300 4775 4300
Wire Wire Line
	4650 4400 4875 4400
$Comp
L power:+5V #PWR?
U 1 1 5F8C7609
P 4775 3475
AR Path="/5EFDD352/5F8C7609" Ref="#PWR?"  Part="1" 
AR Path="/5EFDE485/5F8C7609" Ref="#PWR?"  Part="1" 
AR Path="/5F8C7609" Ref="#PWR?"  Part="1" 
AR Path="/5F7D831C/5F8C7609" Ref="#PWR?"  Part="1" 
F 0 "#PWR?" H 4775 3325 50  0001 C CNN
F 1 "+5V" H 4775 3625 50  0000 C CNN
F 2 "" H 4775 3475 50  0001 C CNN
F 3 "" H 4775 3475 50  0001 C CNN
	1    4775 3475
	1    0    0    -1  
$EndComp
Wire Wire Line
	4450 4600 4350 4600
Wire Wire Line
	4100 4400 4100 4500
Wire Wire Line
	4450 4300 4350 4300
Wire Wire Line
	4100 4300 4100 4400
Connection ~ 4100 4500
Wire Wire Line
	4150 4400 4100 4400
Connection ~ 4100 4600
Connection ~ 4100 4400
Wire Wire Line
	4150 4300 4100 4300
$Comp
L Connector_Generic:Conn_02x04_Counter_Clockwise J?
U 1 1 5F8C762D
P 4450 4400
F 0 "J?" H 4500 4717 50  0000 C CNN
F 1 "Address" H 4500 4626 50  0000 C CNN
F 2 "" H 4450 4400 50  0001 C CNN
F 3 "~" H 4450 4400 50  0001 C CNN
	1    4450 4400
	-1   0    0    -1  
$EndComp
Wire Wire Line
	4450 4400 4350 4400
Wire Wire Line
	4975 4500 4975 4200
Wire Wire Line
	4875 4400 4875 3875
Wire Wire Line
	5075 4600 5075 4100
Wire Wire Line
	4650 4600 5075 4600
Wire Wire Line
	4150 4600 4100 4600
$Comp
L power:GND #PWR?
U 1 1 5F8C7645
P 4100 4675
AR Path="/5EFDD352/5F8C7645" Ref="#PWR?"  Part="1" 
AR Path="/5EFDE485/5F8C7645" Ref="#PWR?"  Part="1" 
AR Path="/5F8C7645" Ref="#PWR?"  Part="1" 
AR Path="/5F7D831C/5F8C7645" Ref="#PWR?"  Part="1" 
F 0 "#PWR?" H 4100 4425 50  0001 C CNN
F 1 "GND" H 4100 4525 50  0000 C CNN
F 2 "" H 4100 4675 50  0001 C CNN
F 3 "" H 4100 4675 50  0001 C CNN
	1    4100 4675
	1    0    0    -1  
$EndComp
Wire Wire Line
	4100 4600 4100 4675
Wire Wire Line
	4650 4500 4975 4500
Wire Wire Line
	4150 4500 4100 4500
Wire Wire Line
	4100 4500 4100 4600
$Comp
L Device:R_Network04 RN?
U 1 1 5F8CA6BD
P 4975 3675
F 0 "RN?" H 4925 3925 50  0000 L CNN
F 1 "10k" H 4925 3850 50  0000 L CNN
F 2 "Resistor_THT:R_Array_SIP5" V 5250 3675 50  0001 C CNN
F 3 "http://www.vishay.com/docs/31509/csc.pdf" H 4975 3675 50  0001 C CNN
	1    4975 3675
	1    0    0    -1  
$EndComp
Wire Wire Line
	4775 4300 5450 4300
Connection ~ 4775 4300
Wire Wire Line
	4875 4400 5175 4400
Wire Wire Line
	5175 4400 5175 4500
Connection ~ 4875 4400
Wire Wire Line
	5450 4200 4975 4200
Connection ~ 4975 4200
Wire Wire Line
	4975 4200 4975 3875
Wire Wire Line
	5075 4100 5450 4100
Connection ~ 5075 4100
Wire Wire Line
	5075 4100 5075 3875
Connection ~ 1500 5975
Wire Wire Line
	1500 5975 1500 5650
Wire Wire Line
	1500 5975 2375 5975
$Comp
L 74xx:74LS04 U11
U 6 1 5F85D1BA
P 7050 4800
F 0 "U11" H 7000 4800 50  0000 C CNN
F 1 "74LS04" H 7200 4925 50  0000 C CNN
F 2 "" H 7050 4800 50  0001 C CNN
F 3 "http://www.ti.com/lit/gpn/sn74LS04" H 7050 4800 50  0001 C CNN
	6    7050 4800
	1    0    0    -1  
$EndComp
$Comp
L 74xx:74LS02 U9
U 1 1 5F8D8994
P 7100 5275
F 0 "U9" H 7100 5275 50  0000 C CNN
F 1 "74LS02" H 7325 5425 50  0000 C CNN
F 2 "" H 7100 5275 50  0001 C CNN
F 3 "http://www.ti.com/lit/gpn/sn74ls02" H 7100 5275 50  0001 C CNN
	1    7100 5275
	1    0    0    -1  
$EndComp
$Comp
L 74xx:74LS02 U9
U 2 1 5F8DD641
P 6050 2275
F 0 "U9" H 6050 2275 50  0000 C CNN
F 1 "74LS02" H 6300 2425 50  0000 C CNN
F 2 "" H 6050 2275 50  0001 C CNN
F 3 "http://www.ti.com/lit/gpn/sn74ls02" H 6050 2275 50  0001 C CNN
	2    6050 2275
	-1   0    0    -1  
$EndComp
$Comp
L 74xx:74LS02 U9
U 3 1 5F8DE3BF
P 7950 3125
F 0 "U9" H 7950 3125 50  0000 C CNN
F 1 "74LS02" H 8125 3300 50  0000 C CNN
F 2 "" H 7950 3125 50  0001 C CNN
F 3 "http://www.ti.com/lit/gpn/sn74ls02" H 7950 3125 50  0001 C CNN
	3    7950 3125
	1    0    0    -1  
$EndComp
Wire Wire Line
	6800 5175 6700 5175
Wire Wire Line
	6700 5175 6700 4800
Connection ~ 6700 4800
Wire Wire Line
	6700 4800 6450 4800
Wire Wire Line
	6800 5375 6700 5375
Wire Wire Line
	6700 5375 6700 5800
Wire Wire Line
	6450 6600 6700 6600
$Comp
L 74xx:74LS04 U11
U 5 1 5F85D1AC
P 7075 5800
F 0 "U11" H 7025 5800 50  0000 C CNN
F 1 "74LS04" H 7225 5925 50  0000 C CNN
F 2 "" H 7075 5800 50  0001 C CNN
F 3 "http://www.ti.com/lit/gpn/sn74LS04" H 7075 5800 50  0001 C CNN
	5    7075 5800
	1    0    0    -1  
$EndComp
Wire Wire Line
	6775 5800 6700 5800
Connection ~ 6700 5800
Wire Wire Line
	6700 5800 6700 6600
Wire Wire Line
	7375 5800 7550 5800
Text Label 7550 5800 2    50   ~ 0
~CS
Text Label 4025 1650 2    50   ~ 0
~CS
Wire Wire Line
	4025 1650 3750 1650
Wire Wire Line
	4025 1750 3750 1750
Wire Wire Line
	4025 1850 3750 1850
Wire Wire Line
	4025 1950 3750 1950
Wire Wire Line
	4025 2050 3750 2050
Wire Wire Line
	4025 2150 3750 2150
Wire Wire Line
	4175 2250 3750 2250
Wire Wire Line
	4175 2350 3750 2350
Wire Wire Line
	4175 2450 3750 2450
Text HLabel 3750 1650 0    50   Output ~ 0
~CS
Text Label 4025 1750 2    50   ~ 0
AB0
Text Label 4025 1850 2    50   ~ 0
AB1
Text HLabel 3750 1750 0    50   Output ~ 0
AB0
Text HLabel 3750 1850 0    50   Output ~ 0
AB1
Wire Wire Line
	7400 5275 7800 5275
Wire Wire Line
	7800 5275 7800 5775
Wire Wire Line
	7800 5775 8275 5775
$Comp
L 74xx:74LS32 U10
U 1 1 5F903060
P 7750 3975
F 0 "U10" H 7750 4000 50  0000 C CNN
F 1 "74LS32" H 7925 4150 50  0000 C CNN
F 2 "" H 7750 3975 50  0001 C CNN
F 3 "http://www.ti.com/lit/gpn/sn74LS32" H 7750 3975 50  0001 C CNN
	1    7750 3975
	1    0    0    -1  
$EndComp
$Comp
L 74xx:74LS32 U10
U 2 1 5F903EB0
P 7950 2700
F 0 "U10" H 7950 2700 50  0000 C CNN
F 1 "74LS32" H 8175 2850 50  0000 C CNN
F 2 "" H 7950 2700 50  0001 C CNN
F 3 "http://www.ti.com/lit/gpn/sn74LS32" H 7950 2700 50  0001 C CNN
	2    7950 2700
	1    0    0    -1  
$EndComp
$Comp
L 74xx:74LS32 U10
U 3 1 5F9048F9
P 7800 6300
F 0 "U10" H 7800 6300 50  0000 C CNN
F 1 "74LS32" H 7975 6475 50  0000 C CNN
F 2 "" H 7800 6300 50  0001 C CNN
F 3 "http://www.ti.com/lit/gpn/sn74LS32" H 7800 6300 50  0001 C CNN
	3    7800 6300
	1    0    0    -1  
$EndComp
$Comp
L 74xx:74LS32 U10
U 4 1 5F905814
P 7750 4375
F 0 "U10" H 7775 4375 50  0000 C CNN
F 1 "74LS32" H 8000 4275 50  0000 C CNN
F 2 "" H 7750 4375 50  0001 C CNN
F 3 "http://www.ti.com/lit/gpn/sn74LS32" H 7750 4375 50  0001 C CNN
	4    7750 4375
	1    0    0    1   
$EndComp
Wire Wire Line
	7500 6200 7475 6200
Wire Wire Line
	7475 6200 7475 6400
Wire Wire Line
	7475 6400 7500 6400
Wire Wire Line
	7475 6400 7275 6400
Connection ~ 7475 6400
Text Label 7275 6400 0    50   ~ 0
~RDb
Wire Wire Line
	7450 4275 7225 4275
Wire Wire Line
	8100 6300 8150 6300
Text Label 8375 6300 2    50   ~ 0
~RD
Text Label 7225 4275 0    50   ~ 0
~RD
Text Label 4025 1950 2    50   ~ 0
~RD
Text HLabel 3750 1950 0    50   Output ~ 0
~RD
Text HLabel 3750 2050 0    50   Output ~ 0
~WR
Text Label 4025 2050 2    50   ~ 0
~WRb
Wire Wire Line
	8150 6300 8150 5675
Wire Wire Line
	8150 5675 8275 5675
Connection ~ 8150 6300
Wire Wire Line
	8150 6300 8375 6300
Wire Wire Line
	7350 4800 7400 4800
Wire Wire Line
	7400 4800 7400 4475
Wire Wire Line
	7400 4475 7450 4475
NoConn ~ 6450 4600
NoConn ~ 6450 4700
$Comp
L 74xx:74LS32 U1
U 1 1 5F93FA65
P 7225 2275
F 0 "U1" H 7225 2275 50  0000 C CNN
F 1 "74LS32" H 7225 2075 50  0000 C CNN
F 2 "" H 7225 2275 50  0001 C CNN
F 3 "http://www.ti.com/lit/gpn/sn74LS32" H 7225 2275 50  0001 C CNN
	1    7225 2275
	1    0    0    1   
$EndComp
$Comp
L 74xx:74LS32 U1
U 2 1 5F94086E
P 7250 3025
F 0 "U1" H 7250 3025 50  0000 C CNN
F 1 "74LS32" H 7475 3175 50  0000 C CNN
F 2 "" H 7250 3025 50  0001 C CNN
F 3 "http://www.ti.com/lit/gpn/sn74LS32" H 7250 3025 50  0001 C CNN
	2    7250 3025
	1    0    0    -1  
$EndComp
$Comp
L 74xx:74LS32 U1
U 3 1 5F9415F0
P 7100 825
F 0 "U1" H 7100 825 50  0000 C CNN
F 1 "74LS32" H 7350 700 50  0000 C CNN
F 2 "" H 7100 825 50  0001 C CNN
F 3 "http://www.ti.com/lit/gpn/sn74LS32" H 7100 825 50  0001 C CNN
	3    7100 825 
	1    0    0    1   
$EndComp
$Comp
L 74xx:74LS32 U1
U 4 1 5F941E93
P 6450 725
F 0 "U1" H 6450 725 50  0000 C CNN
F 1 "74LS32" H 6675 875 50  0000 C CNN
F 2 "" H 6450 725 50  0001 C CNN
F 3 "http://www.ti.com/lit/gpn/sn74LS32" H 6450 725 50  0001 C CNN
	4    6450 725 
	1    0    0    -1  
$EndComp
Wire Wire Line
	6150 625  5450 625 
Wire Wire Line
	6800 725  6750 725 
Wire Wire Line
	6150 825  5450 825 
Text Label 5450 625  0    50   ~ 0
~IORQb
Text Label 5450 825  0    50   ~ 0
~M1b
$Comp
L Connector_Generic:Conn_01x02 J?
U 1 1 5F955710
P 8275 1175
F 0 "J?" H 8225 900 50  0000 L CNN
F 1 "INT" H 8225 975 50  0000 L CNN
F 2 "" H 8275 1175 50  0001 C CNN
F 3 "~" H 8275 1175 50  0001 C CNN
	1    8275 1175
	1    0    0    1   
$EndComp
Wire Wire Line
	8275 1075 8350 1075
Wire Wire Line
	8350 1075 8350 1175
Wire Wire Line
	8350 1175 8275 1175
Wire Wire Line
	8075 1075 7825 1075
Text Label 7825 1075 0    50   ~ 0
~INT
$Comp
L Transistor_BJT:BC547 Q?
U 1 1 5F957585
P 7875 1525
F 0 "Q?" H 8066 1571 50  0000 L CNN
F 1 "BC547" H 8066 1480 50  0000 L CNN
F 2 "Package_TO_SOT_THT:TO-92_Inline" H 8075 1450 50  0001 L CIN
F 3 "https://www.onsemi.com/pub/Collateral/BC550-D.pdf" H 7875 1525 50  0001 L CNN
	1    7875 1525
	1    0    0    -1  
$EndComp
$Comp
L power:GND #PWR?
U 1 1 5F9589B8
P 7975 1725
AR Path="/5EFDD352/5F9589B8" Ref="#PWR?"  Part="1" 
AR Path="/5EFDE485/5F9589B8" Ref="#PWR?"  Part="1" 
AR Path="/5F9589B8" Ref="#PWR?"  Part="1" 
AR Path="/5F7D831C/5F9589B8" Ref="#PWR?"  Part="1" 
F 0 "#PWR?" H 7975 1475 50  0001 C CNN
F 1 "GND" H 7975 1575 50  0000 C CNN
F 2 "" H 7975 1725 50  0001 C CNN
F 3 "" H 7975 1725 50  0001 C CNN
	1    7975 1725
	1    0    0    -1  
$EndComp
Wire Wire Line
	8075 1175 7975 1175
Wire Wire Line
	7975 1175 7975 1325
$Comp
L Device:R_Small R?
U 1 1 5F95AD5D
P 7600 1350
F 0 "R?" H 7659 1396 50  0000 L CNN
F 1 "470E" H 7659 1305 50  0000 L CNN
F 2 "" H 7600 1350 50  0001 C CNN
F 3 "~" H 7600 1350 50  0001 C CNN
	1    7600 1350
	1    0    0    -1  
$EndComp
Wire Wire Line
	7600 1450 7600 1525
$Comp
L power:+5V #PWR?
U 1 1 5F95AD6C
P 7600 1250
AR Path="/5EFDD352/5F95AD6C" Ref="#PWR?"  Part="1" 
AR Path="/5EFDE485/5F95AD6C" Ref="#PWR?"  Part="1" 
AR Path="/5F95AD6C" Ref="#PWR?"  Part="1" 
AR Path="/5F7D831C/5F95AD6C" Ref="#PWR?"  Part="1" 
F 0 "#PWR?" H 7600 1100 50  0001 C CNN
F 1 "+5V" H 7600 1400 50  0000 C CNN
F 2 "" H 7600 1250 50  0001 C CNN
F 3 "" H 7600 1250 50  0001 C CNN
	1    7600 1250
	1    0    0    -1  
$EndComp
Wire Wire Line
	7675 1525 7600 1525
Connection ~ 7600 1525
Wire Wire Line
	7475 1525 7600 1525
$Comp
L power:GND #PWR?
U 1 1 5F95BDF8
P 7475 1950
AR Path="/5EFDD352/5F95BDF8" Ref="#PWR?"  Part="1" 
AR Path="/5EFDE485/5F95BDF8" Ref="#PWR?"  Part="1" 
AR Path="/5F95BDF8" Ref="#PWR?"  Part="1" 
AR Path="/5F7D831C/5F95BDF8" Ref="#PWR?"  Part="1" 
F 0 "#PWR?" H 7475 1700 50  0001 C CNN
F 1 "GND" H 7475 1800 50  0000 C CNN
F 2 "" H 7475 1950 50  0001 C CNN
F 3 "" H 7475 1950 50  0001 C CNN
	1    7475 1950
	1    0    0    -1  
$EndComp
$Comp
L Transistor_BJT:BC547 Q?
U 1 1 5F95BE07
P 7375 1750
F 0 "Q?" H 7566 1796 50  0000 L CNN
F 1 "BC547" H 7566 1705 50  0000 L CNN
F 2 "Package_TO_SOT_THT:TO-92_Inline" H 7575 1675 50  0001 L CIN
F 3 "https://www.onsemi.com/pub/Collateral/BC550-D.pdf" H 7375 1750 50  0001 L CNN
	1    7375 1750
	1    0    0    -1  
$EndComp
Wire Wire Line
	7475 1550 7475 1525
$Comp
L Device:R_Small R?
U 1 1 5F95DE84
P 7050 1750
F 0 "R?" V 6854 1750 50  0000 C CNN
F 1 "1k" V 6945 1750 50  0000 C CNN
F 2 "" H 7050 1750 50  0001 C CNN
F 3 "~" H 7050 1750 50  0001 C CNN
	1    7050 1750
	0    1    1    0   
$EndComp
Wire Wire Line
	7150 1750 7175 1750
Wire Wire Line
	6775 1750 6775 1125
Wire Wire Line
	6775 925  6800 925 
Wire Wire Line
	6775 1750 6950 1750
Wire Wire Line
	6625 1125 6775 1125
Connection ~ 6775 1125
Wire Wire Line
	6775 1125 6775 925 
Text Label 5450 1225 0    50   ~ 0
IEI
Wire Wire Line
	6025 1225 5950 1225
Wire Wire Line
	5525 2275 5750 2275
Text Label 5525 2275 0    50   ~ 0
IEO
Wire Wire Line
	6025 1025 5750 1025
Wire Wire Line
	5750 1025 5750 1900
Wire Wire Line
	5750 1900 6500 1900
Wire Wire Line
	6500 1900 6500 2175
Wire Wire Line
	6500 2175 6350 2175
$Comp
L 74xx:74LS04 U11
U 4 1 5F86633E
P 6300 1475
F 0 "U11" H 6275 1475 50  0000 C CNN
F 1 "74LS04" H 6425 1600 50  0000 C CNN
F 2 "" H 6300 1475 50  0001 C CNN
F 3 "http://www.ti.com/lit/gpn/sn74LS04" H 6300 1475 50  0001 C CNN
	4    6300 1475
	1    0    0    -1  
$EndComp
Wire Wire Line
	6000 1475 5950 1475
Wire Wire Line
	5950 1475 5950 1225
Connection ~ 5950 1225
Wire Wire Line
	5950 1225 5450 1225
Wire Wire Line
	6625 1475 6600 1475
Wire Wire Line
	6625 1475 6625 2375
Wire Wire Line
	6625 2375 6350 2375
Wire Wire Line
	6925 2375 6625 2375
Connection ~ 6625 2375
Wire Wire Line
	7400 825  7425 825 
Wire Wire Line
	7425 825  7425 1025
Wire Wire Line
	7425 1025 6875 1025
Wire Wire Line
	6875 1025 6875 2175
Wire Wire Line
	6875 2175 6925 2175
Wire Wire Line
	7525 2275 8575 2275
Text Label 4025 2150 2    50   ~ 0
INTRQb
Text HLabel 3750 2150 0    50   Input ~ 0
INTRQb
Wire Wire Line
	8050 4375 8525 4375
Text Label 8525 4375 2    50   ~ 0
~OE_STAT
Text Label 4175 2250 2    50   ~ 0
~OE_STAT
Text HLabel 3750 2250 0    50   Output ~ 0
~OE_STAT
Text HLabel 3750 2350 0    50   Input ~ 0
DRQb
Text Label 4175 2350 2    50   ~ 0
DRQb
Text Label 6750 2925 0    50   ~ 0
DRQb
Wire Wire Line
	6750 2925 6950 2925
Wire Wire Line
	7550 3025 7650 3025
Text Label 5550 3225 0    50   ~ 0
~RESET
Wire Wire Line
	5900 3225 5875 3225
Wire Wire Line
	5900 3025 5875 3025
Wire Wire Line
	5875 3025 5875 3225
Connection ~ 5875 3225
Wire Wire Line
	5875 3225 5550 3225
$Comp
L Device:R_Small R2
U 1 1 5FA06710
P 6550 3000
F 0 "R2" H 6609 3046 50  0000 L CNN
F 1 "1k" H 6609 2955 50  0000 L CNN
F 2 "" H 6550 3000 50  0001 C CNN
F 3 "~" H 6550 3000 50  0001 C CNN
	1    6550 3000
	1    0    0    -1  
$EndComp
$Comp
L power:+5V #PWR?
U 1 1 5FA0671D
P 6550 2900
AR Path="/5EFDD352/5FA0671D" Ref="#PWR?"  Part="1" 
AR Path="/5EFDE485/5FA0671D" Ref="#PWR?"  Part="1" 
AR Path="/5FA0671D" Ref="#PWR?"  Part="1" 
AR Path="/5F7D831C/5FA0671D" Ref="#PWR?"  Part="1" 
F 0 "#PWR?" H 6550 2750 50  0001 C CNN
F 1 "+5V" H 6550 3050 50  0000 C CNN
F 2 "" H 6550 2900 50  0001 C CNN
F 3 "" H 6550 2900 50  0001 C CNN
	1    6550 2900
	1    0    0    -1  
$EndComp
Wire Wire Line
	6550 3100 6550 3125
Wire Wire Line
	6550 3125 6500 3125
Wire Wire Line
	6550 3125 6950 3125
Connection ~ 6550 3125
Wire Wire Line
	7650 3225 7425 3225
Text Label 7425 3225 0    50   ~ 0
INTRQb
Text Label 5450 1025 0    50   ~ 0
INTRQb
Wire Wire Line
	5450 1025 5750 1025
Connection ~ 5750 1025
$Comp
L power:+5V #PWR?
U 1 1 5FA2C90B
P 8725 2600
AR Path="/5EFDD352/5FA2C90B" Ref="#PWR?"  Part="1" 
AR Path="/5EFDE485/5FA2C90B" Ref="#PWR?"  Part="1" 
AR Path="/5FA2C90B" Ref="#PWR?"  Part="1" 
AR Path="/5F7D831C/5FA2C90B" Ref="#PWR?"  Part="1" 
F 0 "#PWR?" H 8725 2450 50  0001 C CNN
F 1 "+5V" H 8725 2750 50  0000 C CNN
F 2 "" H 8725 2600 50  0001 C CNN
F 3 "" H 8725 2600 50  0001 C CNN
	1    8725 2600
	1    0    0    -1  
$EndComp
Wire Wire Line
	8725 2600 8725 2625
$Comp
L 74xx:74LS74 U8
U 1 1 5FA28E24
P 8725 2925
F 0 "U8" H 8850 3250 50  0000 C CNN
F 1 "74LS74" H 8875 3175 50  0000 C CNN
F 2 "" H 8725 2925 50  0001 C CNN
F 3 "74xx/74hc_hct74.pdf" H 8725 2925 50  0001 C CNN
	1    8725 2925
	1    0    0    -1  
$EndComp
Wire Wire Line
	8425 2825 8425 2625
Wire Wire Line
	8425 2625 8725 2625
Connection ~ 8725 2625
Wire Wire Line
	8725 3225 8725 3250
Wire Wire Line
	8725 3250 8350 3250
Wire Wire Line
	8350 3250 8350 3125
Wire Wire Line
	8350 3125 8250 3125
Wire Wire Line
	8250 2700 8300 2700
Wire Wire Line
	8300 2700 8300 2925
Wire Wire Line
	8300 2925 8425 2925
Text Label 7225 3875 0    50   ~ 0
~WRb
Wire Wire Line
	7225 3875 7450 3875
Wire Wire Line
	7450 4075 7400 4075
Wire Wire Line
	7400 4075 7400 4475
Connection ~ 7400 4475
Wire Wire Line
	8050 3975 8100 3975
Wire Wire Line
	8100 3975 8100 3525
Wire Wire Line
	8100 3525 7000 3525
Wire Wire Line
	7000 3525 7000 2600
Wire Wire Line
	7000 2600 7650 2600
Connection ~ 8100 3975
Wire Wire Line
	8100 3975 8600 3975
Text Label 4175 2450 2    50   ~ 0
~DS_CLK
Text Label 8600 3975 2    50   ~ 0
~DS_CLK
Text HLabel 3750 2450 0    50   Output ~ 0
~DS_CLK
Wire Wire Line
	9025 2825 9175 2825
Wire Wire Line
	9175 2825 9175 3025
Wire Wire Line
	9175 3025 9200 3025
Connection ~ 9175 2825
Wire Wire Line
	9175 2825 9200 2825
NoConn ~ 9025 3025
Wire Wire Line
	9800 2925 10075 2925
Text Label 10075 2925 2    50   ~ 0
~WAIT
$Comp
L 74xx:74LS04 U11
U 2 1 5F85D1C8
P 6075 2650
F 0 "U11" H 6025 2650 50  0000 C CNN
F 1 "74LS04" H 6250 2750 50  0000 C CNN
F 2 "" H 6075 2650 50  0001 C CNN
F 3 "http://www.ti.com/lit/gpn/sn74LS04" H 6075 2650 50  0001 C CNN
	2    6075 2650
	1    0    0    -1  
$EndComp
Wire Wire Line
	6900 2650 6900 2800
Wire Wire Line
	6900 2800 7650 2800
Wire Wire Line
	6375 2650 6900 2650
Wire Wire Line
	5775 2650 5450 2650
Text Label 5450 2650 0    50   ~ 0
DB7
$EndSCHEMATC
