EESchema Schematic File Version 5
EELAYER 30 0
EELAYER END
$Descr A4 11693 8268
encoding utf-8
Sheet 1 3
Title "FLO3 MC-Computer floppy controller"
Date "2020-10-16"
Rev "v0.3"
Comp ""
Comment1 "v0.2: Added Mini Connector and U25"
Comment2 "v0.3: added clock circuit"
Comment3 ""
Comment4 ""
Comment5 ""
Comment6 ""
Comment7 ""
Comment8 ""
Comment9 ""
$EndDescr
$Sheet
S 650  650  800  2050
U 5F7D831C
F0 "ECB Bus" 50
F1 "ECB_Bus.sch" 50
F2 "D0" B R 1450 725 50 
F3 "D1" B R 1450 825 50 
F4 "D2" B R 1450 925 50 
F5 "D3" B R 1450 1025 50 
F6 "D4" B R 1450 1125 50 
F7 "D5" B R 1450 1225 50 
F8 "D6" B R 1450 1325 50 
F9 "D7" B R 1450 1425 50 
F10 "~RESET" I R 1450 1525 50 
F11 "~CS" O R 1450 1625 50 
F12 "AB0" O R 1450 1725 50 
F13 "AB1" O R 1450 1825 50 
F14 "~WR" O R 1450 2025 50 
F15 "~RD" O R 1450 1925 50 
F16 "INTRQb" I R 1450 2125 50 
F17 "~OE_STAT" O R 1450 2325 50 
F18 "DRQb" I R 1450 2225 50 
F19 "~DS_CLK" O R 1450 2425 50 
$EndSheet
$Comp
L Connector_Generic:Conn_02x25_Odd_Even J?
U 1 1 5F7EF9C7
P 7975 3900
F 0 "J?" H 8025 5317 50  0000 C CNN
F 1 "Shugart" H 8025 5226 50  0000 C CNN
F 2 "" H 7975 3900 50  0001 C CNN
F 3 "~" H 7975 3900 50  0001 C CNN
	1    7975 3900
	-1   0    0    -1  
$EndComp
$Comp
L power:GND #PWR?
U 1 1 5F7F1432
P 8275 5175
F 0 "#PWR?" H 8275 4925 50  0001 C CNN
F 1 "GND" H 8275 5025 50  0000 C CNN
F 2 "" H 8275 5175 50  0001 C CNN
F 3 "" H 8275 5175 50  0001 C CNN
	1    8275 5175
	1    0    0    -1  
$EndComp
Wire Wire Line
	8175 2700 8275 2700
Wire Wire Line
	8275 2700 8275 2800
Wire Wire Line
	8175 2800 8275 2800
Connection ~ 8275 2800
Wire Wire Line
	8275 2800 8275 2900
Wire Wire Line
	8175 2900 8275 2900
Connection ~ 8275 2900
Wire Wire Line
	8275 2900 8275 3000
Wire Wire Line
	8175 3000 8275 3000
Connection ~ 8275 3000
Wire Wire Line
	8275 3000 8275 3100
Wire Wire Line
	8175 3100 8275 3100
Connection ~ 8275 3100
Wire Wire Line
	8275 3100 8275 3200
Wire Wire Line
	8175 3200 8275 3200
Connection ~ 8275 3200
Wire Wire Line
	8275 3200 8275 3300
Wire Wire Line
	8175 3300 8275 3300
Connection ~ 8275 3300
Wire Wire Line
	8275 3300 8275 3400
Wire Wire Line
	8175 3400 8275 3400
Connection ~ 8275 3400
Wire Wire Line
	8275 3400 8275 3500
Wire Wire Line
	8175 3500 8275 3500
Connection ~ 8275 3500
Wire Wire Line
	8275 3500 8275 3600
Wire Wire Line
	8175 3600 8275 3600
Connection ~ 8275 3600
Wire Wire Line
	8275 3600 8275 3700
Wire Wire Line
	8175 3700 8275 3700
Connection ~ 8275 3700
Wire Wire Line
	8275 3700 8275 3800
Wire Wire Line
	8175 3800 8275 3800
Connection ~ 8275 3800
Wire Wire Line
	8275 3800 8275 3900
Wire Wire Line
	8175 3900 8275 3900
Connection ~ 8275 3900
Wire Wire Line
	8275 3900 8275 4000
Wire Wire Line
	8175 4000 8275 4000
Connection ~ 8275 4000
Wire Wire Line
	8275 4000 8275 4100
Wire Wire Line
	8175 4100 8275 4100
Connection ~ 8275 4100
Wire Wire Line
	8275 4100 8275 4200
Wire Wire Line
	8175 4200 8275 4200
Connection ~ 8275 4200
Wire Wire Line
	8275 4200 8275 4300
Wire Wire Line
	8175 4300 8275 4300
Connection ~ 8275 4300
Wire Wire Line
	8275 4300 8275 4400
Wire Wire Line
	8175 4400 8275 4400
Connection ~ 8275 4400
Wire Wire Line
	8275 4400 8275 4500
Wire Wire Line
	8175 4500 8275 4500
Connection ~ 8275 4500
Wire Wire Line
	8275 4500 8275 4600
Wire Wire Line
	8175 4600 8275 4600
Connection ~ 8275 4600
Wire Wire Line
	8275 4600 8275 4700
Wire Wire Line
	8175 4700 8275 4700
Connection ~ 8275 4700
Wire Wire Line
	8275 4700 8275 4800
Wire Wire Line
	8175 4800 8275 4800
Connection ~ 8275 4800
Wire Wire Line
	8275 4800 8275 4900
Wire Wire Line
	8175 4900 8275 4900
Connection ~ 8275 4900
Wire Wire Line
	8275 4900 8275 5000
Wire Wire Line
	8175 5000 8275 5000
Connection ~ 8275 5000
Wire Wire Line
	8275 5000 8275 5100
Wire Wire Line
	8175 5100 8275 5100
Connection ~ 8275 5100
Wire Wire Line
	8275 5100 8275 5175
$Comp
L 74xx:74LS06 U28
U 1 1 5F7F38FE
P 6900 3900
F 0 "U28" H 6850 3900 50  0000 C CNN
F 1 "74LS06" H 7025 4025 50  0000 C CNN
F 2 "" H 6900 3900 50  0001 C CNN
F 3 "http://www.ti.com/lit/gpn/sn74LS06" H 6900 3900 50  0001 C CNN
	1    6900 3900
	1    0    0    -1  
$EndComp
$Comp
L 74xx:74LS06 U28
U 2 1 5F7F43DC
P 6900 4475
F 0 "U28" H 6875 4475 50  0000 C CNN
F 1 "74LS06" H 7025 4600 50  0000 C CNN
F 2 "" H 6900 4475 50  0001 C CNN
F 3 "http://www.ti.com/lit/gpn/sn74LS06" H 6900 4475 50  0001 C CNN
	2    6900 4475
	1    0    0    -1  
$EndComp
$Comp
L 74xx:74LS06 U28
U 3 1 5F7F4903
P 7325 2700
F 0 "U28" H 7300 2700 50  0000 C CNN
F 1 "74LS06" H 7425 2825 50  0000 C CNN
F 2 "" H 7325 2700 50  0001 C CNN
F 3 "http://www.ti.com/lit/gpn/sn74LS06" H 7325 2700 50  0001 C CNN
	3    7325 2700
	1    0    0    -1  
$EndComp
$Comp
L 74xx:74LS06 U28
U 4 1 5F7F4E46
P 6300 7350
F 0 "U28" H 6275 7350 50  0000 C CNN
F 1 "74LS06" H 6300 7576 50  0000 C CNN
F 2 "" H 6300 7350 50  0001 C CNN
F 3 "http://www.ti.com/lit/gpn/sn74LS06" H 6300 7350 50  0001 C CNN
	4    6300 7350
	-1   0    0    -1  
$EndComp
$Comp
L 74xx:74LS06 U28
U 5 1 5F7F5322
P 5800 6825
F 0 "U28" H 5750 6825 50  0000 C CNN
F 1 "74LS06" H 5900 6950 50  0000 C CNN
F 2 "" H 5800 6825 50  0001 C CNN
F 3 "http://www.ti.com/lit/gpn/sn74LS06" H 5800 6825 50  0001 C CNN
	5    5800 6825
	1    0    0    -1  
$EndComp
$Comp
L 74xx:74LS06 U28
U 6 1 5F7F5730
P 6900 4800
F 0 "U28" H 6875 4825 50  0000 C CNN
F 1 "74LS06" H 7050 4925 50  0000 C CNN
F 2 "" H 6900 4800 50  0001 C CNN
F 3 "http://www.ti.com/lit/gpn/sn74LS06" H 6900 4800 50  0001 C CNN
	6    6900 4800
	1    0    0    -1  
$EndComp
NoConn ~ 7675 2800
NoConn ~ 7675 2900
NoConn ~ 7675 3000
NoConn ~ 7675 3100
NoConn ~ 7675 3200
$Comp
L Connector_Generic:Conn_01x03 JR
U 1 1 5F7FA1BA
P 7450 3025
F 0 "JR" V 7625 2975 50  0000 L CNN
F 1 "5/8" V 7550 2950 50  0000 L CNN
F 2 "" H 7450 3025 50  0001 C CNN
F 3 "~" H 7450 3025 50  0001 C CNN
	1    7450 3025
	0    1    -1   0   
$EndComp
Wire Wire Line
	7675 3300 7550 3300
Wire Wire Line
	7550 3300 7550 3225
Wire Wire Line
	7625 2700 7675 2700
$Comp
L 74xx:74LS38 U23
U 1 1 5F7FC87C
P 6950 3300
F 0 "U23" H 6950 3300 50  0000 C CNN
F 1 "74LS38" H 6950 3534 50  0000 C CNN
F 2 "" H 6950 3300 50  0001 C CNN
F 3 "http://www.ti.com/lit/gpn/sn74LS38" H 6950 3300 50  0001 C CNN
	1    6950 3300
	1    0    0    -1  
$EndComp
$Comp
L 74xx:74LS38 U23
U 2 1 5F7FE8D5
P 9175 1075
F 0 "U23" H 9150 1075 50  0000 C CNN
F 1 "74LS38" H 9450 1200 50  0000 C CNN
F 2 "" H 9175 1075 50  0001 C CNN
F 3 "http://www.ti.com/lit/gpn/sn74LS38" H 9175 1075 50  0001 C CNN
	2    9175 1075
	1    0    0    -1  
$EndComp
$Comp
L 74xx:74LS38 U23
U 3 1 5F7FF150
P 9175 1400
F 0 "U23" H 9150 1400 50  0000 C CNN
F 1 "74LS38" H 9450 1525 50  0000 C CNN
F 2 "" H 9175 1400 50  0001 C CNN
F 3 "http://www.ti.com/lit/gpn/sn74LS38" H 9175 1400 50  0001 C CNN
	3    9175 1400
	1    0    0    -1  
$EndComp
$Comp
L 74xx:74LS38 U23
U 4 1 5F800458
P 9175 1725
F 0 "U23" H 9150 1725 50  0000 C CNN
F 1 "74LS38" H 9450 1850 50  0000 C CNN
F 2 "" H 9175 1725 50  0001 C CNN
F 3 "http://www.ti.com/lit/gpn/sn74LS38" H 9175 1725 50  0001 C CNN
	4    9175 1725
	1    0    0    -1  
$EndComp
Wire Wire Line
	7250 3300 7450 3300
Wire Wire Line
	7450 3300 7450 3225
Wire Wire Line
	6650 3200 6600 3200
Wire Wire Line
	6325 3400 6650 3400
$Comp
L Connector_Generic:Conn_01x03 J1
U 1 1 5F80A523
P 5950 775
F 0 "J1" V 6125 725 50  0000 L CNN
F 1 "?" V 6050 750 50  0000 L CNN
F 2 "" H 5950 775 50  0001 C CNN
F 3 "~" H 5950 775 50  0001 C CNN
	1    5950 775 
	0    -1   -1   0   
$EndComp
Wire Wire Line
	6600 3200 6600 3450
$Comp
L power:GND #PWR?
U 1 1 5F80C8DF
P 6600 3450
F 0 "#PWR?" H 6600 3200 50  0001 C CNN
F 1 "GND" H 6600 3300 50  0000 C CNN
F 2 "" H 6600 3450 50  0001 C CNN
F 3 "" H 6600 3450 50  0001 C CNN
	1    6600 3450
	1    0    0    -1  
$EndComp
$Comp
L my_ics:FD1791 U18
U 1 1 5F80D18C
P 1425 6500
F 0 "U18" H 1025 7525 50  0000 C CNN
F 1 "FD1797" H 1050 7450 50  0000 C CNN
F 2 "Package_DIP:DIP-40_W15.24mm" H 1425 5300 50  0001 C CNN
F 3 "https://amaus.net/static/S100/western%20digital/datasheet/Western%20Digital%20FD1771%20Specification%20197710.pdf" H 1425 6500 50  0001 C CNN
	1    1425 6500
	1    0    0    -1  
$EndComp
$Comp
L power:GND #PWR?
U 1 1 5F80F4D6
P 1425 7600
F 0 "#PWR?" H 1425 7350 50  0001 C CNN
F 1 "GND" H 1425 7450 50  0000 C CNN
F 2 "" H 1425 7600 50  0001 C CNN
F 3 "" H 1425 7600 50  0001 C CNN
	1    1425 7600
	1    0    0    -1  
$EndComp
$Comp
L power:+5V #PWR?
U 1 1 5F80F8D1
P 1425 5500
F 0 "#PWR?" H 1425 5350 50  0001 C CNN
F 1 "+5V" H 1425 5650 50  0000 C CNN
F 2 "" H 1425 5500 50  0001 C CNN
F 3 "" H 1425 5500 50  0001 C CNN
	1    1425 5500
	1    0    0    -1  
$EndComp
$Comp
L power:+12V #PWR?
U 1 1 5F80FE84
P 1325 5350
F 0 "#PWR?" H 1325 5200 50  0001 C CNN
F 1 "+12V" H 1325 5500 50  0000 C CNN
F 2 "" H 1325 5350 50  0001 C CNN
F 3 "" H 1325 5350 50  0001 C CNN
	1    1325 5350
	1    0    0    -1  
$EndComp
Wire Wire Line
	1325 5350 1325 5500
Wire Wire Line
	1450 725  1775 725 
Wire Wire Line
	1450 825  1775 825 
Wire Wire Line
	1450 925  1775 925 
Wire Wire Line
	1450 1025 1775 1025
Wire Wire Line
	1450 1125 1775 1125
Wire Wire Line
	1450 1225 1775 1225
Wire Wire Line
	1450 1325 1775 1325
Wire Wire Line
	1450 1425 1775 1425
Wire Wire Line
	1450 1625 1775 1625
Wire Wire Line
	1450 1725 1775 1725
Wire Wire Line
	1450 1825 1775 1825
Wire Wire Line
	1450 1925 1775 1925
Wire Wire Line
	1450 2025 1775 2025
Wire Wire Line
	1450 2125 1775 2125
Wire Wire Line
	1450 2225 1775 2225
Wire Wire Line
	1450 2325 1775 2325
Wire Wire Line
	1450 2425 1775 2425
Text Label 1775 725  2    50   ~ 0
D0
Text Label 1775 825  2    50   ~ 0
D1
Text Label 1775 925  2    50   ~ 0
D2
Text Label 1775 1025 2    50   ~ 0
D3
Text Label 1775 1125 2    50   ~ 0
D4
Text Label 1775 1225 2    50   ~ 0
D5
Text Label 1775 1325 2    50   ~ 0
D6
Text Label 1775 1425 2    50   ~ 0
D7
Wire Wire Line
	925  5700 525  5700
Wire Wire Line
	925  5800 525  5800
Wire Wire Line
	925  5900 525  5900
Wire Wire Line
	925  6000 525  6000
Wire Wire Line
	925  6100 525  6100
Wire Wire Line
	925  6200 525  6200
Wire Wire Line
	925  6300 525  6300
Wire Wire Line
	925  6400 525  6400
Wire Wire Line
	925  6500 525  6500
Wire Wire Line
	925  6600 525  6600
Wire Wire Line
	925  6700 525  6700
Wire Wire Line
	925  6800 525  6800
Wire Wire Line
	925  6900 525  6900
Wire Wire Line
	925  7000 525  7000
Wire Wire Line
	925  7100 525  7100
Wire Wire Line
	925  7200 525  7200
Wire Wire Line
	925  7300 525  7300
Wire Wire Line
	925  7400 525  7400
Wire Wire Line
	2325 7100 1925 7100
Wire Wire Line
	2325 6200 1925 6200
Wire Wire Line
	2325 6800 1925 6800
Wire Wire Line
	2325 6000 1925 6000
Wire Wire Line
	2325 6600 1925 6600
Wire Wire Line
	2325 5700 2025 5700
Wire Wire Line
	2325 6900 1925 6900
Wire Wire Line
	2325 7400 1925 7400
Wire Wire Line
	2325 6500 1925 6500
Wire Wire Line
	2325 6400 1925 6400
Wire Wire Line
	2325 6100 1925 6100
Wire Wire Line
	2325 5900 1925 5900
Wire Wire Line
	2325 6700 1925 6700
Wire Wire Line
	2325 7000 1925 7000
Text Label 525  6200 0    50   ~ 0
D0
Text Label 525  6500 0    50   ~ 0
D3
Text Label 525  6700 0    50   ~ 0
D5
Text Label 525  6900 0    50   ~ 0
D7
Text Label 525  6400 0    50   ~ 0
D2
Text Label 525  6800 0    50   ~ 0
D6
Text Label 525  6300 0    50   ~ 0
D1
Text Label 525  6600 0    50   ~ 0
D4
Text Label 2325 7000 2    50   ~ 0
~XTDS
Text Label 6325 3400 0    50   ~ 0
~XTDS
Text Label 2325 7400 2    50   ~ 0
~HLD
Wire Wire Line
	5500 6825 5275 6825
Text Label 5275 6825 0    50   ~ 0
~HLD
Wire Wire Line
	6100 6825 6225 6825
Text Label 7450 3500 0    50   ~ 0
~HLDb
Wire Wire Line
	7450 3500 7675 3500
$Comp
L Device:R_Small R13
U 1 1 5F817843
P 6225 6650
F 0 "R13" H 6284 6696 50  0000 L CNN
F 1 "220E" H 6284 6605 50  0000 L CNN
F 2 "" H 6225 6650 50  0001 C CNN
F 3 "~" H 6225 6650 50  0001 C CNN
	1    6225 6650
	1    0    0    -1  
$EndComp
$Comp
L power:+5V #PWR?
U 1 1 5F817C76
P 6225 6550
F 0 "#PWR?" H 6225 6400 50  0001 C CNN
F 1 "+5V" H 6225 6700 50  0000 C CNN
F 2 "" H 6225 6550 50  0001 C CNN
F 3 "" H 6225 6550 50  0001 C CNN
	1    6225 6550
	1    0    0    -1  
$EndComp
Wire Wire Line
	6225 6750 6225 6825
Connection ~ 6225 6825
Wire Wire Line
	6600 7350 6625 7350
Text Label 6875 7350 2    50   ~ 0
~HLDb
$Comp
L power:+5V #PWR?
U 1 1 5F81A328
P 5900 7075
F 0 "#PWR?" H 5900 6925 50  0001 C CNN
F 1 "+5V" H 5900 7225 50  0000 C CNN
F 2 "" H 5900 7075 50  0001 C CNN
F 3 "" H 5900 7075 50  0001 C CNN
	1    5900 7075
	1    0    0    -1  
$EndComp
Wire Wire Line
	5900 7275 5900 7350
Wire Wire Line
	6000 7350 5900 7350
$Comp
L Device:R_Small R14
U 1 1 5F81A339
P 5900 7175
F 0 "R14" H 5959 7221 50  0000 L CNN
F 1 "220E" H 5959 7130 50  0000 L CNN
F 2 "" H 5900 7175 50  0001 C CNN
F 3 "~" H 5900 7175 50  0001 C CNN
	1    5900 7175
	1    0    0    -1  
$EndComp
$Comp
L 74xx:74LS04 U27
U 2 1 5F81C31B
P 5650 1550
F 0 "U27" H 5650 1867 50  0000 C CNN
F 1 "74LS04" H 5650 1776 50  0000 C CNN
F 2 "" H 5650 1550 50  0001 C CNN
F 3 "http://www.ti.com/lit/gpn/sn74LS04" H 5650 1550 50  0001 C CNN
	2    5650 1550
	1    0    0    -1  
$EndComp
$Comp
L 74xx:74LS04 U27
U 3 1 5F81C8EF
P 5525 7550
F 0 "U27" H 5475 7550 50  0000 C CNN
F 1 "74LS04" H 5600 7700 50  0000 C CNN
F 2 "" H 5525 7550 50  0001 C CNN
F 3 "http://www.ti.com/lit/gpn/sn74LS04" H 5525 7550 50  0001 C CNN
	3    5525 7550
	-1   0    0    -1  
$EndComp
$Comp
L 74xx:74LS04 U27
U 4 1 5F81CA99
P 4175 3850
F 0 "U27" H 4150 3850 50  0000 C CNN
F 1 "74LS04" H 4300 3975 50  0000 C CNN
F 2 "" H 4175 3850 50  0001 C CNN
F 3 "http://www.ti.com/lit/gpn/sn74LS04" H 4175 3850 50  0001 C CNN
	4    4175 3850
	-1   0    0    -1  
$EndComp
$Comp
L 74xx:74LS04 U27
U 5 1 5F81D68E
P 10150 5925
F 0 "U27" H 10100 5925 50  0000 C CNN
F 1 "74LS04" H 10275 6050 50  0000 C CNN
F 2 "" H 10150 5925 50  0001 C CNN
F 3 "http://www.ti.com/lit/gpn/sn74LS04" H 10150 5925 50  0001 C CNN
	5    10150 5925
	-1   0    0    -1  
$EndComp
$Comp
L 74xx:74LS04 U27
U 6 1 5F81DF3A
P 5700 6275
F 0 "U27" H 5700 6592 50  0000 C CNN
F 1 "74LS04" H 5700 6501 50  0000 C CNN
F 2 "" H 5700 6275 50  0001 C CNN
F 3 "http://www.ti.com/lit/gpn/sn74LS04" H 5700 6275 50  0001 C CNN
	6    5700 6275
	1    0    0    -1  
$EndComp
Text Label 2325 6400 2    50   ~ 0
RDY
Text Label 5025 7550 0    50   ~ 0
RDY
Wire Wire Line
	5025 7550 5225 7550
Wire Wire Line
	5825 7550 5900 7550
Text Label 6875 7550 2    50   ~ 0
~RDY
Text Label 7450 3700 0    50   ~ 0
~RDY
Wire Wire Line
	7675 3600 7450 3600
Wire Wire Line
	7675 3700 7450 3700
Wire Wire Line
	7675 3900 7450 3900
Wire Wire Line
	7675 4000 7450 4000
Wire Wire Line
	7675 4100 7450 4100
Wire Wire Line
	7675 4200 7250 4200
Wire Wire Line
	7675 4300 7450 4300
Wire Wire Line
	7675 4400 7450 4400
Wire Wire Line
	7675 4500 7450 4500
Wire Wire Line
	7675 4600 7450 4600
Wire Wire Line
	7675 4700 7450 4700
Wire Wire Line
	7675 4800 7450 4800
Wire Wire Line
	7675 4900 7450 4900
Wire Wire Line
	7675 5000 7450 5000
Wire Wire Line
	5900 7350 5900 7550
Connection ~ 5900 7350
Connection ~ 5900 7550
Wire Wire Line
	5900 7550 6875 7550
Wire Wire Line
	6625 6825 6625 7350
Wire Wire Line
	6225 6825 6625 6825
Connection ~ 6625 7350
Wire Wire Line
	6625 7350 6875 7350
Wire Wire Line
	4475 3850 4675 3850
Text Label 4675 3850 2    50   ~ 0
~HLDb
$Comp
L 74xx:74LS38 U30
U 1 1 5F82FCF4
P 4125 3500
F 0 "U30" H 4100 3500 50  0000 C CNN
F 1 "74LS38" H 4375 3625 50  0000 C CNN
F 2 "" H 4125 3500 50  0001 C CNN
F 3 "http://www.ti.com/lit/gpn/sn74LS38" H 4125 3500 50  0001 C CNN
	1    4125 3500
	1    0    0    -1  
$EndComp
$Comp
L 74xx:74LS38 U30
U 2 1 5F8315CB
P 4125 3175
F 0 "U30" H 4100 3175 50  0000 C CNN
F 1 "74LS38" H 4375 3300 50  0000 C CNN
F 2 "" H 4125 3175 50  0001 C CNN
F 3 "http://www.ti.com/lit/gpn/sn74LS38" H 4125 3175 50  0001 C CNN
	2    4125 3175
	1    0    0    -1  
$EndComp
$Comp
L 74xx:74LS38 U30
U 3 1 5F83218A
P 4125 2850
F 0 "U30" H 4100 2850 50  0000 C CNN
F 1 "74LS38" H 4375 2975 50  0000 C CNN
F 2 "" H 4125 2850 50  0001 C CNN
F 3 "http://www.ti.com/lit/gpn/sn74LS38" H 4125 2850 50  0001 C CNN
	3    4125 2850
	1    0    0    -1  
$EndComp
$Comp
L 74xx:74LS38 U30
U 4 1 5F83307D
P 4125 2525
F 0 "U30" H 4100 2525 50  0000 C CNN
F 1 "74LS38" H 4375 2650 50  0000 C CNN
F 2 "" H 4125 2525 50  0001 C CNN
F 3 "http://www.ti.com/lit/gpn/sn74LS38" H 4125 2525 50  0001 C CNN
	4    4125 2525
	1    0    0    -1  
$EndComp
Text Label 7450 3900 0    50   ~ 0
DS1
Text Label 7450 4000 0    50   ~ 0
DS2
Text Label 7450 4100 0    50   ~ 0
DS3
Text Label 4650 2525 2    50   ~ 0
DS1
Wire Wire Line
	4425 2525 4650 2525
Wire Wire Line
	4425 3500 4750 3500
Text Label 4650 3175 2    50   ~ 0
DS3
Text Label 4750 3500 2    50   ~ 0
MOT{slash}DS4
Text Label 4650 2850 2    50   ~ 0
DS2
Wire Wire Line
	4425 3175 4650 3175
Wire Wire Line
	4425 2850 4650 2850
Wire Wire Line
	3825 2625 3750 2625
Wire Wire Line
	3750 2625 3750 2750
Wire Wire Line
	3750 3600 3825 3600
Wire Wire Line
	3825 3275 3750 3275
Connection ~ 3750 3275
Wire Wire Line
	3750 3275 3750 3600
Wire Wire Line
	3825 2750 3750 2750
Connection ~ 3750 2750
Wire Wire Line
	3750 2750 3750 2875
Wire Wire Line
	3875 3850 3750 3850
Wire Wire Line
	3750 3850 3750 3600
Connection ~ 3750 3600
$Comp
L 74xx:74LS174 U13
U 1 1 5F85630C
P 2675 3400
F 0 "U13" H 2375 4050 50  0000 C CNN
F 1 "74LS174" H 2425 3950 50  0000 C CNN
F 2 "" H 2675 3400 50  0001 C CNN
F 3 "http://www.ti.com/lit/gpn/sn74LS174" H 2675 3400 50  0001 C CNN
	1    2675 3400
	1    0    0    -1  
$EndComp
$Comp
L power:+5V #PWR?
U 1 1 5F856C34
P 2675 2700
F 0 "#PWR?" H 2675 2550 50  0001 C CNN
F 1 "+5V" H 2675 2850 50  0000 C CNN
F 2 "" H 2675 2700 50  0001 C CNN
F 3 "" H 2675 2700 50  0001 C CNN
	1    2675 2700
	1    0    0    -1  
$EndComp
$Comp
L power:GND #PWR?
U 1 1 5F858B66
P 2675 4200
F 0 "#PWR?" H 2675 3950 50  0001 C CNN
F 1 "GND" H 2675 4050 50  0000 C CNN
F 2 "" H 2675 4200 50  0001 C CNN
F 3 "" H 2675 4200 50  0001 C CNN
	1    2675 4200
	1    0    0    -1  
$EndComp
Wire Wire Line
	3175 3000 3225 3000
Wire Wire Line
	3225 3000 3225 2425
Wire Wire Line
	3225 2425 3825 2425
Wire Wire Line
	3175 3100 3300 3100
Wire Wire Line
	3300 3100 3300 2950
Wire Wire Line
	3300 2950 3825 2950
Wire Wire Line
	3175 3200 3350 3200
Wire Wire Line
	3350 3200 3350 3075
Wire Wire Line
	3350 3075 3825 3075
Text Label 1775 1525 2    50   ~ 0
~RESET
Wire Wire Line
	1450 1525 1775 1525
Text Label 525  7400 0    50   ~ 0
~RESET
Text Label 1925 3900 0    50   ~ 0
~RESET
Wire Wire Line
	1925 3900 2175 3900
Wire Wire Line
	2175 3000 1925 3000
Wire Wire Line
	2175 3100 1925 3100
Wire Wire Line
	2175 3200 1925 3200
Wire Wire Line
	2175 3300 1925 3300
Wire Wire Line
	2175 3400 1925 3400
Wire Wire Line
	2175 3500 1925 3500
Wire Wire Line
	2175 3700 1925 3700
Text Label 1925 3500 0    50   ~ 0
D5
Text Label 1925 3200 0    50   ~ 0
D2
Text Label 1925 3100 0    50   ~ 0
D1
Text Label 1925 3300 0    50   ~ 0
D3
Text Label 1925 3400 0    50   ~ 0
D4
Text Label 1925 3000 0    50   ~ 0
D0
$Comp
L 74xx:74LS04 U11
U 1 1 5F85D1D6
P 3700 4500
F 0 "U11" H 3650 4500 50  0000 C CNN
F 1 "74LS04" H 3850 4625 50  0000 C CNN
F 2 "" H 3700 4500 50  0001 C CNN
F 3 "http://www.ti.com/lit/gpn/sn74LS04" H 3700 4500 50  0001 C CNN
	1    3700 4500
	1    0    0    -1  
$EndComp
$Comp
L 74xx:74LS04 U11
U 3 1 5F8650D2
P 3700 4175
F 0 "U11" H 3675 4175 50  0000 C CNN
F 1 "74LS04" H 3850 4300 50  0000 C CNN
F 2 "" H 3700 4175 50  0001 C CNN
F 3 "http://www.ti.com/lit/gpn/sn74LS04" H 3700 4175 50  0001 C CNN
	3    3700 4175
	1    0    0    -1  
$EndComp
Wire Wire Line
	3325 4175 3325 3400
Wire Wire Line
	3325 3400 3175 3400
Wire Wire Line
	3325 4175 3400 4175
Wire Wire Line
	3175 3500 3250 3500
Wire Wire Line
	3250 3500 3250 4500
Wire Wire Line
	3250 4500 3400 4500
Text Label 3750 4750 0    50   ~ 0
~DDEN
Text Label 2325 5900 2    50   ~ 0
~DDEN
$Comp
L 74xx:74LS153 U16
U 1 1 5F86F27E
P 5600 4300
F 0 "U16" H 5225 5250 50  0000 C CNN
F 1 "74LS153" H 5300 5150 50  0000 C CNN
F 2 "" H 5600 4300 50  0001 C CNN
F 3 "http://www.ti.com/lit/gpn/sn74LS153" H 5600 4300 50  0001 C CNN
	1    5600 4300
	1    0    0    -1  
$EndComp
Wire Wire Line
	4000 4175 4200 4175
Wire Wire Line
	5100 4300 4950 4300
Wire Wire Line
	4950 4300 4950 4400
Wire Wire Line
	4950 4400 5100 4400
Wire Wire Line
	5100 4500 5075 4500
Wire Wire Line
	5075 4500 5075 4600
Wire Wire Line
	5075 4600 5100 4600
Wire Wire Line
	4000 4500 4075 4500
Wire Wire Line
	4200 4175 4200 4750
Wire Wire Line
	4200 4750 3750 4750
$Comp
L 74xx:74LS93 U15
U 1 1 5F8714B2
P 4075 5925
F 0 "U15" H 3725 6350 50  0000 C CNN
F 1 "74LS93" H 3825 6275 50  0000 C CNN
F 2 "" H 4075 5925 50  0001 C CNN
F 3 "http://www.ti.com/lit/gpn/sn74LS93" H 4075 5925 50  0001 C CNN
	1    4075 5925
	1    0    0    -1  
$EndComp
Wire Wire Line
	3575 6025 3550 6025
Wire Wire Line
	3550 6025 3550 6125
Wire Wire Line
	3550 6125 3575 6125
Wire Wire Line
	3550 6125 3550 6275
Connection ~ 3550 6125
$Comp
L power:GND #PWR?
U 1 1 5F872FCA
P 3550 6275
F 0 "#PWR?" H 3550 6025 50  0001 C CNN
F 1 "GND" H 3550 6125 50  0000 C CNN
F 2 "" H 3550 6275 50  0001 C CNN
F 3 "" H 3550 6275 50  0001 C CNN
	1    3550 6275
	1    0    0    -1  
$EndComp
$Comp
L power:GND #PWR?
U 1 1 5F8732B3
P 4075 6425
F 0 "#PWR?" H 4075 6175 50  0001 C CNN
F 1 "GND" H 4075 6275 50  0000 C CNN
F 2 "" H 4075 6425 50  0001 C CNN
F 3 "" H 4075 6425 50  0001 C CNN
	1    4075 6425
	1    0    0    -1  
$EndComp
$Comp
L power:+5V #PWR?
U 1 1 5F873511
P 4075 5300
F 0 "#PWR?" H 4075 5150 50  0001 C CNN
F 1 "+5V" H 4075 5450 50  0000 C CNN
F 2 "" H 4075 5300 50  0001 C CNN
F 3 "" H 4075 5300 50  0001 C CNN
	1    4075 5300
	1    0    0    -1  
$EndComp
Wire Wire Line
	4575 6025 4950 6025
Wire Wire Line
	4950 6025 4950 4400
Connection ~ 4950 4400
Wire Wire Line
	4575 5925 4825 5925
Wire Wire Line
	4825 5925 4825 4600
Wire Wire Line
	4825 4600 5075 4600
Connection ~ 5075 4600
$Comp
L Connector_Generic:Conn_01x03 J3
U 1 1 5F875FB0
P 3425 5075
F 0 "J3" V 3600 5025 50  0000 L CNN
F 1 "?" V 3525 5050 50  0000 L CNN
F 2 "" H 3425 5075 50  0001 C CNN
F 3 "~" H 3425 5075 50  0001 C CNN
	1    3425 5075
	0    -1   -1   0   
$EndComp
Wire Wire Line
	3425 5825 3575 5825
Wire Wire Line
	3525 5725 3575 5725
Wire Wire Line
	4725 5350 4725 3800
Wire Wire Line
	4725 3800 5100 3800
Connection ~ 3425 5350
Wire Wire Line
	3425 5350 3425 5825
Wire Wire Line
	5100 3600 4975 3600
Wire Wire Line
	4975 3600 4975 3900
Wire Wire Line
	4975 3900 5100 3900
$Comp
L Connector_Generic:Conn_01x03 JL
U 1 1 5F87B9FC
P 8700 3825
F 0 "JL" V 8875 3775 50  0000 L CNN
F 1 "5/8" V 8800 3750 50  0000 L CNN
F 2 "" H 8700 3825 50  0001 C CNN
F 3 "~" H 8700 3825 50  0001 C CNN
	1    8700 3825
	0    1    -1   0   
$EndComp
Wire Wire Line
	3425 5350 4725 5350
Wire Wire Line
	4675 5725 4575 5725
Wire Wire Line
	3325 5275 3325 5400
Wire Wire Line
	3325 5400 4675 5400
Wire Wire Line
	4675 5400 4675 5725
Wire Wire Line
	4075 5300 4075 5425
Wire Wire Line
	4575 5825 4775 5825
Wire Wire Line
	4775 5825 4775 3900
Wire Wire Line
	4775 3900 4975 3900
Connection ~ 4975 3900
$Comp
L power:GND #PWR?
U 1 1 5F87F249
P 5600 5400
F 0 "#PWR?" H 5600 5150 50  0001 C CNN
F 1 "GND" H 5600 5250 50  0000 C CNN
F 2 "" H 5600 5400 50  0001 C CNN
F 3 "" H 5600 5400 50  0001 C CNN
	1    5600 5400
	1    0    0    -1  
$EndComp
$Comp
L power:GND #PWR?
U 1 1 5F87F57F
P 5050 4800
F 0 "#PWR?" H 5050 4550 50  0001 C CNN
F 1 "GND" H 5050 4650 50  0000 C CNN
F 2 "" H 5050 4800 50  0001 C CNN
F 3 "" H 5050 4800 50  0001 C CNN
	1    5050 4800
	1    0    0    -1  
$EndComp
Wire Wire Line
	5100 4800 5050 4800
$Comp
L power:GND #PWR?
U 1 1 5F880AD0
P 4950 4100
F 0 "#PWR?" H 4950 3850 50  0001 C CNN
F 1 "GND" H 4950 3950 50  0000 C CNN
F 2 "" H 4950 4100 50  0001 C CNN
F 3 "" H 4950 4100 50  0001 C CNN
	1    4950 4100
	1    0    0    -1  
$EndComp
Wire Wire Line
	4950 4100 5100 4100
Wire Wire Line
	5100 3700 5075 3700
Wire Wire Line
	5075 3700 5075 4500
Connection ~ 5075 4500
$Comp
L power:+5V #PWR?
U 1 1 5F881799
P 5600 3300
F 0 "#PWR?" H 5600 3150 50  0001 C CNN
F 1 "+5V" H 5600 3450 50  0000 C CNN
F 2 "" H 5600 3300 50  0001 C CNN
F 3 "" H 5600 3300 50  0001 C CNN
	1    5600 3300
	1    0    0    -1  
$EndComp
Text Label 2325 7100 2    50   ~ 0
CLK
Text Label 6275 4300 2    50   ~ 0
CLK
Wire Wire Line
	6275 4300 6100 4300
Text Label 1775 1625 2    50   ~ 0
~CS
Text Label 525  5800 0    50   ~ 0
~CS
Text Label 1775 1725 2    50   ~ 0
AB0
Text Label 1775 1825 2    50   ~ 0
AB1
Text Label 525  6000 0    50   ~ 0
AB0
Text Label 525  6100 0    50   ~ 0
AB1
Text Label 1775 1925 2    50   ~ 0
~RD
Text Label 1775 2025 2    50   ~ 0
~WR
Text Label 525  5700 0    50   ~ 0
~WR
Text Label 525  5900 0    50   ~ 0
~RD
$Comp
L 74xx:74LS367 U12
U 1 1 5F9B08AB
P 3725 1400
F 0 "U12" H 3400 2075 50  0000 C CNN
F 1 "74LS367" H 3450 1975 50  0000 C CNN
F 2 "" H 3725 1400 50  0001 C CNN
F 3 "http://www.ti.com/lit/gpn/sn74LS367" H 3725 1400 50  0001 C CNN
	1    3725 1400
	1    0    0    -1  
$EndComp
$Comp
L power:+5V #PWR?
U 1 1 5F9B238D
P 3725 700
F 0 "#PWR?" H 3725 550 50  0001 C CNN
F 1 "+5V" H 3725 850 50  0000 C CNN
F 2 "" H 3725 700 50  0001 C CNN
F 3 "" H 3725 700 50  0001 C CNN
	1    3725 700 
	1    0    0    -1  
$EndComp
$Comp
L power:GND #PWR?
U 1 1 5F9B26F1
P 3725 2100
F 0 "#PWR?" H 3725 1850 50  0001 C CNN
F 1 "GND" H 3725 1950 50  0000 C CNN
F 2 "" H 3725 2100 50  0001 C CNN
F 3 "" H 3725 2100 50  0001 C CNN
	1    3725 2100
	1    0    0    -1  
$EndComp
Text Label 2325 5700 2    50   ~ 0
INTRQ
Text Label 2975 1400 0    50   ~ 0
INTRQ
Wire Wire Line
	3225 1100 2975 1100
Wire Wire Line
	3225 1200 2975 1200
Wire Wire Line
	3225 1400 2975 1400
Wire Wire Line
	3225 1500 2975 1500
Wire Wire Line
	4475 1500 4225 1500
Wire Wire Line
	4475 1200 4225 1200
Wire Wire Line
	4475 1000 4225 1000
Text Label 4475 1400 2    50   ~ 0
INTRQb
Wire Wire Line
	4475 1100 4225 1100
Wire Wire Line
	4475 1400 4225 1400
Text Label 1775 2125 2    50   ~ 0
INTRQb
$Comp
L power:+5V #PWR?
U 1 1 5F9B6BC2
P 2450 6025
F 0 "#PWR?" H 2450 5875 50  0001 C CNN
F 1 "+5V" H 2450 6175 50  0000 C CNN
F 2 "" H 2450 6025 50  0001 C CNN
F 3 "" H 2450 6025 50  0001 C CNN
	1    2450 6025
	1    0    0    -1  
$EndComp
$Comp
L Device:R_Small R6
U 1 1 5F9B6BD0
P 2450 6125
F 0 "R6" H 2509 6171 50  0000 L CNN
F 1 "10k" H 2509 6080 50  0000 L CNN
F 2 "" H 2450 6125 50  0001 C CNN
F 3 "~" H 2450 6125 50  0001 C CNN
	1    2450 6125
	1    0    0    -1  
$EndComp
Wire Wire Line
	2450 6225 2450 6300
Wire Wire Line
	1925 6300 2450 6300
$Comp
L Device:R_Small R4
U 1 1 5F9B757E
P 2025 5525
F 0 "R4" H 2084 5571 50  0000 L CNN
F 1 "10k" H 2084 5480 50  0000 L CNN
F 2 "" H 2025 5525 50  0001 C CNN
F 3 "~" H 2025 5525 50  0001 C CNN
	1    2025 5525
	1    0    0    -1  
$EndComp
$Comp
L power:+5V #PWR?
U 1 1 5F9B758B
P 2025 5425
F 0 "#PWR?" H 2025 5275 50  0001 C CNN
F 1 "+5V" H 2025 5575 50  0000 C CNN
F 2 "" H 2025 5425 50  0001 C CNN
F 3 "" H 2025 5425 50  0001 C CNN
	1    2025 5425
	1    0    0    -1  
$EndComp
Wire Wire Line
	2025 5625 2025 5700
Connection ~ 2025 5700
Wire Wire Line
	2025 5700 1925 5700
Text Label 2650 5800 2    50   ~ 0
DRQ
Text Label 2975 1500 0    50   ~ 0
DRQ
Text Label 4475 1500 2    50   ~ 0
DRQb
Text Label 1775 2225 2    50   ~ 0
DRQb
$Comp
L power:+5V #PWR?
U 1 1 5F9B91DA
P 2425 5450
F 0 "#PWR?" H 2425 5300 50  0001 C CNN
F 1 "+5V" H 2425 5600 50  0000 C CNN
F 2 "" H 2425 5450 50  0001 C CNN
F 3 "" H 2425 5450 50  0001 C CNN
	1    2425 5450
	1    0    0    -1  
$EndComp
$Comp
L Device:R_Small R5
U 1 1 5F9B91E8
P 2425 5550
F 0 "R5" H 2484 5596 50  0000 L CNN
F 1 "10k" H 2484 5505 50  0000 L CNN
F 2 "" H 2425 5550 50  0001 C CNN
F 3 "~" H 2425 5550 50  0001 C CNN
	1    2425 5550
	1    0    0    -1  
$EndComp
Wire Wire Line
	2425 5650 2425 5800
Wire Wire Line
	1925 5800 2425 5800
Wire Wire Line
	2650 5800 2425 5800
Connection ~ 2425 5800
Text Label 2975 1100 0    50   ~ 0
DRQb
Text Label 4475 1100 2    50   ~ 0
D7
Text Label 4475 1200 2    50   ~ 0
D6
Text Label 4475 1000 2    50   ~ 0
D5
NoConn ~ 4225 1300
NoConn ~ 3225 1300
Wire Wire Line
	3750 2625 3750 2275
Connection ~ 3750 2625
Wire Wire Line
	3750 2275 2875 2275
Wire Wire Line
	2875 2275 2875 1000
Wire Wire Line
	2875 1000 3225 1000
Text Label 2975 1200 0    50   ~ 0
INTRQb
$Comp
L power:GND #PWR?
U 1 1 5F9FBD80
P 3200 1850
F 0 "#PWR?" H 3200 1600 50  0001 C CNN
F 1 "GND" H 3200 1700 50  0000 C CNN
F 2 "" H 3200 1850 50  0001 C CNN
F 3 "" H 3200 1850 50  0001 C CNN
	1    3200 1850
	1    0    0    -1  
$EndComp
Wire Wire Line
	3200 1850 3200 1800
Wire Wire Line
	3200 1800 3225 1800
Wire Wire Line
	3225 1700 2950 1700
Text Label 1925 3700 0    50   ~ 0
~DS_CLK
Text Label 1775 2425 2    50   ~ 0
~DS_CLK
Text Label 1775 2325 2    50   ~ 0
~OE_STAT
Text Label 2950 1700 0    50   ~ 0
~OE_STAT
Text Notes 3875 825  0    50   ~ 0
Status \nRegister
NoConn ~ 1925 7300
NoConn ~ 1325 7600
Wire Wire Line
	2325 7200 1925 7200
$Comp
L FLO3-rescue:74LS123-74xx U26
U 1 1 5FA65D71
P 7625 5825
F 0 "U26" H 7625 6292 50  0000 C CNN
F 1 "74LS123" H 7625 6201 50  0000 C CNN
F 2 "" H 7625 5825 50  0001 C CNN
F 3 "http://www.ti.com/lit/gpn/sn74LS123" H 7625 5825 50  0001 C CNN
	1    7625 5825
	-1   0    0    -1  
$EndComp
$Comp
L FLO3-rescue:74LS123-74xx U26
U 2 1 5FA6731E
P 4075 7225
F 0 "U26" H 4075 7692 50  0000 C CNN
F 1 "74LS123" H 4075 7601 50  0000 C CNN
F 2 "" H 4075 7225 50  0001 C CNN
F 3 "http://www.ti.com/lit/gpn/sn74LS123" H 4075 7225 50  0001 C CNN
	2    4075 7225
	1    0    0    -1  
$EndComp
NoConn ~ 7125 5625
NoConn ~ 4575 7025
Text Label 2325 7200 2    50   ~ 0
HLT
Text Label 4725 7425 2    50   ~ 0
HLT
Wire Wire Line
	4725 7425 4575 7425
$Comp
L power:+5V #PWR?
U 1 1 5FA7D639
P 3525 6750
F 0 "#PWR?" H 3525 6600 50  0001 C CNN
F 1 "+5V" H 3525 6900 50  0000 C CNN
F 2 "" H 3525 6750 50  0001 C CNN
F 3 "" H 3525 6750 50  0001 C CNN
	1    3525 6750
	1    0    0    -1  
$EndComp
Wire Wire Line
	3525 7425 3525 6775
Wire Wire Line
	3525 7425 3575 7425
Wire Wire Line
	3525 7425 3525 7750
Wire Wire Line
	3525 7750 4075 7750
Wire Wire Line
	4075 7750 4075 7725
Connection ~ 3525 7425
Wire Wire Line
	3575 7325 3075 7325
Text Label 3075 7325 0    50   ~ 0
~HLDb
$Comp
L Device:R_Small R12
U 1 1 5FA827D1
P 3175 6900
F 0 "R12" H 3234 6946 50  0000 L CNN
F 1 "1k" H 3234 6855 50  0000 L CNN
F 2 "" H 3175 6900 50  0001 C CNN
F 3 "~" H 3175 6900 50  0001 C CNN
	1    3175 6900
	1    0    0    -1  
$EndComp
Wire Wire Line
	3525 6775 3175 6775
Wire Wire Line
	3000 6925 3000 6950
Connection ~ 3525 6775
Wire Wire Line
	3525 6775 3525 6750
Wire Wire Line
	3000 7150 3000 7175
Wire Wire Line
	3175 7025 3575 7025
$Comp
L FLO3-rescue:C_Polarized_Small-Device C10
U 1 1 5FA84BB1
P 3175 7125
F 0 "C10" H 3263 7171 50  0000 L CNN
F 1 "10u" H 3263 7080 50  0000 L CNN
F 2 "" H 3175 7125 50  0001 C CNN
F 3 "~" H 3175 7125 50  0001 C CNN
	1    3175 7125
	1    0    0    -1  
$EndComp
Wire Wire Line
	3175 7225 3450 7225
Wire Wire Line
	3450 7225 3450 7125
Wire Wire Line
	3450 7125 3575 7125
Text Label 2325 6800 2    50   ~ 0
~FDAT
Text Label 6900 6025 0    50   ~ 0
~FDAT
Wire Wire Line
	6900 6025 7125 6025
Wire Wire Line
	8525 5625 8125 5625
Wire Wire Line
	8525 5825 8250 5825
Wire Wire Line
	8250 5825 8250 5725
Wire Wire Line
	8525 5600 8525 5625
$Comp
L power:+5V #PWR?
U 1 1 5FA8ADB5
P 8150 5325
F 0 "#PWR?" H 8150 5175 50  0001 C CNN
F 1 "+5V" H 8150 5475 50  0000 C CNN
F 2 "" H 8150 5325 50  0001 C CNN
F 3 "" H 8150 5325 50  0001 C CNN
	1    8150 5325
	-1   0    0    -1  
$EndComp
$Comp
L Device:R_Small R11
U 1 1 5FA8ADC5
P 8525 5500
F 0 "R11" H 8584 5546 50  0000 L CNN
F 1 "1k" H 8584 5455 50  0000 L CNN
F 2 "" H 8525 5500 50  0001 C CNN
F 3 "~" H 8525 5500 50  0001 C CNN
	1    8525 5500
	1    0    0    -1  
$EndComp
Wire Wire Line
	8250 5725 8125 5725
$Comp
L Device:C_Small C9
U 1 1 5FA8C6C1
P 8525 5725
F 0 "C9" H 8617 5771 50  0000 L CNN
F 1 "22p" H 8617 5680 50  0000 L CNN
F 2 "" H 8525 5725 50  0001 C CNN
F 3 "~" H 8525 5725 50  0001 C CNN
	1    8525 5725
	1    0    0    -1  
$EndComp
Wire Wire Line
	8125 6025 8150 6025
Connection ~ 8525 5625
Wire Wire Line
	7625 6325 7625 6350
Wire Wire Line
	7625 6350 8150 6350
Wire Wire Line
	8150 5325 8150 5375
Connection ~ 8150 6025
Wire Wire Line
	8525 5375 8150 5375
Wire Wire Line
	8525 5375 8525 5400
Connection ~ 8150 5375
Wire Wire Line
	8150 5375 8150 6025
Wire Wire Line
	8150 6025 8150 6350
Wire Wire Line
	8525 5925 8125 5925
$Comp
L my_ics:WD9216 U21
U 1 1 5FA99181
P 9275 6325
F 0 "U21" H 9150 6950 50  0000 C CNN
F 1 "WD9216" H 9250 6875 50  0000 C CNN
F 2 "" H 9275 6325 50  0001 C CNN
F 3 "" H 9275 6325 50  0001 C CNN
	1    9275 6325
	-1   0    0    -1  
$EndComp
$Comp
L power:GND #PWR?
U 1 1 5FA9A1C1
P 9025 6325
F 0 "#PWR?" H 9025 6075 50  0001 C CNN
F 1 "GND" H 9025 6175 50  0000 C CNN
F 2 "" H 9025 6325 50  0001 C CNN
F 3 "" H 9025 6325 50  0001 C CNN
	1    9025 6325
	-1   0    0    -1  
$EndComp
$Comp
L power:+5V #PWR?
U 1 1 5FA9B110
P 9025 5725
F 0 "#PWR?" H 9025 5575 50  0001 C CNN
F 1 "+5V" H 9025 5875 50  0000 C CNN
F 2 "" H 9025 5725 50  0001 C CNN
F 3 "" H 9025 5725 50  0001 C CNN
	1    9025 5725
	-1   0    0    -1  
$EndComp
Wire Wire Line
	8525 6025 8500 6025
Wire Wire Line
	8500 6025 8500 6125
Wire Wire Line
	8500 6125 8525 6125
$Comp
L power:GND #PWR?
U 1 1 5FA9C43C
P 8500 6150
F 0 "#PWR?" H 8500 5900 50  0001 C CNN
F 1 "GND" H 8500 6000 50  0000 C CNN
F 2 "" H 8500 6150 50  0001 C CNN
F 3 "" H 8500 6150 50  0001 C CNN
	1    8500 6150
	-1   0    0    -1  
$EndComp
Wire Wire Line
	8500 6150 8500 6125
Connection ~ 8500 6125
Text Label 2325 6900 2    50   ~ 0
FDCLK
Text Label 9850 6025 2    50   ~ 0
FDCLK
Wire Wire Line
	9850 6025 9525 6025
Wire Wire Line
	9600 6125 9525 6125
Wire Wire Line
	9850 5925 9525 5925
Text Label 7450 4900 0    50   ~ 0
~RDAT
Text Label 10850 5925 2    50   ~ 0
~RDAT
$Comp
L power:+5V #PWR?
U 1 1 5FAA18EB
P 10575 5650
F 0 "#PWR?" H 10575 5500 50  0001 C CNN
F 1 "+5V" H 10575 5800 50  0000 C CNN
F 2 "" H 10575 5650 50  0001 C CNN
F 3 "" H 10575 5650 50  0001 C CNN
	1    10575 5650
	-1   0    0    -1  
$EndComp
Wire Wire Line
	10575 5850 10575 5925
$Comp
L Device:R_Small R20
U 1 1 5FAA18FB
P 10575 5750
F 0 "R20" H 10634 5796 50  0000 L CNN
F 1 "220E" H 10634 5705 50  0000 L CNN
F 2 "" H 10575 5750 50  0001 C CNN
F 3 "~" H 10575 5750 50  0001 C CNN
	1    10575 5750
	1    0    0    -1  
$EndComp
Wire Wire Line
	10850 5925 10575 5925
Wire Wire Line
	10450 5925 10575 5925
Connection ~ 10575 5925
Wire Wire Line
	6100 3600 6325 3600
Wire Wire Line
	6325 6425 9600 6425
Wire Wire Line
	9600 6425 9600 6125
Wire Wire Line
	5100 5100 5075 5100
Wire Wire Line
	4075 5100 4075 4500
Wire Wire Line
	5100 5000 4200 5000
Wire Wire Line
	4200 5000 4200 4750
Connection ~ 4200 4750
Wire Wire Line
	6325 3600 6325 6425
Text Label 2325 6700 2    50   ~ 0
TG43
Text Label 6800 2700 0    50   ~ 0
TG43
Wire Wire Line
	6800 2700 7025 2700
NoConn ~ 7675 3400
$Comp
L power:GND #PWR?
U 1 1 5FAC2919
P 9625 5400
F 0 "#PWR?" H 9625 5150 50  0001 C CNN
F 1 "GND" H 9625 5250 50  0000 C CNN
F 2 "" H 9625 5400 50  0001 C CNN
F 3 "" H 9625 5400 50  0001 C CNN
	1    9625 5400
	1    0    0    -1  
$EndComp
$Comp
L power:+5V #PWR?
U 1 1 5FAC2947
P 9625 4000
F 0 "#PWR?" H 9625 3850 50  0001 C CNN
F 1 "+5V" H 9625 4150 50  0000 C CNN
F 2 "" H 9625 4000 50  0001 C CNN
F 3 "" H 9625 4000 50  0001 C CNN
	1    9625 4000
	1    0    0    -1  
$EndComp
Text Label 7450 4800 0    50   ~ 0
~WPROT
Text Label 8825 4700 0    50   ~ 0
~WPROT
Wire Wire Line
	9125 4300 9100 4300
Wire Wire Line
	9125 4400 9100 4400
Wire Wire Line
	9125 4600 8825 4600
Wire Wire Line
	9125 4700 8825 4700
Wire Wire Line
	9125 4800 9100 4800
Wire Wire Line
	9125 5000 9100 5000
Wire Wire Line
	9125 5100 9100 5100
Wire Wire Line
	10125 4500 10425 4500
Text Label 10425 4700 2    50   ~ 0
~WPROTb
Wire Wire Line
	10125 4700 10425 4700
Wire Wire Line
	10125 4600 10425 4600
Text Label 2325 6000 2    50   ~ 0
~WPROTb
$Comp
L power:+5V #PWR?
U 1 1 5FAC4E6F
P 10775 3575
F 0 "#PWR?" H 10775 3425 50  0001 C CNN
F 1 "+5V" H 10775 3725 50  0000 C CNN
F 2 "" H 10775 3575 50  0001 C CNN
F 3 "" H 10775 3575 50  0001 C CNN
	1    10775 3575
	-1   0    0    -1  
$EndComp
$Comp
L Device:R_Small R19
U 1 1 5FAC4E7D
P 10775 3675
F 0 "R19" H 10834 3721 50  0000 L CNN
F 1 "220E" H 10834 3630 50  0000 L CNN
F 2 "" H 10775 3675 50  0001 C CNN
F 3 "~" H 10775 3675 50  0001 C CNN
	1    10775 3675
	1    0    0    -1  
$EndComp
Text Label 10775 4100 1    50   ~ 0
~WPROT
Wire Wire Line
	10775 4100 10775 3775
Wire Wire Line
	10475 4100 10475 3775
$Comp
L power:+5V #PWR?
U 1 1 5FAC69BA
P 10475 3575
F 0 "#PWR?" H 10475 3425 50  0001 C CNN
F 1 "+5V" H 10475 3725 50  0000 C CNN
F 2 "" H 10475 3575 50  0001 C CNN
F 3 "" H 10475 3575 50  0001 C CNN
	1    10475 3575
	-1   0    0    -1  
$EndComp
$Comp
L Device:R_Small R15
U 1 1 5FAC69C8
P 10475 3675
F 0 "R15" H 10534 3721 50  0000 L CNN
F 1 "220E" H 10534 3630 50  0000 L CNN
F 2 "" H 10475 3675 50  0001 C CNN
F 3 "~" H 10475 3675 50  0001 C CNN
	1    10475 3675
	1    0    0    -1  
$EndComp
Wire Wire Line
	10175 4100 10175 3775
Text Label 10175 4100 1    50   ~ 0
~TRK0
$Comp
L Device:R_Small R18
U 1 1 5FAC75CA
P 10175 3675
F 0 "R18" H 10234 3721 50  0000 L CNN
F 1 "220E" H 10234 3630 50  0000 L CNN
F 2 "" H 10175 3675 50  0001 C CNN
F 3 "~" H 10175 3675 50  0001 C CNN
	1    10175 3675
	1    0    0    -1  
$EndComp
$Comp
L power:+5V #PWR?
U 1 1 5FAC75D7
P 10175 3575
F 0 "#PWR?" H 10175 3425 50  0001 C CNN
F 1 "+5V" H 10175 3725 50  0000 C CNN
F 2 "" H 10175 3575 50  0001 C CNN
F 3 "" H 10175 3575 50  0001 C CNN
	1    10175 3575
	-1   0    0    -1  
$EndComp
Text Label 7450 3600 0    50   ~ 0
~IDX8
Text Label 10475 4100 1    50   ~ 0
~IDX8
Text Label 8825 4600 0    50   ~ 0
~TRK0
Text Label 10425 4600 2    50   ~ 0
~TRK0b
Text Label 10425 4500 2    50   ~ 0
~IDXb
Text Label 7450 4700 0    50   ~ 0
~TRK0
$Comp
L 74xx:74LS367 U29
U 1 1 5FAC2936
P 9625 4700
F 0 "U29" H 9300 5375 50  0000 C CNN
F 1 "74LS367" H 9350 5275 50  0000 C CNN
F 2 "" H 9625 4700 50  0001 C CNN
F 3 "http://www.ti.com/lit/gpn/sn74LS367" H 9625 4700 50  0001 C CNN
	1    9625 4700
	1    0    0    -1  
$EndComp
Text Label 2325 6100 2    50   ~ 0
~IDXc
Text Label 2325 6200 2    50   ~ 0
~TRK0b
$Comp
L power:GND #PWR?
U 1 1 5FAD1477
P 9100 5150
F 0 "#PWR?" H 9100 4900 50  0001 C CNN
F 1 "GND" H 9100 5000 50  0000 C CNN
F 2 "" H 9100 5150 50  0001 C CNN
F 3 "" H 9100 5150 50  0001 C CNN
	1    9100 5150
	1    0    0    -1  
$EndComp
Wire Wire Line
	9100 5150 9100 5100
Wire Wire Line
	9100 5000 9100 4800
Connection ~ 9100 5000
Connection ~ 9100 4400
Wire Wire Line
	9100 4400 9100 4300
NoConn ~ 10125 4300
NoConn ~ 10125 4400
NoConn ~ 10125 4800
Connection ~ 9100 4800
Wire Wire Line
	9100 4800 9100 4400
Connection ~ 9100 5100
Wire Wire Line
	9100 5100 9100 5000
$Comp
L 74xx:74LS02 U9
U 4 1 5F8DFECD
P 6925 1575
F 0 "U9" H 6925 1575 50  0000 C CNN
F 1 "74LS02" H 6925 1775 50  0000 C CNN
F 2 "" H 6925 1575 50  0001 C CNN
F 3 "http://www.ti.com/lit/gpn/sn74ls02" H 6925 1575 50  0001 C CNN
	4    6925 1575
	1    0    0    -1  
$EndComp
Text Label 525  7300 0    50   ~ 0
LATE
Text Label 525  7200 0    50   ~ 0
EARLY
$Comp
L 74xx:74LS175 U22
U 1 1 5FB05FA3
P 7975 1375
F 0 "U22" H 7675 2025 50  0000 C CNN
F 1 "74LS175" H 7750 1950 50  0000 C CNN
F 2 "" H 7975 1375 50  0001 C CNN
F 3 "http://www.ti.com/lit/gpn/sn74LS175" H 7975 1375 50  0001 C CNN
	1    7975 1375
	1    0    0    -1  
$EndComp
$Comp
L power:+5V #PWR?
U 1 1 5FB06452
P 7975 675
F 0 "#PWR?" H 7975 525 50  0001 C CNN
F 1 "+5V" H 7975 825 50  0000 C CNN
F 2 "" H 7975 675 50  0001 C CNN
F 3 "" H 7975 675 50  0001 C CNN
	1    7975 675 
	1    0    0    -1  
$EndComp
$Comp
L power:GND #PWR?
U 1 1 5FB0645F
P 7975 2175
F 0 "#PWR?" H 7975 1925 50  0001 C CNN
F 1 "GND" H 7975 2025 50  0000 C CNN
F 2 "" H 7975 2175 50  0001 C CNN
F 3 "" H 7975 2175 50  0001 C CNN
	1    7975 2175
	1    0    0    -1  
$EndComp
Wire Wire Line
	7475 975  7100 975 
Wire Wire Line
	7475 1175 7100 1175
Wire Wire Line
	7475 1375 7400 1375
Wire Wire Line
	7475 1575 7225 1575
Wire Wire Line
	7475 1775 7100 1775
Wire Wire Line
	7475 1875 7450 1875
Wire Wire Line
	8625 1175 8475 1175
Wire Wire Line
	8550 1575 8475 1575
Text Label 7100 1175 0    50   ~ 0
LATE
Text Label 7100 975  0    50   ~ 0
EARLY
Text Label 6350 1675 0    50   ~ 0
EARLY
Text Label 6350 1475 0    50   ~ 0
LATE
Wire Wire Line
	6625 1475 6350 1475
Wire Wire Line
	6625 1675 6350 1675
Text Label 2325 6500 2    50   ~ 0
WD
Text Label 7100 1775 0    50   ~ 0
WD
NoConn ~ 8475 1075
NoConn ~ 8475 1275
NoConn ~ 8475 1475
NoConn ~ 8475 1675
Wire Wire Line
	8475 975  8875 975 
Wire Wire Line
	8875 1300 8625 1300
Wire Wire Line
	8625 1300 8625 1175
Wire Wire Line
	8875 1825 8550 1825
Wire Wire Line
	8550 1825 8550 1575
Wire Wire Line
	8625 1375 8475 1375
$Comp
L my_ics:WD2143 U17
U 1 1 5FB3DD2B
P 9425 2600
F 0 "U17" H 9050 3275 50  0000 C CNN
F 1 "WD2143" H 9150 3200 50  0000 C CNN
F 2 "" H 9025 2600 50  0001 C CNN
F 3 "" H 9025 2600 50  0001 C CNN
	1    9425 2600
	1    0    0    -1  
$EndComp
$Comp
L power:+5V #PWR?
U 1 1 5FB3FBF2
P 9425 1950
F 0 "#PWR?" H 9425 1800 50  0001 C CNN
F 1 "+5V" H 9425 2100 50  0000 C CNN
F 2 "" H 9425 1950 50  0001 C CNN
F 3 "" H 9425 1950 50  0001 C CNN
	1    9425 1950
	1    0    0    -1  
$EndComp
$Comp
L power:GND #PWR?
U 1 1 5FB4158C
P 9425 3100
F 0 "#PWR?" H 9425 2850 50  0001 C CNN
F 1 "GND" H 9425 2950 50  0000 C CNN
F 2 "" H 9425 3100 50  0001 C CNN
F 3 "" H 9425 3100 50  0001 C CNN
	1    9425 3100
	1    0    0    -1  
$EndComp
Wire Wire Line
	7450 1875 7450 2200
Wire Wire Line
	7450 2200 8925 2200
NoConn ~ 8925 2300
NoConn ~ 8925 2400
Wire Wire Line
	8925 2500 8775 2500
Wire Wire Line
	8775 2500 8775 1500
Wire Wire Line
	8775 1500 8875 1500
Wire Wire Line
	8925 2700 8850 2700
Wire Wire Line
	8850 2700 8850 1625
Wire Wire Line
	8850 1625 8875 1625
NoConn ~ 8925 2600
NoConn ~ 8925 2800
Wire Wire Line
	8925 2900 8700 2900
Wire Wire Line
	8700 2900 8700 1175
Wire Wire Line
	8700 1175 8875 1175
Wire Wire Line
	8625 3200 9900 3200
Wire Wire Line
	9900 3200 9900 2900
Wire Wire Line
	9900 2900 9875 2900
Wire Wire Line
	8625 1375 8625 3200
$Comp
L power:+12V #PWR?
U 1 1 5FB4670E
P 10050 2050
F 0 "#PWR?" H 10050 1900 50  0001 C CNN
F 1 "+12V" H 10050 2200 50  0000 C CNN
F 2 "" H 10050 2050 50  0001 C CNN
F 3 "" H 10050 2050 50  0001 C CNN
	1    10050 2050
	1    0    0    -1  
$EndComp
Wire Wire Line
	9875 2400 9900 2400
$Comp
L FLO3-rescue:R_Potentiometer-Device RV?
U 1 1 5FB47128
P 10050 2400
F 0 "RV?" H 9980 2446 50  0000 R CNN
F 1 "10k" H 9980 2355 50  0000 R CNN
F 2 "" H 10050 2400 50  0001 C CNN
F 3 "~" H 10050 2400 50  0001 C CNN
	1    10050 2400
	-1   0    0    -1  
$EndComp
$Comp
L Device:R_Small R?
U 1 1 5FB47AB9
P 10050 2150
F 0 "R?" H 10109 2196 50  0000 L CNN
F 1 "2k2" H 10109 2105 50  0000 L CNN
F 2 "" H 10050 2150 50  0001 C CNN
F 3 "~" H 10050 2150 50  0001 C CNN
	1    10050 2150
	1    0    0    -1  
$EndComp
$Comp
L power:GND #PWR?
U 1 1 5FB47F00
P 10050 2550
F 0 "#PWR?" H 10050 2300 50  0001 C CNN
F 1 "GND" H 10050 2400 50  0000 C CNN
F 2 "" H 10050 2550 50  0001 C CNN
F 3 "" H 10050 2550 50  0001 C CNN
	1    10050 2550
	1    0    0    -1  
$EndComp
NoConn ~ 9875 2500
NoConn ~ 9875 2600
NoConn ~ 9875 2700
NoConn ~ 9875 2800
Wire Wire Line
	9475 1075 9600 1075
Wire Wire Line
	9600 1075 9600 1400
Wire Wire Line
	9600 1725 9475 1725
Wire Wire Line
	9475 1400 9600 1400
Connection ~ 9600 1400
Wire Wire Line
	9600 1400 9600 1725
Wire Wire Line
	9600 1075 9875 1075
Text Label 9875 1075 2    50   ~ 0
~WD
Text Label 7450 4500 0    50   ~ 0
~WD
Text Label 7450 4600 0    50   ~ 0
~WG
Text Label 7375 4800 2    50   ~ 0
~WG
Wire Wire Line
	7375 4800 7200 4800
Wire Wire Line
	6600 4800 6425 4800
Text Label 6425 4800 0    50   ~ 0
WG
Text Label 2325 6600 2    50   ~ 0
WG
Wire Wire Line
	7200 4475 7400 4475
Text Label 7400 4475 2    50   ~ 0
~DIRQ
Text Label 7450 4300 0    50   ~ 0
~DIRQ
Wire Wire Line
	6600 4475 6375 4475
Text Label 6375 4475 0    50   ~ 0
DIRQ
Text Label 525  7100 0    50   ~ 0
DIRQ
Wire Wire Line
	7200 3900 7375 3900
Text Label 7375 3900 2    50   ~ 0
~STEP
Wire Wire Line
	6600 3900 6425 3900
Text Label 6425 3900 0    50   ~ 0
STEP
Text Label 7450 4400 0    50   ~ 0
~STEP
Text Label 525  7000 0    50   ~ 0
STEP
NoConn ~ 7675 5100
$Comp
L Connector_Generic:Conn_01x03 JL?
U 1 1 5FBBE8C8
P 3525 2650
F 0 "JL?" V 3700 2600 50  0000 L CNN
F 1 "MOT/DS4" V 3625 2475 50  0000 L CNN
F 2 "" H 3525 2650 50  0001 C CNN
F 3 "~" H 3525 2650 50  0001 C CNN
	1    3525 2650
	0    1    -1   0   
$EndComp
Wire Wire Line
	3825 3400 3525 3400
Wire Wire Line
	3525 3400 3525 2850
Wire Wire Line
	3625 2850 3625 2875
Wire Wire Line
	3625 2875 3750 2875
Connection ~ 3750 2875
Wire Wire Line
	3750 2875 3750 3275
Wire Wire Line
	3425 2850 3425 3300
Wire Wire Line
	3175 3300 3425 3300
$Comp
L Connector_Generic:Conn_01x02 J?
U 1 1 5FBBFFE4
P 6300 2750
F 0 "J?" H 6225 2925 50  0000 L CNN
F 1 "MOT CO." H 6125 2850 50  0000 L CNN
F 2 "" H 6300 2750 50  0001 C CNN
F 3 "~" H 6300 2750 50  0001 C CNN
	1    6300 2750
	1    0    0    -1  
$EndComp
$Comp
L power:GND #PWR?
U 1 1 5FBC03DF
P 6075 2900
F 0 "#PWR?" H 6075 2650 50  0001 C CNN
F 1 "GND" H 6075 2750 50  0000 C CNN
F 2 "" H 6075 2900 50  0001 C CNN
F 3 "" H 6075 2900 50  0001 C CNN
	1    6075 2900
	1    0    0    -1  
$EndComp
Wire Wire Line
	6075 2900 6075 2850
Wire Wire Line
	6075 2850 6100 2850
Wire Wire Line
	5700 2750 6100 2750
Text Label 5850 1225 1    50   ~ 0
~IDXb
Wire Wire Line
	5850 975  5850 1225
Text Label 5950 1225 1    50   ~ 0
~IDXc
Wire Wire Line
	5950 975  5950 1225
Wire Wire Line
	5950 1550 6050 1550
Wire Wire Line
	6050 975  6050 1550
Wire Wire Line
	5350 1550 5225 1550
$Comp
L Device:R_Small R?
U 1 1 5FBD4238
P 5225 1375
F 0 "R?" H 5284 1421 50  0000 L CNN
F 1 "1k" H 5284 1330 50  0000 L CNN
F 2 "" H 5225 1375 50  0001 C CNN
F 3 "~" H 5225 1375 50  0001 C CNN
	1    5225 1375
	1    0    0    -1  
$EndComp
$Comp
L power:+5V #PWR?
U 1 1 5FBD4245
P 5225 1275
F 0 "#PWR?" H 5225 1125 50  0001 C CNN
F 1 "+5V" H 5225 1425 50  0000 C CNN
F 2 "" H 5225 1275 50  0001 C CNN
F 3 "" H 5225 1275 50  0001 C CNN
	1    5225 1275
	-1   0    0    -1  
$EndComp
Wire Wire Line
	5225 1475 5225 1550
Connection ~ 5225 1550
$Comp
L Connector_Generic:Conn_01x03 J2
U 1 1 5FBD6163
P 5175 5500
F 0 "J2" V 5350 5450 50  0000 L CNN
F 1 "?" V 5275 5475 50  0000 L CNN
F 2 "" H 5175 5500 50  0001 C CNN
F 3 "~" H 5175 5500 50  0001 C CNN
	1    5175 5500
	0    -1   -1   0   
$EndComp
$Comp
L power:+5V #PWR?
U 1 1 5FBD8B69
P 5225 6000
F 0 "#PWR?" H 5225 5850 50  0001 C CNN
F 1 "+5V" H 5225 6150 50  0000 C CNN
F 2 "" H 5225 6000 50  0001 C CNN
F 3 "" H 5225 6000 50  0001 C CNN
	1    5225 6000
	1    0    0    -1  
$EndComp
Wire Wire Line
	5225 6200 5225 6275
Wire Wire Line
	5125 6275 5225 6275
$Comp
L Device:R_Small R?
U 1 1 5FBD8B7A
P 5225 6100
F 0 "R?" H 5284 6146 50  0000 L CNN
F 1 "1k" H 5284 6055 50  0000 L CNN
F 2 "" H 5225 6100 50  0001 C CNN
F 3 "~" H 5225 6100 50  0001 C CNN
	1    5225 6100
	1    0    0    -1  
$EndComp
Wire Wire Line
	5400 6275 5225 6275
Connection ~ 5225 6275
Wire Wire Line
	5175 5700 5175 5800
Wire Wire Line
	5175 5800 5125 5800
Wire Wire Line
	5125 5800 5125 6275
Wire Wire Line
	5275 5700 5275 5750
Wire Wire Line
	5275 5750 5350 5750
Wire Wire Line
	5350 5750 5350 5250
Wire Wire Line
	5350 5250 5075 5250
Wire Wire Line
	5075 5250 5075 5100
Connection ~ 5075 5100
Wire Wire Line
	4075 5100 5075 5100
Wire Wire Line
	5125 6275 4825 6275
Connection ~ 5125 6275
Text Label 4825 6275 0    50   ~ 0
U25_10
$Comp
L power:GND #PWR?
U 1 1 5FBDB98B
P 5025 5725
F 0 "#PWR?" H 5025 5475 50  0001 C CNN
F 1 "GND" H 5025 5575 50  0000 C CNN
F 2 "" H 5025 5725 50  0001 C CNN
F 3 "" H 5025 5725 50  0001 C CNN
	1    5025 5725
	1    0    0    -1  
$EndComp
Wire Wire Line
	5025 5725 5075 5725
Wire Wire Line
	5075 5725 5075 5700
Wire Wire Line
	5075 5500 5075 5425
Wire Wire Line
	5075 5425 5175 5425
Wire Wire Line
	5175 5425 5175 5500
Wire Wire Line
	3525 5075 3525 5000
Wire Wire Line
	3525 5000 3425 5000
Wire Wire Line
	3425 5000 3425 5075
Wire Wire Line
	3525 5275 3525 5300
Wire Wire Line
	3425 5275 3425 5350
Text Label 8800 4250 1    50   ~ 0
~IDX8
Wire Wire Line
	8800 4250 8800 4025
Wire Wire Line
	8700 4500 8700 4025
Wire Wire Line
	8700 4500 9125 4500
Wire Wire Line
	7350 3525 7050 3525
Wire Wire Line
	7350 3225 7350 3525
$Comp
L Connector_Generic:Conn_02x17_Odd_Even J?
U 1 1 5F89CFBD
P 10825 1550
F 0 "J?" H 10875 2567 50  0000 C CNN
F 1 "Conn_02x17_Odd_Even" H 10875 2476 50  0000 C CNN
F 2 "" H 10825 1550 50  0001 C CNN
F 3 "~" H 10825 1550 50  0001 C CNN
	1    10825 1550
	-1   0    0    -1  
$EndComp
$Comp
L power:GND #PWR?
U 1 1 5F8A75FF
P 11125 2425
F 0 "#PWR?" H 11125 2175 50  0001 C CNN
F 1 "GND" H 11125 2275 50  0000 C CNN
F 2 "" H 11125 2425 50  0001 C CNN
F 3 "" H 11125 2425 50  0001 C CNN
	1    11125 2425
	1    0    0    -1  
$EndComp
Wire Wire Line
	11025 750  11125 750 
Wire Wire Line
	11125 750  11125 850 
Wire Wire Line
	11025 850  11125 850 
Connection ~ 11125 850 
Wire Wire Line
	11125 850  11125 950 
Wire Wire Line
	11025 950  11125 950 
Connection ~ 11125 950 
Wire Wire Line
	11125 950  11125 1050
Wire Wire Line
	11025 1050 11125 1050
Connection ~ 11125 1050
Wire Wire Line
	11125 1050 11125 1150
Wire Wire Line
	11025 1150 11125 1150
Connection ~ 11125 1150
Wire Wire Line
	11125 1150 11125 1250
Wire Wire Line
	11025 1250 11125 1250
Connection ~ 11125 1250
Wire Wire Line
	11125 1250 11125 1350
Wire Wire Line
	11025 1350 11125 1350
Connection ~ 11125 1350
Wire Wire Line
	11125 1350 11125 1450
Wire Wire Line
	11025 1450 11125 1450
Connection ~ 11125 1450
Wire Wire Line
	11125 1450 11125 1550
Wire Wire Line
	11025 1550 11125 1550
Connection ~ 11125 1550
Wire Wire Line
	11125 1550 11125 1650
Wire Wire Line
	11025 1650 11125 1650
Connection ~ 11125 1650
Wire Wire Line
	11125 1650 11125 1750
Wire Wire Line
	11025 1750 11125 1750
Connection ~ 11125 1750
Wire Wire Line
	11125 1750 11125 1850
Wire Wire Line
	11025 1850 11125 1850
Connection ~ 11125 1850
Wire Wire Line
	11125 1850 11125 1950
Wire Wire Line
	11025 1950 11125 1950
Connection ~ 11125 1950
Wire Wire Line
	11125 1950 11125 2050
Wire Wire Line
	11025 2050 11125 2050
Connection ~ 11125 2050
Wire Wire Line
	11125 2050 11125 2150
Wire Wire Line
	11025 2150 11125 2150
Connection ~ 11125 2150
Wire Wire Line
	11125 2150 11125 2250
Wire Wire Line
	11025 2250 11125 2250
Connection ~ 11125 2250
Wire Wire Line
	11125 2250 11125 2350
Wire Wire Line
	11025 2350 11125 2350
Connection ~ 11125 2350
Wire Wire Line
	11125 2350 11125 2425
Wire Wire Line
	10525 750  10250 750 
Wire Wire Line
	10525 950  10250 950 
Wire Wire Line
	10525 1150 10250 1150
Wire Wire Line
	10525 1250 10250 1250
Wire Wire Line
	10525 1350 10250 1350
Wire Wire Line
	10525 1450 10050 1450
Wire Wire Line
	10525 1550 10250 1550
Wire Wire Line
	10525 1650 10250 1650
Wire Wire Line
	10525 1750 10250 1750
Wire Wire Line
	10525 1850 10250 1850
Wire Wire Line
	10525 1950 10250 1950
Wire Wire Line
	10525 2050 10250 2050
Wire Wire Line
	10525 2150 10250 2150
Wire Wire Line
	10525 2250 10250 2250
Text Label 10250 2150 0    50   ~ 0
~RDAT
Text Label 10250 2050 0    50   ~ 0
~WPROT
Text Label 10250 1950 0    50   ~ 0
~TRK0
Text Label 10250 1850 0    50   ~ 0
~WG
Text Label 10250 1750 0    50   ~ 0
~WD
Text Label 10250 1650 0    50   ~ 0
~STEP
Text Label 10250 1550 0    50   ~ 0
~DIRQ
Text Label 10250 1350 0    50   ~ 0
DS3
Text Label 10250 1250 0    50   ~ 0
DS2
Text Label 10250 1150 0    50   ~ 0
DS1
Connection ~ 9600 1075
Wire Wire Line
	10250 1050 10525 1050
Text Label 7450 3800 0    50   ~ 0
~IDX5
Text Label 8600 4250 1    50   ~ 0
~IDX5
Wire Wire Line
	8600 4025 8600 4250
Wire Wire Line
	7450 3800 7675 3800
Text Label 10250 1050 0    50   ~ 0
~IDX5
Text Label 5700 2750 0    50   ~ 0
MOT{slash}DS4
Text Label 7250 4200 0    50   ~ 0
MOT{slash}DS4
Text Label 10050 1450 0    50   ~ 0
MOT{slash}DS4
Text Label 10250 2250 0    50   ~ 0
SIDE
Text Label 7450 5000 0    50   ~ 0
SIDE
$Comp
L Connector_Generic:Conn_02x07_Counter_Clockwise U25
U 1 1 5F8BCBCD
P 5225 2400
F 0 "U25" H 5275 2917 50  0000 C CNN
F 1 "X" H 5275 2826 50  0000 C CNN
F 2 "" H 5225 2400 50  0001 C CNN
F 3 "~" H 5225 2400 50  0001 C CNN
	1    5225 2400
	1    0    0    -1  
$EndComp
$Comp
L power:GND #PWR?
U 1 1 5F8BD574
P 5025 2700
F 0 "#PWR?" H 5025 2450 50  0001 C CNN
F 1 "GND" H 5025 2550 50  0000 C CNN
F 2 "" H 5025 2700 50  0001 C CNN
F 3 "" H 5025 2700 50  0001 C CNN
	1    5025 2700
	1    0    0    -1  
$EndComp
$Comp
L power:+5V #PWR?
U 1 1 5F8BD98E
P 5525 2100
F 0 "#PWR?" H 5525 1950 50  0001 C CNN
F 1 "+5V" H 5525 2250 50  0000 C CNN
F 2 "" H 5525 2100 50  0001 C CNN
F 3 "" H 5525 2100 50  0001 C CNN
	1    5525 2100
	1    0    0    -1  
$EndComp
Wire Wire Line
	5025 2200 5000 2200
Wire Wire Line
	5000 2200 5000 2400
Wire Wire Line
	5000 2400 5025 2400
Wire Wire Line
	5025 2600 4925 2600
Wire Wire Line
	4925 2600 4925 2900
Wire Wire Line
	4925 2900 5550 2900
Wire Wire Line
	5550 2900 5550 2700
Wire Wire Line
	5550 2700 5525 2700
Wire Wire Line
	4925 2600 4925 1550
Wire Wire Line
	4925 1550 5225 1550
Connection ~ 4925 2600
Wire Wire Line
	5525 2500 5825 2500
Text Label 5825 2500 2    50   ~ 0
U25_10
Text Label 6250 6275 2    50   ~ 0
U25_2
Wire Wire Line
	6000 6275 6250 6275
Text Label 4675 2200 0    50   ~ 0
U25_2
Wire Wire Line
	4675 2200 5000 2200
Connection ~ 5000 2200
Text Label 4675 2100 0    50   ~ 0
~XTDS
Wire Wire Line
	4675 2100 5025 2100
Text Label 4675 2300 0    50   ~ 0
SIDE
Wire Wire Line
	5025 2300 4675 2300
Text Label 7050 3525 0    50   ~ 0
SIDE
Text Label 8825 4500 0    50   ~ 0
~IDX
Text Label 4725 2500 0    50   ~ 0
~IDX
Wire Wire Line
	4725 2500 5025 2500
Text Label 5825 2600 2    50   ~ 0
~IDX8
Wire Wire Line
	5825 2600 5525 2600
Wire Wire Line
	5525 2300 5850 2300
Wire Wire Line
	5850 2300 5850 1800
Wire Wire Line
	5850 1800 4100 1800
Wire Wire Line
	4100 1800 4100 2275
Wire Wire Line
	4100 2275 3750 2275
Connection ~ 3750 2275
Wire Wire Line
	3425 3300 3425 3950
Wire Wire Line
	3425 3950 4125 3950
Wire Wire Line
	4125 3950 4125 4075
Wire Wire Line
	4125 4075 4700 4075
Wire Wire Line
	4700 4075 4700 3550
Wire Wire Line
	4700 3550 5050 3550
Wire Wire Line
	5050 3550 5050 3100
Wire Wire Line
	5050 3100 6475 3100
Wire Wire Line
	6475 3100 6475 2200
Wire Wire Line
	6475 2200 5525 2200
Connection ~ 3425 3300
Wire Wire Line
	5525 2400 5875 2400
$Comp
L Connector:Conn_01x01_Female J?
U 1 1 5F8C50E1
P 6075 2400
F 0 "J?" H 6103 2426 50  0000 L CNN
F 1 "." H 6103 2335 50  0000 L CNN
F 2 "" H 6075 2400 50  0001 C CNN
F 3 "~" H 6075 2400 50  0001 C CNN
	1    6075 2400
	1    0    0    -1  
$EndComp
$Sheet
S 1950 725  500  550 
U 5FAD65BF
F0 "Power" 50
F1 "Power.sch" 50
$EndSheet
$Comp
L power:+5V #PWR?
U 1 1 5F8CDAB0
P 7400 1350
F 0 "#PWR?" H 7400 1200 50  0001 C CNN
F 1 "+5V" H 7400 1500 50  0000 C CNN
F 2 "" H 7400 1350 50  0001 C CNN
F 3 "" H 7400 1350 50  0001 C CNN
	1    7400 1350
	1    0    0    -1  
$EndComp
Wire Wire Line
	7400 1350 7400 1375
Text Label 10250 750  0    50   ~ 0
~HLDb
Wire Wire Line
	10525 850  10250 850 
Text Label 10250 850  0    50   ~ 0
DS4
Wire Wire Line
	10525 2350 10300 2350
Text Label 10250 950  0    50   ~ 0
~RDY
Text Notes 10300 2700 0    50   ~ 0
~RDY~ \nshould be on Pin 34
$Comp
L Device:Crystal_Small Y?
U 1 1 5F8B1548
P 1300 4625
F 0 "Y?" H 1300 4850 50  0000 C CNN
F 1 "8M" H 1300 4759 50  0000 C CNN
F 2 "" H 1300 4625 50  0001 C CNN
F 3 "~" H 1300 4625 50  0001 C CNN
	1    1300 4625
	1    0    0    -1  
$EndComp
$Comp
L 74xx:74LS04 U14
U 5 1 5EF26661
P 2400 4625
F 0 "U14" H 2400 4942 50  0000 C CNN
F 1 "74LS04" H 2400 4851 50  0000 C CNN
F 2 "" H 2400 4625 50  0001 C CNN
F 3 "http://www.ti.com/lit/gpn/sn74LS04" H 2400 4625 50  0001 C CNN
	5    2400 4625
	1    0    0    -1  
$EndComp
Connection ~ 1175 4625
$Comp
L 74xx:74LS04 U14
U 1 1 5EF27175
P 850 4625
F 0 "U14" H 800 4625 50  0000 C CNN
F 1 "74LS04" H 950 4750 50  0000 C CNN
F 2 "" H 850 4625 50  0001 C CNN
F 3 "http://www.ti.com/lit/gpn/sn74LS04" H 850 4625 50  0001 C CNN
	1    850  4625
	1    0    0    -1  
$EndComp
$Comp
L Device:R_Small R1
U 1 1 5EF2C226
P 900 4950
F 0 "R1" V 704 4950 50  0000 C CNN
F 1 "470E" V 795 4950 50  0000 C CNN
F 2 "" H 900 4950 50  0001 C CNN
F 3 "~" H 900 4950 50  0001 C CNN
	1    900  4950
	0    1    1    0   
$EndComp
Wire Wire Line
	1450 4625 1425 4625
$Comp
L Device:C_Small C?
U 1 1 5EF2C81A
P 1300 5100
F 0 "C?" V 1071 5100 50  0000 C CNN
F 1 "10n" V 1162 5100 50  0000 C CNN
F 2 "" H 1300 5100 50  0001 C CNN
F 3 "~" H 1300 5100 50  0001 C CNN
	1    1300 5100
	0    1    1    0   
$EndComp
Wire Wire Line
	1150 4625 1175 4625
Wire Wire Line
	1000 4950 1175 4950
Wire Wire Line
	1175 4950 1175 4625
Connection ~ 2075 4950
Wire Wire Line
	1175 4625 1200 4625
Wire Wire Line
	800  4950 525  4950
Wire Wire Line
	525  4950 525  4625
Wire Wire Line
	525  4625 550  4625
Wire Wire Line
	2075 4950 2075 4625
$Comp
L Device:R_Small R2
U 1 1 5EF32BEB
P 1800 4950
F 0 "R2" V 1604 4950 50  0000 C CNN
F 1 "1k" V 1695 4950 50  0000 C CNN
F 2 "" H 1800 4950 50  0001 C CNN
F 3 "~" H 1800 4950 50  0001 C CNN
	1    1800 4950
	0    1    1    0   
$EndComp
Wire Wire Line
	1900 4950 2075 4950
Wire Wire Line
	1425 4950 1425 4625
Wire Wire Line
	1700 4950 1425 4950
Connection ~ 1425 4625
Wire Wire Line
	1425 4625 1400 4625
Wire Wire Line
	2050 4625 2075 4625
Wire Wire Line
	1400 5100 2075 5100
Wire Wire Line
	2075 5100 2075 4950
Wire Wire Line
	1200 5100 525  5100
Wire Wire Line
	525  5100 525  4950
Connection ~ 525  4950
Connection ~ 2075 4625
$Comp
L 74xx:74LS04 U?
U 6 1 5F8BB627
P 1750 4625
F 0 "U?" H 1750 4942 50  0000 C CNN
F 1 "74LS04" H 1750 4851 50  0000 C CNN
F 2 "" H 1750 4625 50  0001 C CNN
F 3 "http://www.ti.com/lit/gpn/sn74LS04" H 1750 4625 50  0001 C CNN
	6    1750 4625
	1    0    0    -1  
$EndComp
Wire Wire Line
	2075 4625 2100 4625
$Comp
L 74xx:74LS04 U14
U 4 1 5F8CB529
P 3000 4625
F 0 "U14" H 3000 4942 50  0000 C CNN
F 1 "74LS04" H 3000 4851 50  0000 C CNN
F 2 "" H 3000 4625 50  0001 C CNN
F 3 "http://www.ti.com/lit/gpn/sn74LS04" H 3000 4625 50  0001 C CNN
	4    3000 4625
	1    0    0    -1  
$EndComp
Wire Wire Line
	3300 4625 3375 4625
Wire Wire Line
	3375 4625 3375 4825
Wire Wire Line
	3375 4825 3650 4825
Wire Wire Line
	3650 4825 3650 5300
Wire Wire Line
	3650 5300 3525 5300
Connection ~ 3525 5300
Wire Wire Line
	3525 5300 3525 5725
Text Label 3650 4825 2    50   ~ 0
8M
Text Label 4675 5825 2    50   ~ 0
4M
Text Label 4675 5925 2    50   ~ 0
2M
Text Label 4675 6025 2    50   ~ 0
1M
Text Notes 4675 5525 2    50   ~ 0
also 4MHz
Text Label 4825 3800 0    50   ~ 0
8M
Text Label 4825 3900 0    50   ~ 0
4M
Text Label 4825 4600 0    50   ~ 0
2M
Text Label 4950 4725 2    50   ~ 0
1M
$EndSCHEMATC
