EESchema Schematic File Version 5
EELAYER 30 0
EELAYER END
$Descr A4 11693 8268
encoding utf-8
Sheet 3 3
Title ""
Date ""
Rev ""
Comp ""
Comment1 ""
Comment2 ""
Comment3 ""
Comment4 ""
Comment5 ""
Comment6 ""
Comment7 ""
Comment8 ""
Comment9 ""
$EndDescr
$Comp
L power:+5V #PWR?
U 1 1 5FA694CA
P 2650 6450
F 0 "#PWR?" H 2650 6300 50  0001 C CNN
F 1 "+5V" H 2650 6600 50  0000 C CNN
F 2 "" H 2650 6450 50  0001 C CNN
F 3 "" H 2650 6450 50  0001 C CNN
	1    2650 6450
	1    0    0    -1  
$EndComp
$Comp
L 74xx:74LS06 U28
U 7 1 5F7F5C65
P 3075 6950
F 0 "U28" H 2975 6975 50  0000 L CNN
F 1 "74LS06" H 2925 6900 50  0000 L CNN
F 2 "" H 3075 6950 50  0001 C CNN
F 3 "http://www.ti.com/lit/gpn/sn74LS06" H 3075 6950 50  0001 C CNN
	7    3075 6950
	1    0    0    -1  
$EndComp
$Comp
L 74xx:74LS38 U30
U 5 1 5F833B6B
P 3500 6950
F 0 "U30" H 3400 6975 50  0000 L CNN
F 1 "74LS38" H 3350 6900 50  0000 L CNN
F 2 "" H 3500 6950 50  0001 C CNN
F 3 "http://www.ti.com/lit/gpn/sn74LS38" H 3500 6950 50  0001 C CNN
	5    3500 6950
	1    0    0    -1  
$EndComp
$Comp
L power:GND #PWR?
U 1 1 5FA6991A
P 2650 7450
F 0 "#PWR?" H 2650 7200 50  0001 C CNN
F 1 "GND" H 2650 7300 50  0000 C CNN
F 2 "" H 2650 7450 50  0001 C CNN
F 3 "" H 2650 7450 50  0001 C CNN
	1    2650 7450
	1    0    0    -1  
$EndComp
$Comp
L 74xx:74LS04 U27
U 7 1 5F81E8EE
P 1800 6950
F 0 "U27" H 1700 6975 50  0000 L CNN
F 1 "74LS04" H 1650 6900 50  0000 L CNN
F 2 "" H 1800 6950 50  0001 C CNN
F 3 "http://www.ti.com/lit/gpn/sn74LS04" H 1800 6950 50  0001 C CNN
	7    1800 6950
	1    0    0    -1  
$EndComp
$Comp
L 74xx:74LS04 U11
U 7 1 5F85C47C
P 1375 6950
F 0 "U11" H 1275 6975 50  0000 L CNN
F 1 "74LS04" H 1225 6900 50  0000 L CNN
F 2 "" H 1375 6950 50  0001 C CNN
F 3 "http://www.ti.com/lit/gpn/sn74LS04" H 1375 6950 50  0001 C CNN
	7    1375 6950
	1    0    0    -1  
$EndComp
$Comp
L power:+5V #PWR?
U 1 1 5FA7A71C
P 1800 6450
F 0 "#PWR?" H 1800 6300 50  0001 C CNN
F 1 "+5V" H 1800 6600 50  0000 C CNN
F 2 "" H 1800 6450 50  0001 C CNN
F 3 "" H 1800 6450 50  0001 C CNN
	1    1800 6450
	1    0    0    -1  
$EndComp
$Comp
L 74xx:74LS38 U23
U 5 1 5F80142C
P 2225 6950
F 0 "U23" H 2125 6975 50  0000 L CNN
F 1 "74LS38" H 2075 6900 50  0000 L CNN
F 2 "" H 2225 6950 50  0001 C CNN
F 3 "http://www.ti.com/lit/gpn/sn74LS38" H 2225 6950 50  0001 C CNN
	5    2225 6950
	1    0    0    -1  
$EndComp
$Comp
L power:GND #PWR?
U 1 1 5FA79E5D
P 1375 7450
F 0 "#PWR?" H 1375 7200 50  0001 C CNN
F 1 "GND" H 1375 7300 50  0000 C CNN
F 2 "" H 1375 7450 50  0001 C CNN
F 3 "" H 1375 7450 50  0001 C CNN
	1    1375 7450
	1    0    0    -1  
$EndComp
$Comp
L power:+5V #PWR?
U 1 1 5FA79E50
P 1375 6450
F 0 "#PWR?" H 1375 6300 50  0001 C CNN
F 1 "+5V" H 1375 6600 50  0000 C CNN
F 2 "" H 1375 6450 50  0001 C CNN
F 3 "" H 1375 6450 50  0001 C CNN
	1    1375 6450
	1    0    0    -1  
$EndComp
$Comp
L power:+5V #PWR?
U 1 1 5FA7B399
P 3075 6450
F 0 "#PWR?" H 3075 6300 50  0001 C CNN
F 1 "+5V" H 3075 6600 50  0000 C CNN
F 2 "" H 3075 6450 50  0001 C CNN
F 3 "" H 3075 6450 50  0001 C CNN
	1    3075 6450
	1    0    0    -1  
$EndComp
$Comp
L power:GND #PWR?
U 1 1 5FA7B988
P 3500 7450
F 0 "#PWR?" H 3500 7200 50  0001 C CNN
F 1 "GND" H 3500 7300 50  0000 C CNN
F 2 "" H 3500 7450 50  0001 C CNN
F 3 "" H 3500 7450 50  0001 C CNN
	1    3500 7450
	1    0    0    -1  
$EndComp
$Comp
L power:GND #PWR?
U 1 1 5FA7ACBD
P 2225 7450
F 0 "#PWR?" H 2225 7200 50  0001 C CNN
F 1 "GND" H 2225 7300 50  0000 C CNN
F 2 "" H 2225 7450 50  0001 C CNN
F 3 "" H 2225 7450 50  0001 C CNN
	1    2225 7450
	1    0    0    -1  
$EndComp
$Comp
L power:+5V #PWR?
U 1 1 5FA7B97B
P 3500 6450
F 0 "#PWR?" H 3500 6300 50  0001 C CNN
F 1 "+5V" H 3500 6600 50  0000 C CNN
F 2 "" H 3500 6450 50  0001 C CNN
F 3 "" H 3500 6450 50  0001 C CNN
	1    3500 6450
	1    0    0    -1  
$EndComp
$Comp
L power:GND #PWR?
U 1 1 5FA7A70F
P 1800 7450
F 0 "#PWR?" H 1800 7200 50  0001 C CNN
F 1 "GND" H 1800 7300 50  0000 C CNN
F 2 "" H 1800 7450 50  0001 C CNN
F 3 "" H 1800 7450 50  0001 C CNN
	1    1800 7450
	1    0    0    -1  
$EndComp
$Comp
L power:GND #PWR?
U 1 1 5FA7B38C
P 3075 7450
F 0 "#PWR?" H 3075 7200 50  0001 C CNN
F 1 "GND" H 3075 7300 50  0000 C CNN
F 2 "" H 3075 7450 50  0001 C CNN
F 3 "" H 3075 7450 50  0001 C CNN
	1    3075 7450
	1    0    0    -1  
$EndComp
$Comp
L power:+5V #PWR?
U 1 1 5FA7ACB0
P 2225 6450
F 0 "#PWR?" H 2225 6300 50  0001 C CNN
F 1 "+5V" H 2225 6600 50  0000 C CNN
F 2 "" H 2225 6450 50  0001 C CNN
F 3 "" H 2225 6450 50  0001 C CNN
	1    2225 6450
	1    0    0    -1  
$EndComp
$Comp
L FLO3-rescue:74LS123-74xx U26
U 3 1 5FA6797C
P 2650 6950
AR Path="/5FA6797C" Ref="U26"  Part="3" 
AR Path="/5FAD65BF/5FA6797C" Ref="U26"  Part="3" 
F 0 "U26" H 2575 6975 50  0000 L CNN
F 1 "74LS123" H 2500 6900 50  0000 L CNN
F 2 "" H 2650 6950 50  0001 C CNN
F 3 "http://www.ti.com/lit/gpn/sn74LS123" H 2650 6950 50  0001 C CNN
	3    2650 6950
	1    0    0    -1  
$EndComp
$Comp
L 74xx:74LS03 U7
U 5 1 5F88F05B
P 1800 5200
F 0 "U7" H 1725 5225 50  0000 L CNN
F 1 "74LS03" H 1650 5150 50  0000 L CNN
F 2 "" H 1800 5200 50  0001 C CNN
F 3 "http://www.ti.com/lit/gpn/sn74LS03" H 1800 5200 50  0001 C CNN
	5    1800 5200
	1    0    0    -1  
$EndComp
$Comp
L 74xx:74LS02 U9
U 5 1 5F8E0C40
P 2650 5200
F 0 "U9" H 2575 5225 50  0000 L CNN
F 1 "74LS02" H 2500 5150 50  0000 L CNN
F 2 "" H 2650 5200 50  0001 C CNN
F 3 "http://www.ti.com/lit/gpn/sn74ls02" H 2650 5200 50  0001 C CNN
	5    2650 5200
	1    0    0    -1  
$EndComp
$Comp
L 74xx:74LS32 U1
U 5 1 5F943443
P 1375 5200
F 0 "U1" H 1300 5225 50  0000 L CNN
F 1 "74LS32" H 1250 5150 50  0000 L CNN
F 2 "" H 1375 5200 50  0001 C CNN
F 3 "http://www.ti.com/lit/gpn/sn74LS32" H 1375 5200 50  0001 C CNN
	5    1375 5200
	1    0    0    -1  
$EndComp
$Comp
L 74xx:74LS74 U8
U 3 1 5FA29A70
P 2225 5200
F 0 "U8" H 2150 5225 50  0000 L CNN
F 1 "74LS74" H 2075 5150 50  0000 L CNN
F 2 "" H 2225 5200 50  0001 C CNN
F 3 "74xx/74hc_hct74.pdf" H 2225 5200 50  0001 C CNN
	3    2225 5200
	1    0    0    -1  
$EndComp
$Comp
L 74xx:74LS32 U10
U 5 1 5F906724
P 3075 5200
F 0 "U10" H 2975 5225 50  0000 L CNN
F 1 "74LS32" H 2925 5150 50  0000 L CNN
F 2 "" H 3075 5200 50  0001 C CNN
F 3 "http://www.ti.com/lit/gpn/sn74LS32" H 3075 5200 50  0001 C CNN
	5    3075 5200
	1    0    0    -1  
$EndComp
$Comp
L power:+5V #PWR?
U 1 1 5FAF47FC
P 1375 4700
F 0 "#PWR?" H 1375 4550 50  0001 C CNN
F 1 "+5V" H 1375 4850 50  0000 C CNN
F 2 "" H 1375 4700 50  0001 C CNN
F 3 "" H 1375 4700 50  0001 C CNN
	1    1375 4700
	1    0    0    -1  
$EndComp
$Comp
L power:GND #PWR?
U 1 1 5FAF4809
P 1375 5700
F 0 "#PWR?" H 1375 5450 50  0001 C CNN
F 1 "GND" H 1375 5550 50  0000 C CNN
F 2 "" H 1375 5700 50  0001 C CNN
F 3 "" H 1375 5700 50  0001 C CNN
	1    1375 5700
	1    0    0    -1  
$EndComp
$Comp
L power:GND #PWR?
U 1 1 5FAF4E75
P 1800 5700
F 0 "#PWR?" H 1800 5450 50  0001 C CNN
F 1 "GND" H 1800 5550 50  0000 C CNN
F 2 "" H 1800 5700 50  0001 C CNN
F 3 "" H 1800 5700 50  0001 C CNN
	1    1800 5700
	1    0    0    -1  
$EndComp
$Comp
L power:+5V #PWR?
U 1 1 5FAF4E82
P 1800 4700
F 0 "#PWR?" H 1800 4550 50  0001 C CNN
F 1 "+5V" H 1800 4850 50  0000 C CNN
F 2 "" H 1800 4700 50  0001 C CNN
F 3 "" H 1800 4700 50  0001 C CNN
	1    1800 4700
	1    0    0    -1  
$EndComp
$Comp
L power:GND #PWR?
U 1 1 5FAF53AA
P 2650 5700
F 0 "#PWR?" H 2650 5450 50  0001 C CNN
F 1 "GND" H 2650 5550 50  0000 C CNN
F 2 "" H 2650 5700 50  0001 C CNN
F 3 "" H 2650 5700 50  0001 C CNN
	1    2650 5700
	1    0    0    -1  
$EndComp
$Comp
L power:+5V #PWR?
U 1 1 5FAF53B7
P 2650 4700
F 0 "#PWR?" H 2650 4550 50  0001 C CNN
F 1 "+5V" H 2650 4850 50  0000 C CNN
F 2 "" H 2650 4700 50  0001 C CNN
F 3 "" H 2650 4700 50  0001 C CNN
	1    2650 4700
	1    0    0    -1  
$EndComp
$Comp
L power:GND #PWR?
U 1 1 5FAF5747
P 3075 5700
F 0 "#PWR?" H 3075 5450 50  0001 C CNN
F 1 "GND" H 3075 5550 50  0000 C CNN
F 2 "" H 3075 5700 50  0001 C CNN
F 3 "" H 3075 5700 50  0001 C CNN
	1    3075 5700
	1    0    0    -1  
$EndComp
$Comp
L power:+5V #PWR?
U 1 1 5FAF5754
P 3075 4700
F 0 "#PWR?" H 3075 4550 50  0001 C CNN
F 1 "+5V" H 3075 4850 50  0000 C CNN
F 2 "" H 3075 4700 50  0001 C CNN
F 3 "" H 3075 4700 50  0001 C CNN
	1    3075 4700
	1    0    0    -1  
$EndComp
$Comp
L power:GND #PWR?
U 1 1 5FAF5B2C
P 2225 5700
F 0 "#PWR?" H 2225 5450 50  0001 C CNN
F 1 "GND" H 2225 5550 50  0000 C CNN
F 2 "" H 2225 5700 50  0001 C CNN
F 3 "" H 2225 5700 50  0001 C CNN
	1    2225 5700
	1    0    0    -1  
$EndComp
$Comp
L power:+5V #PWR?
U 1 1 5FAF5B39
P 2225 4700
F 0 "#PWR?" H 2225 4550 50  0001 C CNN
F 1 "+5V" H 2225 4850 50  0000 C CNN
F 2 "" H 2225 4700 50  0001 C CNN
F 3 "" H 2225 4700 50  0001 C CNN
	1    2225 4700
	1    0    0    -1  
$EndComp
Wire Wire Line
	2225 4700 2225 4800
Wire Wire Line
	2225 5600 2225 5700
Wire Wire Line
	4275 7350 4275 7325
Wire Wire Line
	3950 6700 3950 6900
$Comp
L power:GND #PWR?
U 1 1 5FBB2D3B
P 4275 7350
F 0 "#PWR?" H 4275 7100 50  0001 C CNN
F 1 "GND" H 4275 7200 50  0000 C CNN
F 2 "" H 4275 7350 50  0001 C CNN
F 3 "" H 4275 7350 50  0001 C CNN
	1    4275 7350
	1    0    0    -1  
$EndComp
$Comp
L 74xx:74LS74 U8
U 2 1 5FA294F6
P 4275 7000
F 0 "U8" H 4275 7481 50  0000 C CNN
F 1 "74LS74" H 4275 7390 50  0000 C CNN
F 2 "" H 4275 7000 50  0001 C CNN
F 3 "74xx/74hc_hct74.pdf" H 4275 7000 50  0001 C CNN
	2    4275 7000
	1    0    0    -1  
$EndComp
Connection ~ 3950 7000
Wire Wire Line
	4275 7325 4275 7300
NoConn ~ 4575 6900
Wire Wire Line
	3950 6900 3950 7000
NoConn ~ 4575 7100
Connection ~ 3950 6900
Wire Wire Line
	3950 7325 4275 7325
Connection ~ 4275 7325
Wire Wire Line
	3950 7000 3950 7325
Wire Wire Line
	4275 6700 3950 6700
Wire Wire Line
	3950 7000 3975 7000
Wire Wire Line
	3950 6900 3975 6900
$Comp
L power:GND #PWR?
U 1 1 5FBDF5BA
P 4875 7250
F 0 "#PWR?" H 4875 7000 50  0001 C CNN
F 1 "GND" H 4875 7100 50  0000 C CNN
F 2 "" H 4875 7250 50  0001 C CNN
F 3 "" H 4875 7250 50  0001 C CNN
	1    4875 7250
	1    0    0    -1  
$EndComp
NoConn ~ 5500 7175
Wire Wire Line
	4875 7250 4875 7175
$Comp
L 74xx:74LS04 U27
U 1 1 5F81BEC3
P 5200 7175
F 0 "U27" H 5150 7200 50  0000 C CNN
F 1 "74LS04" H 5275 7300 50  0000 C CNN
F 2 "" H 5200 7175 50  0001 C CNN
F 3 "http://www.ti.com/lit/gpn/sn74LS04" H 5200 7175 50  0001 C CNN
	1    5200 7175
	1    0    0    -1  
$EndComp
Wire Wire Line
	4875 7175 4900 7175
Wire Wire Line
	4850 6725 4850 6775
NoConn ~ 6100 6725
$Comp
L 74xx:74LS04 U14
U 3 1 5F8CA75C
P 5800 6725
F 0 "U14" H 5800 7042 50  0000 C CNN
F 1 "74LS04" H 5800 6951 50  0000 C CNN
F 2 "" H 5800 6725 50  0001 C CNN
F 3 "http://www.ti.com/lit/gpn/sn74LS04" H 5800 6725 50  0001 C CNN
	3    5800 6725
	1    0    0    -1  
$EndComp
Wire Wire Line
	4900 6725 4850 6725
$Comp
L power:GND #PWR?
U 1 1 5F8CEDC1
P 4850 6775
F 0 "#PWR?" H 4850 6525 50  0001 C CNN
F 1 "GND" H 4850 6625 50  0000 C CNN
F 2 "" H 4850 6775 50  0001 C CNN
F 3 "" H 4850 6775 50  0001 C CNN
	1    4850 6775
	1    0    0    -1  
$EndComp
$Comp
L 74xx:74LS04 U14
U 2 1 5EF255F4
P 5200 6725
F 0 "U14" H 5200 7042 50  0000 C CNN
F 1 "74LS04" H 5200 6951 50  0000 C CNN
F 2 "" H 5200 6725 50  0001 C CNN
F 3 "http://www.ti.com/lit/gpn/sn74LS04" H 5200 6725 50  0001 C CNN
	2    5200 6725
	1    0    0    -1  
$EndComp
$EndSCHEMATC
