:18010000C36F0700000000E2011701F902B10700000000000000000000
:18011800000149A60242BD0252EE0251F40259E3024EE90258E2025A46
:18013000C5020000C30000C30000C300000000800000F902CDF601C2A6
:180148007201CD3401A7C257013A1701C36F01CDFB01211901BEC26AF6
:1801600001CD36023A1701C36F01323F013EFFC37501CD3401A7C93A68
:180178003D01A7C29A01CDF601C29401CDF101CA9401CD3401A7C294F5
:1801900001CD9B023A4101324001CDFB01211901BEC2AA01CD3602C306
:1801A800770147CDED01CABB0132400132410197323E01CDF601CAD2F0
:1801C0000178FE0DC2CB0197324101FE0AC2D201060D78FE0DCAE2012A
:1801D800FE15CAE201FE03C2E60197C3E8013E01323D0178C93A3E01F9
:1801F000A73A4101A7C93A4001A7C9213F017EFE80CA07023680C9CDFD
:18020800F601C22502CD3401A7CA1702323E01C225022A42017E2322E8
:180220004201C33502CD3701FE03C23502CDED01C4C5023E03C9CDF677
:1802380001C24D02CDED01C24D022A42017E23224201C35002CD370143
:18025000211A010608BEC26C02235E2356EBCD9A02CDED01CA6B029787
:18026800323E01C923232305C255020E07CD3A010E45CD3A010E52CD18
:180280003A010E52CD3A01CDF601C29602CDED01C29602CDC502C33603
:1802980002C9E93A1801A7C80E07CD3A01C93E01324101CDED01C2BC06
:1802B00002CDF601CC9B023E01324001C997324001324101C9CD9B02DB
:1802C8002A3201113401EB06067E12231305C2D1023E013240013241FF
:1802E00001C9C93EFF321701C997321701C93E01321801C99732180144
:1802F800C9000001498804429F0452D00451D60459C5044ECB0458C4BE
:18031000045AA7040000C30000C30000C300000000800000DB04CDD87F
:1803280003C25403CD1603A7C239033AF902C35103CDDD0321FB02BE41
:18034000C24C03CD18043AF902C351033221033EFFC35703CD1603A722
:18035800C93A1F03A7C27C03CDD803C27603CDD303CA7603CD1603A72A
:18037000C27603CD7D043A2303322203CDDD0321FB02BEC28C03CD1876
:1803880004C3590347CDCF03CA9D0332220332230397322003CDD803A7
:1803A000CAB40378FE0DC2AD0397322303FE0AC2B403060D78FE0DCAFF
:1803B800C403FE15CAC403FE03C2C80397C3CA033E01321F0378C93AFF
:1803D0002003A73A2303A7C93A2203A7C92121037EFE80CAE9033680FF
:1803E800C9CDD803C20704CD1603A7CAF903322003C207042A24037E7B
:1804000023222403C31704CD1903FE03C21704CDCF03C4A7043E03C9BB
:18041800CDD803C22F04CDCF03C22F042A24037E23222403C33204CD9A
:18043000190321FC020608BEC24E04235E2356EBCD7C04CDCF03CA4DB1
:180448000497322003C923232305C237040E07CD1C030E45CD1C030E2A
:1804600052CD1C030E52CD1C03CDD803C27804CDCF03C27804CDA704BF
:18047800C31804C9E93AFA02A7C80E07CD1C03C93E01322303CDCF0336
:18049000C29E04CDD803CC7D043E01322203C997322203322303C9CDC0
:1804A8007D042A1403111603EB06067E12231305C2B3043E013222037F
:1804C000322303C9C93EFF32F902C99732F902C93E0132FA02C997327B
:1804D800FA02C90D0A9E00000100000000C34401C377017EFE9EC8E587
:1804F0005F0E02CD0500E123C3EB04C921DB04CDEB04C9E5CDFC04E11C
:18050800CDEB04C93A5D00FE20C22B05211D05CD0305C32805574841C7
:18052000542046494C453F9EC300003A6500FE20C23E052142412265A2
:18053800003E543267000E0F115C00CD05003CC25E05215305CD030575
:18055000C35B054E4F2046494C459EC30000C90E10115C00CD05003CD0
:18056800C28805217405CD0305C3850545525220434C4F53494E472038
:1805800046494C459EC30000C90E14115C00CD050032DE04C92ADF04CE
:180598007DFE00C2B3057CFE01C2B305CD89052180003ADE04A7CAB325
:1805B00005361A7E2322DF04C921170111F9021A96CA3E06F5FEE2CACD
:1805C800F40521D305CD0305C3F105434F4445204D4F44454C53204438
:1805E0004F204E4F5420434F52524553504F4E449EC300002313F11AE2
:1805F8009EFE01CA2E06220F01EB221101210E06CD0305C32B06312DA3
:18061000425954452052454C4F4320414444522050524F48494249544D
:1806280045449EC30000D5E5562B5E2AE10419EBE1722B7323D1231309
:180640007DFEF9C2BF057CFE02C2BF05C92A03011117011A7723137B44
:18065800FEF9C253067AFE02C25306C9577DB9C28F067CB8C28F06218A
:180670007806CD0305C38C064241544348205445585420544F4F204C85
:180688004F4E479EC300007223C92AE304444D2A030111E20119E5C530
:1806A000CD9505211901BEC2D906CD9505FE43C2CD06CD950521190162
:1806B800BECACA06FE1ACACA065F0E02CD0500C3B206C3D90667C1E3B7
:1806D0003A1901CD6406E3C57CC1E1FE0DC2EF06CD6406E5C5CD9505B7
:1806E800C1E1FE0ACA9E06FE1AC203073A1901CD64063A2F01CD6406D2
:18070000C30907CD6406C39E06C92A0100232323223201113401060969
:180718007E12231305C21807C91144012AE10419EB2A35017ABCC25D36
:18073000077BBDC25D07213F07CD0305C35A074241544348204D555375
:1807480054204E4F542043414C4C20495453454C469EC30000C92A328B
:180760000111E50406061A77231305C26607C9CD0C05CDB1072A050123
:18077800EB2A03011922E3042A030111E9FE1922E104EB2AE6041922AE
:18079000E6042AE9041922E904CDB905CD0A07CD2107CD4D06CD920645
:1807A800CD5F05CD5E07C300002A060011C010192203017D2F6F7C2FFD
:0807C000E6036723220501C9CD
:00010000FF
2/12/81, 9:40AM, CODED BY DAN ROSS, PUBLIC DOMAIN
2A060011C010192203017D2F6F7C2FFD
:0807C000E6036723220501C9CD
:00010000FF
2/12/81, 9:40AM, CODED BY DAN ROSS, PUBLIC DOM