EESchema Schematic File Version 5
EELAYER 30 0
EELAYER END
$Descr A4 11693 8268
encoding utf-8
Sheet 5 5
Title ""
Date ""
Rev ""
Comp ""
Comment1 ""
Comment2 ""
Comment3 ""
Comment4 ""
Comment5 ""
Comment6 ""
Comment7 ""
Comment8 ""
Comment9 ""
$EndDescr
Wire Wire Line
	900  4950 900  4875
$Comp
L Device:C_Small C?
U 1 1 5EF0FB92
P 900 5175
F 0 "C?" H 992 5221 50  0000 L CNN
F 1 "47n" H 992 5130 50  0000 L CNN
F 2 "" H 900 5175 50  0001 C CNN
F 3 "~" H 900 5175 50  0001 C CNN
	1    900  5175
	1    0    0    -1  
$EndComp
Wire Wire Line
	900  5075 900  4950
Connection ~ 900  4950
Wire Wire Line
	900  5375 900  5275
$Comp
L power:+5V #PWR?
U 1 1 5EF0FFC8
P 900 4875
F 0 "#PWR?" H 900 4725 50  0001 C CNN
F 1 "+5V" H 915 5048 50  0000 C CNN
F 2 "" H 900 4875 50  0001 C CNN
F 3 "" H 900 4875 50  0001 C CNN
	1    900  4875
	1    0    0    -1  
$EndComp
$Comp
L power:GND #PWR?
U 1 1 5F083F7B
P 3925 7425
F 0 "#PWR?" H 3925 7175 50  0001 C CNN
F 1 "GND" H 3930 7252 50  0000 C CNN
F 2 "" H 3925 7425 50  0001 C CNN
F 3 "" H 3925 7425 50  0001 C CNN
	1    3925 7425
	1    0    0    -1  
$EndComp
$Comp
L power:+5V #PWR?
U 1 1 5F084D58
P 3925 6425
F 0 "#PWR?" H 3925 6275 50  0001 C CNN
F 1 "+5V" H 3940 6598 50  0000 C CNN
F 2 "" H 3925 6425 50  0001 C CNN
F 3 "" H 3925 6425 50  0001 C CNN
	1    3925 6425
	1    0    0    -1  
$EndComp
$Comp
L Device:C_Small C?
U 1 1 5F0862CB
P 1200 5175
F 0 "C?" H 1292 5221 50  0000 L CNN
F 1 "47n" H 1292 5130 50  0000 L CNN
F 2 "" H 1200 5175 50  0001 C CNN
F 3 "~" H 1200 5175 50  0001 C CNN
	1    1200 5175
	1    0    0    -1  
$EndComp
$Comp
L Device:C_Small C?
U 1 1 5F086F29
P 1800 5175
F 0 "C?" H 1892 5221 50  0000 L CNN
F 1 "47n" H 1892 5130 50  0000 L CNN
F 2 "" H 1800 5175 50  0001 C CNN
F 3 "~" H 1800 5175 50  0001 C CNN
	1    1800 5175
	1    0    0    -1  
$EndComp
$Comp
L Device:C_Small C?
U 1 1 5F086F37
P 1500 5175
F 0 "C?" H 1592 5221 50  0000 L CNN
F 1 "47n" H 1592 5130 50  0000 L CNN
F 2 "" H 1500 5175 50  0001 C CNN
F 3 "~" H 1500 5175 50  0001 C CNN
	1    1500 5175
	1    0    0    -1  
$EndComp
Wire Wire Line
	900  4950 1200 4950
Wire Wire Line
	1200 4950 1200 5075
Wire Wire Line
	1200 4950 1500 4950
Wire Wire Line
	1500 4950 1500 5075
Connection ~ 1200 4950
Wire Wire Line
	1500 4950 1800 4950
Wire Wire Line
	1800 4950 1800 5075
Connection ~ 1500 4950
Wire Wire Line
	1800 5275 1800 5375
Wire Wire Line
	1800 5375 1500 5375
Wire Wire Line
	1200 5275 1200 5375
Connection ~ 1200 5375
Wire Wire Line
	1200 5375 900  5375
Wire Wire Line
	1500 5275 1500 5375
Connection ~ 1500 5375
Wire Wire Line
	1500 5375 1200 5375
$Comp
L Device:C_Small C?
U 1 1 5F088B7A
P 2100 5175
F 0 "C?" H 2192 5221 50  0000 L CNN
F 1 "47n" H 2192 5130 50  0000 L CNN
F 2 "" H 2100 5175 50  0001 C CNN
F 3 "~" H 2100 5175 50  0001 C CNN
	1    2100 5175
	1    0    0    -1  
$EndComp
Wire Wire Line
	1800 4950 2100 4950
Wire Wire Line
	2100 4950 2100 5075
Wire Wire Line
	2100 5375 1800 5375
Wire Wire Line
	2100 5275 2100 5375
Connection ~ 1800 4950
Connection ~ 1800 5375
$Comp
L power:+5V #PWR?
U 1 1 5F0925E0
P 1350 6425
F 0 "#PWR?" H 1350 6275 50  0001 C CNN
F 1 "+5V" H 1365 6598 50  0000 C CNN
F 2 "" H 1350 6425 50  0001 C CNN
F 3 "" H 1350 6425 50  0001 C CNN
	1    1350 6425
	1    0    0    -1  
$EndComp
$Comp
L power:GND #PWR?
U 1 1 5F0925ED
P 1350 7425
F 0 "#PWR?" H 1350 7175 50  0001 C CNN
F 1 "GND" H 1355 7252 50  0000 C CNN
F 2 "" H 1350 7425 50  0001 C CNN
F 3 "" H 1350 7425 50  0001 C CNN
	1    1350 7425
	1    0    0    -1  
$EndComp
Wire Wire Line
	1350 7425 1350 7325
Wire Wire Line
	1350 6425 1350 6525
$Comp
L power:+5V #PWR?
U 1 1 5F0CFFA8
P 2650 6425
F 0 "#PWR?" H 2650 6275 50  0001 C CNN
F 1 "+5V" H 2665 6598 50  0000 C CNN
F 2 "" H 2650 6425 50  0001 C CNN
F 3 "" H 2650 6425 50  0001 C CNN
	1    2650 6425
	1    0    0    -1  
$EndComp
$Comp
L power:GND #PWR?
U 1 1 5F0CFFB5
P 2650 7425
F 0 "#PWR?" H 2650 7175 50  0001 C CNN
F 1 "GND" H 2655 7252 50  0000 C CNN
F 2 "" H 2650 7425 50  0001 C CNN
F 3 "" H 2650 7425 50  0001 C CNN
	1    2650 7425
	1    0    0    -1  
$EndComp
$Comp
L power:GND #PWR?
U 1 1 5F14213A
P 925 7425
F 0 "#PWR?" H 925 7175 50  0001 C CNN
F 1 "GND" H 930 7252 50  0000 C CNN
F 2 "" H 925 7425 50  0001 C CNN
F 3 "" H 925 7425 50  0001 C CNN
	1    925  7425
	1    0    0    -1  
$EndComp
$Comp
L power:+5V #PWR?
U 1 1 5F142147
P 925 6425
F 0 "#PWR?" H 925 6275 50  0001 C CNN
F 1 "+5V" H 940 6598 50  0000 C CNN
F 2 "" H 925 6425 50  0001 C CNN
F 3 "" H 925 6425 50  0001 C CNN
	1    925  6425
	1    0    0    -1  
$EndComp
$Comp
L power:GND #PWR?
U 1 1 5F14395A
P 1800 7425
F 0 "#PWR?" H 1800 7175 50  0001 C CNN
F 1 "GND" H 1805 7252 50  0000 C CNN
F 2 "" H 1800 7425 50  0001 C CNN
F 3 "" H 1800 7425 50  0001 C CNN
	1    1800 7425
	1    0    0    -1  
$EndComp
$Comp
L power:+5V #PWR?
U 1 1 5F143967
P 1800 6425
F 0 "#PWR?" H 1800 6275 50  0001 C CNN
F 1 "+5V" H 1815 6598 50  0000 C CNN
F 2 "" H 1800 6425 50  0001 C CNN
F 3 "" H 1800 6425 50  0001 C CNN
	1    1800 6425
	1    0    0    -1  
$EndComp
$Comp
L power:GND #PWR?
U 1 1 5F144021
P 3075 7425
F 0 "#PWR?" H 3075 7175 50  0001 C CNN
F 1 "GND" H 3080 7252 50  0000 C CNN
F 2 "" H 3075 7425 50  0001 C CNN
F 3 "" H 3075 7425 50  0001 C CNN
	1    3075 7425
	1    0    0    -1  
$EndComp
$Comp
L power:+5V #PWR?
U 1 1 5F14402E
P 3075 6425
F 0 "#PWR?" H 3075 6275 50  0001 C CNN
F 1 "+5V" H 3090 6598 50  0000 C CNN
F 2 "" H 3075 6425 50  0001 C CNN
F 3 "" H 3075 6425 50  0001 C CNN
	1    3075 6425
	1    0    0    -1  
$EndComp
$Comp
L power:+5V #PWR?
U 1 1 5F26EB0B
P 3500 6425
F 0 "#PWR?" H 3500 6275 50  0001 C CNN
F 1 "+5V" H 3515 6598 50  0000 C CNN
F 2 "" H 3500 6425 50  0001 C CNN
F 3 "" H 3500 6425 50  0001 C CNN
	1    3500 6425
	1    0    0    -1  
$EndComp
$Comp
L power:GND #PWR?
U 1 1 5F26EB18
P 3500 7425
F 0 "#PWR?" H 3500 7175 50  0001 C CNN
F 1 "GND" H 3505 7252 50  0000 C CNN
F 2 "" H 3500 7425 50  0001 C CNN
F 3 "" H 3500 7425 50  0001 C CNN
	1    3500 7425
	1    0    0    -1  
$EndComp
$Comp
L power:GND #PWR?
U 1 1 5EF6A8A5
P 900 5450
F 0 "#PWR?" H 900 5200 50  0001 C CNN
F 1 "GND" H 905 5277 50  0000 C CNN
F 2 "" H 900 5450 50  0001 C CNN
F 3 "" H 900 5450 50  0001 C CNN
	1    900  5450
	1    0    0    -1  
$EndComp
Wire Wire Line
	900  5450 900  5375
Connection ~ 900  5375
$Comp
L 74xx:74LS04 U1
U 1 1 5EF23C50
P 1100 4325
F 0 "U1" H 1100 4642 50  0000 C CNN
F 1 "74LS04" H 1100 4551 50  0000 C CNN
F 2 "" H 1100 4325 50  0001 C CNN
F 3 "http://www.ti.com/lit/gpn/sn74LS04" H 1100 4325 50  0001 C CNN
	1    1100 4325
	1    0    0    -1  
$EndComp
$Comp
L 74xx:74LS04 U1
U 7 1 5EF278D3
P 925 6925
F 0 "U1" H 850 6950 50  0000 L CNN
F 1 "74LS04" H 775 6875 50  0000 L CNN
F 2 "" H 925 6925 50  0001 C CNN
F 3 "http://www.ti.com/lit/gpn/sn74LS04" H 925 6925 50  0001 C CNN
	7    925  6925
	1    0    0    -1  
$EndComp
$Comp
L 74xx:74LS74 U2
U 3 1 5EF3D385
P 1350 6925
F 0 "U2" H 1275 6975 50  0000 L CNN
F 1 "74LS74" H 1225 6900 50  0000 L CNN
F 2 "" H 1350 6925 50  0001 C CNN
F 3 "74xx/74hc_hct74.pdf" H 1350 6925 50  0001 C CNN
	3    1350 6925
	1    0    0    -1  
$EndComp
NoConn ~ 1400 4325
NoConn ~ 800  4325
$Comp
L 74xx:74LS32 U7
U 4 1 5EF69EBB
P 1875 4325
F 0 "U7" H 1875 4650 50  0000 C CNN
F 1 "74LS32" H 1875 4559 50  0000 C CNN
F 2 "" H 1875 4325 50  0001 C CNN
F 3 "http://www.ti.com/lit/gpn/sn74LS32" H 1875 4325 50  0001 C CNN
	4    1875 4325
	1    0    0    -1  
$EndComp
$Comp
L 74xx:74LS32 U7
U 5 1 5EF69EBC
P 1800 6925
F 0 "U7" H 1725 6975 50  0000 L CNN
F 1 "74LS32" H 1675 6900 50  0000 L CNN
F 2 "" H 1800 6925 50  0001 C CNN
F 3 "http://www.ti.com/lit/gpn/sn74LS32" H 1800 6925 50  0001 C CNN
	5    1800 6925
	1    0    0    -1  
$EndComp
NoConn ~ 1575 4225
NoConn ~ 1575 4425
NoConn ~ 2175 4325
$Comp
L 74xx:74LS00 U9
U 5 1 5EFBC3C9
P 2650 6925
F 0 "U9" H 2575 6975 50  0000 L CNN
F 1 "74LS00" H 2525 6900 50  0000 L CNN
F 2 "" H 2650 6925 50  0001 C CNN
F 3 "http://www.ti.com/lit/gpn/sn74ls00" H 2650 6925 50  0001 C CNN
	5    2650 6925
	1    0    0    -1  
$EndComp
$Comp
L 74xx:74LS32 U13
U 5 1 5EF446A8
P 3925 6925
F 0 "U13" H 3825 6975 50  0000 L CNN
F 1 "74LS32" H 3775 6900 50  0000 L CNN
F 2 "" H 3925 6925 50  0001 C CNN
F 3 "http://www.ti.com/lit/gpn/sn74LS32" H 3925 6925 50  0001 C CNN
	5    3925 6925
	1    0    0    -1  
$EndComp
$Comp
L 74xx:74LS04 U11
U 7 1 5EFADECE
P 3500 6925
F 0 "U11" H 3400 6950 50  0000 L CNN
F 1 "74LS04" H 3375 6875 50  0000 L CNN
F 2 "" H 3500 6925 50  0001 C CNN
F 3 "http://www.ti.com/lit/gpn/sn74LS04" H 3500 6925 50  0001 C CNN
	7    3500 6925
	1    0    0    -1  
$EndComp
$Comp
L 74xx:74LS32 U10
U 5 1 5F05C317
P 3075 6925
F 0 "U10" H 2975 6950 50  0000 L CNN
F 1 "74LS32" H 2925 6875 50  0000 L CNN
F 2 "" H 3075 6925 50  0001 C CNN
F 3 "http://www.ti.com/lit/gpn/sn74LS32" H 3075 6925 50  0001 C CNN
	5    3075 6925
	1    0    0    -1  
$EndComp
$Comp
L 74xx:74LS00 U8
U 5 1 5EF8EE33
P 2225 6925
AR Path="/5EFDD352/5EF8EE33" Ref="U8"  Part="5" 
AR Path="/5EFDE485/5EF8EE33" Ref="U?"  Part="5" 
AR Path="/5EF69D76/5EF8EE33" Ref="U8"  Part="5" 
F 0 "U8" H 2150 6975 50  0000 L CNN
F 1 "74LS00" H 2100 6900 50  0000 L CNN
F 2 "" H 2225 6925 50  0001 C CNN
F 3 "http://www.ti.com/lit/gpn/sn74ls00" H 2225 6925 50  0001 C CNN
	5    2225 6925
	1    0    0    -1  
$EndComp
$Comp
L power:+5V #PWR?
U 1 1 5F004611
P 2225 6425
F 0 "#PWR?" H 2225 6275 50  0001 C CNN
F 1 "+5V" H 2240 6598 50  0000 C CNN
F 2 "" H 2225 6425 50  0001 C CNN
F 3 "" H 2225 6425 50  0001 C CNN
	1    2225 6425
	1    0    0    -1  
$EndComp
$Comp
L power:GND #PWR?
U 1 1 5F00461E
P 2225 7425
F 0 "#PWR?" H 2225 7175 50  0001 C CNN
F 1 "GND" H 2230 7252 50  0000 C CNN
F 2 "" H 2225 7425 50  0001 C CNN
F 3 "" H 2225 7425 50  0001 C CNN
	1    2225 7425
	1    0    0    -1  
$EndComp
$Comp
L 74xx:74LS00 U8
U 3 1 5EF8CC11
P 3000 4325
AR Path="/5EFDD352/5EF8CC11" Ref="U8"  Part="3" 
AR Path="/5EFDE485/5EF8CC11" Ref="U?"  Part="3" 
AR Path="/5EF69D76/5EF8CC11" Ref="U8"  Part="3" 
F 0 "U8" H 3000 4650 50  0000 C CNN
F 1 "74LS00" H 3000 4559 50  0000 C CNN
F 2 "" H 3000 4325 50  0001 C CNN
F 3 "http://www.ti.com/lit/gpn/sn74ls00" H 3000 4325 50  0001 C CNN
	3    3000 4325
	1    0    0    -1  
$EndComp
Wire Wire Line
	2425 4425 2700 4425
Text Label 2425 4425 0    50   ~ 0
~IORQb
NoConn ~ 2700 4225
NoConn ~ 3300 4325
$Comp
L 74xx:74LS04 U11
U 1 1 5EFAA795
P 3800 4300
F 0 "U11" H 3800 4617 50  0000 C CNN
F 1 "74LS04" H 3800 4526 50  0000 C CNN
F 2 "" H 3800 4300 50  0001 C CNN
F 3 "http://www.ti.com/lit/gpn/sn74LS04" H 3800 4300 50  0001 C CNN
	1    3800 4300
	1    0    0    -1  
$EndComp
NoConn ~ 3500 4300
NoConn ~ 4100 4300
$Comp
L 74xx:74LS32 U10
U 1 1 5F063ADA
P 2975 5000
F 0 "U10" H 2975 5325 50  0000 C CNN
F 1 "74LS32" H 2975 5234 50  0000 C CNN
F 2 "" H 2975 5000 50  0001 C CNN
F 3 "http://www.ti.com/lit/gpn/sn74LS32" H 2975 5000 50  0001 C CNN
	1    2975 5000
	1    0    0    -1  
$EndComp
$Comp
L 74xx:74LS32 U10
U 2 1 5F06729A
P 2975 5575
F 0 "U10" H 2975 5900 50  0000 C CNN
F 1 "74LS32" H 2975 5809 50  0000 C CNN
F 2 "" H 2975 5575 50  0001 C CNN
F 3 "http://www.ti.com/lit/gpn/sn74LS32" H 2975 5575 50  0001 C CNN
	2    2975 5575
	1    0    0    -1  
$EndComp
NoConn ~ 2675 5675
NoConn ~ 2675 4900
NoConn ~ 3275 5575
NoConn ~ 2675 5475
NoConn ~ 2675 5100
NoConn ~ 3275 5000
$Comp
L 74xx:74LS04 U11
U 4 1 5EFAC90C
P 3800 4825
F 0 "U11" H 3800 5142 50  0000 C CNN
F 1 "74LS04" H 3800 5051 50  0000 C CNN
F 2 "" H 3800 4825 50  0001 C CNN
F 3 "http://www.ti.com/lit/gpn/sn74LS04" H 3800 4825 50  0001 C CNN
	4    3800 4825
	1    0    0    -1  
$EndComp
NoConn ~ 4100 4825
NoConn ~ 3500 4825
$Comp
L my_ics:74LS367_sep U16
U 7 1 5F9AF02D
P 4950 6875
F 0 "U16" H 4875 6975 50  0000 L CNN
F 1 "74LS367" H 4800 6875 50  0000 L CNN
F 2 "" H 5050 6575 50  0001 C CNN
F 3 "http://www.ti.com/lit/gpn/sn74LS367" H 4950 6975 50  0001 C CNN
	7    4950 6875
	1    0    0    -1  
$EndComp
$Comp
L power:+5V #PWR?
U 1 1 5F9B2E15
P 4950 6175
F 0 "#PWR?" H 4950 6025 50  0001 C CNN
F 1 "+5V" H 4965 6348 50  0000 C CNN
F 2 "" H 4950 6175 50  0001 C CNN
F 3 "" H 4950 6175 50  0001 C CNN
	1    4950 6175
	1    0    0    -1  
$EndComp
$Comp
L power:GND #PWR?
U 1 1 5F9B33E8
P 4950 7575
F 0 "#PWR?" H 4950 7325 50  0001 C CNN
F 1 "GND" H 4955 7402 50  0000 C CNN
F 2 "" H 4950 7575 50  0001 C CNN
F 3 "" H 4950 7575 50  0001 C CNN
	1    4950 7575
	1    0    0    -1  
$EndComp
$Comp
L power:GND #PWR?
U 1 1 5F9B37E4
P 4425 7325
F 0 "#PWR?" H 4425 7075 50  0001 C CNN
F 1 "GND" H 4430 7152 50  0000 C CNN
F 2 "" H 4425 7325 50  0001 C CNN
F 3 "" H 4425 7325 50  0001 C CNN
	1    4425 7325
	1    0    0    -1  
$EndComp
Wire Wire Line
	4425 7325 4425 7225
Wire Wire Line
	4425 7125 4450 7125
Wire Wire Line
	4450 7225 4425 7225
Connection ~ 4425 7225
Wire Wire Line
	4425 7225 4425 7125
$EndSCHEMATC
