EESchema Schematic File Version 5
EELAYER 30 0
EELAYER END
$Descr A4 11693 8268
encoding utf-8
Sheet 1 5
Title ""
Date ""
Rev ""
Comp ""
Comment1 ""
Comment2 ""
Comment3 ""
Comment4 ""
Comment5 ""
Comment6 ""
Comment7 ""
Comment8 ""
Comment9 ""
$EndDescr
$Sheet
S 2300 675  650  2525
U 5EF1043C
F0 "CPU" 50
F1 "CPU.sch" 50
F2 "D0" I R 2950 2400 50 
F3 "D1" I R 2950 2500 50 
F4 "D2" I R 2950 2600 50 
F5 "D3" I R 2950 2700 50 
F6 "D4" I R 2950 2800 50 
F7 "D5" I R 2950 2900 50 
F8 "D6" I R 2950 3000 50 
F9 "D7" I R 2950 3100 50 
F10 "A0" I R 2950 800 50 
F11 "A1" I R 2950 900 50 
F12 "A2" I R 2950 1000 50 
F13 "A3" I R 2950 1100 50 
F14 "A4" I R 2950 1200 50 
F15 "A5" I R 2950 1300 50 
F16 "A6" I R 2950 1400 50 
F17 "A7" I R 2950 1500 50 
F18 "A8" I R 2950 1600 50 
F19 "A9" I R 2950 1700 50 
F20 "A10" I R 2950 1800 50 
F21 "A11" I R 2950 1900 50 
F22 "A12" I R 2950 2000 50 
F23 "A13" I R 2950 2100 50 
F24 "A14" I R 2950 2200 50 
F25 "A15" I R 2950 2300 50 
F26 "~RESET" I L 2300 800 50 
F27 "~NMI" I L 2300 1000 50 
F28 "~INT" I L 2300 1100 50 
F29 "~M1" I L 2300 1200 50 
F30 "~RFSH" I L 2300 1300 50 
F31 "~WAIT" I L 2300 1400 50 
F32 "~HALT" I L 2300 1500 50 
F33 "~RD" I L 2300 1600 50 
F34 "~WR" I L 2300 1700 50 
F35 "~MREQ" I L 2300 1800 50 
F36 "~IORQ" I L 2300 1900 50 
F37 "~BUSRQ" I L 2300 2000 50 
F38 "~BUSACK" I L 2300 2100 50 
F39 "~CPU_CLK" O L 2300 2225 50 
F40 "~PER_CLK" O L 2300 2325 50 
$EndSheet
Wire Wire Line
	1875 800  2300 800 
Wire Wire Line
	1875 2225 2300 2225
Wire Wire Line
	1875 1000 2300 1000
Wire Wire Line
	1875 1100 2300 1100
Wire Wire Line
	1875 1200 2300 1200
Wire Wire Line
	1875 1300 2300 1300
Wire Wire Line
	1875 1400 2300 1400
Wire Wire Line
	1875 1500 2300 1500
Wire Wire Line
	2950 1400 3250 1400
Wire Wire Line
	2950 1000 3250 1000
Wire Wire Line
	2950 900  3250 900 
Wire Wire Line
	2950 800  3250 800 
Wire Wire Line
	2950 1100 3250 1100
Wire Wire Line
	2950 1300 3250 1300
Wire Wire Line
	2950 1200 3250 1200
Wire Wire Line
	2950 1500 3250 1500
Wire Wire Line
	2950 2200 3250 2200
Wire Wire Line
	2950 2300 3250 2300
Wire Wire Line
	2950 1900 3250 1900
Wire Wire Line
	2950 2100 3250 2100
Wire Wire Line
	2950 2000 3250 2000
Wire Wire Line
	2950 1800 3250 1800
Wire Wire Line
	2950 1600 3250 1600
Wire Wire Line
	2950 1700 3250 1700
Wire Wire Line
	2950 2400 3250 2400
Wire Wire Line
	2950 3000 3250 3000
Wire Wire Line
	2950 2500 3250 2500
Wire Wire Line
	2950 2700 3250 2700
Wire Wire Line
	2950 3100 3250 3100
Wire Wire Line
	2950 2900 3250 2900
Wire Wire Line
	2950 2600 3250 2600
Wire Wire Line
	2950 2800 3250 2800
Wire Wire Line
	1875 2000 2300 2000
Wire Wire Line
	1875 1600 2300 1600
Wire Wire Line
	1875 1700 2300 1700
Wire Wire Line
	1875 1900 2300 1900
Wire Wire Line
	1875 1800 2300 1800
Wire Wire Line
	1875 2100 2300 2100
Text Label 3250 1700 2    50   ~ 0
A9
Text Label 3250 2100 2    50   ~ 0
A13
Text Label 3250 1600 2    50   ~ 0
A8
Text Label 3250 1400 2    50   ~ 0
A6
Text Label 3250 1300 2    50   ~ 0
A5
Text Label 3250 1200 2    50   ~ 0
A4
Text Label 3250 1900 2    50   ~ 0
A11
Text Label 3250 1100 2    50   ~ 0
A3
Text Label 3250 900  2    50   ~ 0
A1
Text Label 3250 2300 2    50   ~ 0
A15
Text Label 3250 2200 2    50   ~ 0
A14
Text Label 3250 800  2    50   ~ 0
A0
Text Label 3250 2000 2    50   ~ 0
A12
Text Label 3250 1000 2    50   ~ 0
A2
Text Label 3250 1800 2    50   ~ 0
A10
Text Label 3250 1500 2    50   ~ 0
A7
Text Label 3250 2500 2    50   ~ 0
D1
Text Label 3250 2800 2    50   ~ 0
D4
Text Label 3250 2400 2    50   ~ 0
D0
Text Label 3250 2600 2    50   ~ 0
D2
Text Label 3250 3100 2    50   ~ 0
D7
Text Label 3250 2900 2    50   ~ 0
D5
Text Label 3250 3000 2    50   ~ 0
D6
Text Label 3250 2700 2    50   ~ 0
D3
Text Label 1875 1500 0    50   ~ 0
~HALT
Text Label 1875 2100 0    50   ~ 0
~BUSACK
Text Label 1875 1700 0    50   ~ 0
~WR
Text Label 1875 800  0    50   ~ 0
~RESET
Text Label 1875 1300 0    50   ~ 0
~RFSH
Text Label 1875 1100 0    50   ~ 0
~INT
Text Label 1875 2225 0    50   ~ 0
~CPU_CLK
Text Label 1875 1400 0    50   ~ 0
~WAIT
Text Label 1875 1200 0    50   ~ 0
~M1
Text Label 1875 1000 0    50   ~ 0
~NMI
Text Label 1875 1600 0    50   ~ 0
~RD
Text Label 1875 1800 0    50   ~ 0
~MREQ
Text Label 1875 1900 0    50   ~ 0
~IORQ
Text Label 1875 2000 0    50   ~ 0
~BUSRQ
Wire Wire Line
	5175 800  5600 800 
Wire Wire Line
	5175 900  5600 900 
Wire Wire Line
	5175 1000 5600 1000
Wire Wire Line
	5175 1100 5600 1100
Wire Wire Line
	5175 1200 5600 1200
Wire Wire Line
	5175 1300 5600 1300
Wire Wire Line
	5175 1400 5600 1400
Wire Wire Line
	5175 1500 5600 1500
Wire Wire Line
	6250 1400 6550 1400
Wire Wire Line
	6250 1000 6550 1000
Wire Wire Line
	6250 900  6550 900 
Wire Wire Line
	6250 800  6550 800 
Wire Wire Line
	6250 1100 6550 1100
Wire Wire Line
	6250 1300 6550 1300
Wire Wire Line
	6250 1200 6550 1200
Wire Wire Line
	6250 1500 6550 1500
Wire Wire Line
	6250 2200 6550 2200
Wire Wire Line
	6250 2300 6550 2300
Wire Wire Line
	6250 1900 6550 1900
Wire Wire Line
	6250 2100 6550 2100
Wire Wire Line
	6250 2000 6550 2000
Wire Wire Line
	6250 1800 6550 1800
Wire Wire Line
	6250 1600 6550 1600
Wire Wire Line
	6250 1700 6550 1700
Wire Wire Line
	6250 2400 6550 2400
Wire Wire Line
	6250 3000 6550 3000
Wire Wire Line
	6250 2500 6550 2500
Wire Wire Line
	6250 2700 6550 2700
Wire Wire Line
	6250 3100 6550 3100
Wire Wire Line
	6250 2900 6550 2900
Wire Wire Line
	6250 2600 6550 2600
Wire Wire Line
	6250 2800 6550 2800
Wire Wire Line
	5175 2000 5600 2000
Wire Wire Line
	5175 1600 5600 1600
Wire Wire Line
	5175 1700 5600 1700
Wire Wire Line
	5175 1900 5600 1900
Wire Wire Line
	5175 1800 5600 1800
Wire Wire Line
	5175 2100 5600 2100
Text Label 6550 1700 2    50   ~ 0
A9
Text Label 6550 2100 2    50   ~ 0
A13
Text Label 6550 1600 2    50   ~ 0
A8
Text Label 6550 1400 2    50   ~ 0
A6
Text Label 6550 1300 2    50   ~ 0
A5
Text Label 6550 1200 2    50   ~ 0
A4
Text Label 6550 1900 2    50   ~ 0
A11
Text Label 6550 1100 2    50   ~ 0
A3
Text Label 6550 900  2    50   ~ 0
A1
Text Label 6550 2300 2    50   ~ 0
A15
Text Label 6550 2200 2    50   ~ 0
A14
Text Label 6550 800  2    50   ~ 0
A0
Text Label 6550 2000 2    50   ~ 0
A12
Text Label 6550 1000 2    50   ~ 0
A2
Text Label 6550 1800 2    50   ~ 0
A10
Text Label 6550 1500 2    50   ~ 0
A7
Text Label 6550 2500 2    50   ~ 0
D1
Text Label 6550 2800 2    50   ~ 0
D4
Text Label 6550 2400 2    50   ~ 0
D0
Text Label 6550 2600 2    50   ~ 0
D2
Text Label 6550 3100 2    50   ~ 0
D7
Text Label 6550 2900 2    50   ~ 0
D5
Text Label 6550 3000 2    50   ~ 0
D6
Text Label 6550 2700 2    50   ~ 0
D3
Text Label 5175 1500 0    50   ~ 0
~HALT
Text Label 5175 2100 0    50   ~ 0
~BUSACK
Text Label 5175 1700 0    50   ~ 0
~WR
Text Label 5175 800  0    50   ~ 0
~RESET
Text Label 5175 1300 0    50   ~ 0
~RFSH
Text Label 5175 1100 0    50   ~ 0
~INT
Text Label 5175 900  0    50   ~ 0
~CPU_CLK
Text Label 5175 1400 0    50   ~ 0
~WAIT
Text Label 5175 1200 0    50   ~ 0
~M1
Text Label 5175 1000 0    50   ~ 0
~NMI
Text Label 5175 1600 0    50   ~ 0
~RD
Text Label 5175 1800 0    50   ~ 0
~MREQ
Text Label 5175 1900 0    50   ~ 0
~IORQ
Text Label 5175 2000 0    50   ~ 0
~BUSRQ
$Sheet
S 5600 675  650  2525
U 5EFDD352
F0 "Buffer" 50
F1 "Buffer.sch" 50
F2 "D0" I R 6250 2400 50 
F3 "D1" I R 6250 2500 50 
F4 "D2" I R 6250 2600 50 
F5 "D3" I R 6250 2700 50 
F6 "D4" I R 6250 2800 50 
F7 "D5" I R 6250 2900 50 
F8 "D6" I R 6250 3000 50 
F9 "D7" I R 6250 3100 50 
F10 "A0" I R 6250 800 50 
F11 "A1" I R 6250 900 50 
F12 "A2" I R 6250 1000 50 
F13 "A3" I R 6250 1100 50 
F14 "A4" I R 6250 1200 50 
F15 "A5" I R 6250 1300 50 
F16 "A6" I R 6250 1400 50 
F17 "A7" I R 6250 1500 50 
F18 "A8" I R 6250 1600 50 
F19 "A9" I R 6250 1700 50 
F20 "A10" I R 6250 1800 50 
F21 "A11" I R 6250 1900 50 
F22 "A12" I R 6250 2000 50 
F23 "A13" I R 6250 2100 50 
F24 "A14" I R 6250 2200 50 
F25 "A15" I R 6250 2300 50 
F26 "~RESET" I L 5600 800 50 
F27 "~CLK" I L 5600 900 50 
F28 "~NMI" I L 5600 1000 50 
F29 "~INT" I L 5600 1100 50 
F30 "~M1" I L 5600 1200 50 
F31 "~RFSH" I L 5600 1300 50 
F32 "~WAIT" I L 5600 1400 50 
F33 "~HALT" I L 5600 1500 50 
F34 "~RD" I L 5600 1600 50 
F35 "~WR" I L 5600 1700 50 
F36 "~MREQ" I L 5600 1800 50 
F37 "~IORQ" I L 5600 1900 50 
F38 "~BUSRQ" I L 5600 2000 50 
F39 "~BUSACK" I L 5600 2100 50 
F40 "~RAM_WE" I L 5600 2200 50 
F41 "~MREQb" I L 5600 2300 50 
F42 "~PER_CLK" I L 5600 2400 50 
F43 "~RDb" I L 5600 2500 50 
$EndSheet
Text Label 3525 800  0    50   ~ 0
~RESET
Text Label 3525 1800 0    50   ~ 0
~MREQ
Text Label 3525 1600 0    50   ~ 0
~RD
Wire Wire Line
	4600 2200 4900 2200
Wire Wire Line
	3525 900  3950 900 
Wire Wire Line
	4600 1800 4900 1800
Text Label 4900 1800 2    50   ~ 0
A10
Text Label 4900 1300 2    50   ~ 0
A5
Text Label 4900 1100 2    50   ~ 0
A3
Text Label 4900 1900 2    50   ~ 0
A11
Text Label 3525 1700 0    50   ~ 0
~WR
Wire Wire Line
	4600 1200 4900 1200
Text Label 4900 1600 2    50   ~ 0
A8
Text Label 4900 2100 2    50   ~ 0
A13
Text Label 4900 1200 2    50   ~ 0
A4
Text Label 3525 900  0    50   ~ 0
~CPU_CLK
Text Label 3525 2000 0    50   ~ 0
~BUSRQ
Text Label 3525 1300 0    50   ~ 0
~RFSH
Text Label 3525 1900 0    50   ~ 0
~IORQ
Text Label 3525 1100 0    50   ~ 0
~INT
Text Label 4900 2500 2    50   ~ 0
D1
Text Label 4900 2300 2    50   ~ 0
A15
Wire Wire Line
	4600 1900 4900 1900
Wire Wire Line
	4600 3100 4900 3100
Text Label 4900 1500 2    50   ~ 0
A7
Text Label 4900 3000 2    50   ~ 0
D6
Wire Wire Line
	4600 2900 4900 2900
Text Label 4900 900  2    50   ~ 0
A1
Wire Wire Line
	3525 800  3950 800 
Text Label 4900 2200 2    50   ~ 0
A14
Wire Wire Line
	4600 1000 4900 1000
Wire Wire Line
	4600 3000 4900 3000
Wire Wire Line
	3525 1500 3950 1500
Wire Wire Line
	3525 1600 3950 1600
Wire Wire Line
	4600 2100 4900 2100
Wire Wire Line
	3525 1400 3950 1400
Wire Wire Line
	4600 2600 4900 2600
Wire Wire Line
	4600 1700 4900 1700
Wire Wire Line
	4600 2700 4900 2700
Wire Wire Line
	4600 2400 4900 2400
Text Label 3525 1400 0    50   ~ 0
~WAIT
Text Label 4900 1700 2    50   ~ 0
A9
Text Label 4900 1400 2    50   ~ 0
A6
Text Label 4900 1000 2    50   ~ 0
A2
Text Label 3525 1200 0    50   ~ 0
~M1
Text Label 4900 2000 2    50   ~ 0
A12
Wire Wire Line
	3525 2000 3950 2000
Wire Wire Line
	3525 1300 3950 1300
Wire Wire Line
	3525 1900 3950 1900
Wire Wire Line
	4600 1400 4900 1400
Wire Wire Line
	4600 2500 4900 2500
Wire Wire Line
	4600 800  4900 800 
Text Label 4900 2400 2    50   ~ 0
D0
Wire Wire Line
	4600 1100 4900 1100
Wire Wire Line
	4600 1300 4900 1300
Wire Wire Line
	4600 900  4900 900 
Wire Wire Line
	4600 2000 4900 2000
Text Label 3525 2100 0    50   ~ 0
~BUSACK
Text Label 4900 2800 2    50   ~ 0
D4
Wire Wire Line
	4600 1600 4900 1600
Wire Wire Line
	3525 1000 3950 1000
Wire Wire Line
	3525 1100 3950 1100
Wire Wire Line
	3525 1800 3950 1800
Wire Wire Line
	4600 2300 4900 2300
Wire Wire Line
	3525 1200 3950 1200
Wire Wire Line
	4600 1500 4900 1500
Text Label 4900 800  2    50   ~ 0
A0
Text Label 4900 2700 2    50   ~ 0
D3
Text Label 4900 2600 2    50   ~ 0
D2
Text Label 4900 3100 2    50   ~ 0
D7
Wire Wire Line
	3525 1700 3950 1700
Text Label 3525 1500 0    50   ~ 0
~HALT
Wire Wire Line
	3525 2100 3950 2100
Text Label 4900 2900 2    50   ~ 0
D5
Text Label 3525 1000 0    50   ~ 0
~NMI
Wire Wire Line
	4600 2800 4900 2800
$Sheet
S 3950 675  650  2525
U 5EFDE485
F0 "RAMROM" 50
F1 "RAMROM.sch" 50
F2 "D0" I R 4600 2400 50 
F3 "D1" I R 4600 2500 50 
F4 "D2" I R 4600 2600 50 
F5 "D3" I R 4600 2700 50 
F6 "D4" I R 4600 2800 50 
F7 "D5" I R 4600 2900 50 
F8 "D6" I R 4600 3000 50 
F9 "D7" I R 4600 3100 50 
F10 "A0" I R 4600 800 50 
F11 "A1" I R 4600 900 50 
F12 "A2" I R 4600 1000 50 
F13 "A3" I R 4600 1100 50 
F14 "A4" I R 4600 1200 50 
F15 "A5" I R 4600 1300 50 
F16 "A6" I R 4600 1400 50 
F17 "A7" I R 4600 1500 50 
F18 "A8" I R 4600 1600 50 
F19 "A9" I R 4600 1700 50 
F20 "A10" I R 4600 1800 50 
F21 "A11" I R 4600 1900 50 
F22 "A12" I R 4600 2000 50 
F23 "A13" I R 4600 2100 50 
F24 "A14" I R 4600 2200 50 
F25 "A15" I R 4600 2300 50 
F26 "~RESET" I L 3950 800 50 
F27 "~CLK" I L 3950 900 50 
F28 "~NMI" I L 3950 1000 50 
F29 "~INT" I L 3950 1100 50 
F30 "~M1" I L 3950 1200 50 
F31 "~RFSH" I L 3950 1300 50 
F32 "~WAIT" I L 3950 1400 50 
F33 "~HALT" I L 3950 1500 50 
F34 "~RD" I L 3950 1600 50 
F35 "~WR" I L 3950 1700 50 
F36 "~MREQ" I L 3950 1800 50 
F37 "~IORQ" I L 3950 1900 50 
F38 "~BUSRQ" I L 3950 2000 50 
F39 "~BUSACK" I L 3950 2100 50 
F40 "~RAM_WE" I L 3950 2200 50 
F41 "~MREQb" I L 3950 2300 50 
F42 "~RDb" I L 3950 2400 50 
$EndSheet
$Sheet
S 700  3775 1225 975 
U 5EF69D76
F0 "Power" 50
F1 "Power.sch" 50
$EndSheet
Text Label 5175 2400 0    50   ~ 0
~PER_CLK
Wire Wire Line
	5600 2400 5175 2400
Text Label 3525 2400 0    50   ~ 0
~RDb
Wire Wire Line
	3950 2200 3525 2200
Text Label 3525 2300 0    50   ~ 0
~MREQb
Wire Wire Line
	3525 2300 3950 2300
Wire Wire Line
	3525 2400 3950 2400
Text Label 5175 2300 0    50   ~ 0
~MREQb
Wire Wire Line
	5175 2300 5600 2300
Wire Wire Line
	5175 2500 5600 2500
Text Label 5175 2500 0    50   ~ 0
~RDb
Wire Wire Line
	5600 2200 5175 2200
Text Label 5175 2200 0    50   ~ 0
~RAM_WE
Text Label 3525 2200 0    50   ~ 0
~RAM_WE
Wire Wire Line
	1875 2325 2300 2325
Text Label 1875 2325 0    50   ~ 0
~PER_CLK
$EndSCHEMATC
